ഒരു	o ɾu 
ഈ	iː 
എന്ന	e n̪n̪a 
തന്നെ	t̪a n̪n̪e 
പറഞ്ഞു	pa ra ɲɲu 
എന്ന്	e n̪n̪ə 
നിന്ന്	n̪i n̪n̪ə 
ആ	aː 
നിന്നും	n̪i n̪n̪um 
എന്നാൽ	e n̪n̪aːl 
എന്നാൽ	e nnaːl 
ഞാൻ	ɲaːn 
പി	pi 
സർക്കാർ	sar kkaːr 
അദ്ദേഹം	a d̪d̪eː ɦam 
പുതിയ	pu t̪i ja 
അത്	a t̪ə 
ചെയ്തു	t͡ʃe jt̪u 
കെ	ke 
സി	si 
ശേഷം	ʃeː ʂam 
കഴിഞ്ഞ	ka ɻi ɲɲa 
എസ്	e sə 
എം	em 
കൂടുതൽ	kuː ʈu t̪al 
എന്റെ	e nṯe 
കൊണ്ട്	ko ɳʈə 
ഏറ്റവും	eː ṯṯa ʋum 
പോലീസ്	poː liː sə 
വലിയ	ʋa li ja 
തന്റെ	t̪a nṯe 
മുതൽ	mu t̪al 
ഇത്	i t̪ə 
മാത്രം	maː t̪ram 
എല്ലാ	e llaː 
വരെ	ʋa ɾe 
സംസ്ഥാന	sam st̪ʰaː na 
ചില	t͡ʃi la 
ഇന്ത്യൻ	i n̪t̪jan 
അവർ	a ʋar 
രണ്ട്	ɾa ɳʈə 
കൂടി	kuː ʈi 
പോലെ	poː le 
ഇപ്പോൾ	i ppoːɭ 
എ	e 
ദിവസം	d̪i ʋa sam 
നടത്തിയ	n̪a ʈa t̪t̪i ja 
പോലും	poː lum 
തുടർന്ന്	t̪u ʈar n̪n̪ə 
എന്നു	e n̪n̪u 
ആണ്	aː ɳə 
ഇവിടെ	i ʋi ʈe 
വേണ്ടി	ʋeː ɳʈi 
പറയുന്നു	pa ra ju n̪n̪u 
നമ്മുടെ	n̪a mmu ʈe 
നടന്ന	n̪a ʈa n̪n̪a 
വീണ്ടും	ʋiː ɳʈum 
ന്	n̪ə 
ഇന്ന്	i n̪n̪ə 
നൽകി	n̪al ki 
മന്ത്രി	ma n̪t̪ri 
ജില്ലാ	ɟi llaː 
കോൺഗ്രസ്	koːɳ ɡɾa sə 
കോടതി	koː ʈa t̪i 
വിവിധ	ʋi ʋi d̪ʱa 
അവരുടെ	a ʋa ɾu ʈe 
പല	pa la 
തുടങ്ങിയ	t̪u ʈa ŋŋi ja 
വർഷം	ʋar ʂam 
നല്ല	n̪a lla 
രണ്ടു	ɾa ɳʈu 
കാരണം	kaː ɾa ɳam 
ബി	bi 
മുഖ്യമന്ത്രി	mu kʰja ma n̪t̪ri 
അറിയിച്ചു	a ri ji t͡ʃt͡ʃu 
റിപ്പോർട്ട്	ri ppoːr ʈʈə 
വളരെ	ʋa ɭa ɾe 
ചെയ്ത	t͡ʃe jt̪a 
സെക്രട്ടറി	se kra ʈʈa ri 
കേരള	keː ɾa ɭa 
പൊലീസ്	po liː sə 
വി	ʋi 
സ്വന്തം	sʋa n̪t̪am 
ഐ	ai̯ 
പ്രസിഡന്റ്	pra si ɖa nṯə 
ഇനി	i ni 
എന്നും	e n̪n̪um 
രൂപ	ɾuː pa 
പേരിൽ	peː ɾil 
നൽകിയ	n̪al ki ja 
രാഷ്ട്രീയ	ɾaː ʂʈriː ja 
പിന്നെ	pi n̪n̪e 
ഓരോ	oː ɾoː 
ബിജെപി	bi ɟe pi 
ഇത്തരം	i t̪t̪a ɾam 
കേന്ദ്ര	keː n̪d̪ɾa 
ചെയ്യുന്ന	t͡ʃe jju n̪n̪a 
പാർട്ടി	paːr ʈʈi 
വഴി	ʋa ɻi 
ടി	ʈi 
മൂന്ന്	muː n̪n̪ə 
എന്നീ	e n̪n̪iː 
ഡി	ɖi 
പിന്നീട്	pi n̪n̪iː ʈə 
എന്നാണ്	e n̪n̪aː ɳə 
തുടങ്ങി	t̪u ʈa ŋŋi 
ആദ്യ	aː d̪ja 
മറ്റു	ma ṯṯu 
മുൻ	mun 
മറ്റൊരു	ma ṯṯo ɾu 
ഇന്ത്യ	i n̪t̪ja 
ഓഫ്	oː fə 
പ്രധാന	pra d̪ʱaː na 
അടുത്ത	a ʈu t̪t̪a 
വരുന്ന	ʋa ɾu n̪n̪a 
നിരവധി	n̪i ɾa ʋa d̪ʱi 
പറയുന്നത്	pa ra ju n̪n̪a t̪ə 
ദേശീയ	d̪eː ʃiː ja 
മികച്ച	mi ka t͡ʃt͡ʃa 
അതിന്റെ	a t̪i nṯe 
മുമ്പ്	mu mpə 
നടത്തി	n̪a ʈa t̪t̪i 
അവിടെ	a ʋi ʈe 
ചെയ്യാൻ	t͡ʃe jjaːn 
സമയം	sa ma jam 
യു	ju 
മറ്റ്	ma ṯṯə 
നടക്കുന്ന	n̪a ʈa kku n̪n̪a 
മുന്നിൽ	mu n̪n̪il 
എനിക്ക്	e ni kkə 
താൻ	t̪aːn 
വ്യക്തമാക്കി	ʋja kt̪a maː kki 
കാര്യം	kaː ɾjam 
പണം	pa ɳam 
പ്രത്യേക	pra t̪jeː ka 
പക്ഷെ	pa kʂe 
വീട്ടിൽ	ʋiː ʈʈil 
ഏറെ	eː re 
കോടി	koː ʈi 
പക്ഷേ	pa kʂeː 
ചെയ്ത്	t͡ʃe jt̪ə 
ഇ	i 
ജോലി	ɟoː li 
ജനറൽ	ɟa na ral 
മുഴുവൻ	mu ɻu ʋan 
എന്നത്	e n̪n̪a t̪ə 
ചിത്രം	t͡ʃi t̪ram 
നേരത്തെ	n̪eː ɾa t̪t̪e 
ആർ	aːr 
സാമ്പത്തിക	saː mpa t̪t̪i ka 
മാത്രമല്ല	maː t̪ra ma lla 
നിന്നു	n̪i n̪n̪u 
രാവിലെ	ɾaː ʋi le 
പരാതി	pa ɾaː t̪i 
ലക്ഷം	la kʂam 
തന്നെയാണ്	t̪a n̪n̪e jaː ɳə 
എൻ	en 
മാത്രമേ	maː t̪ra meː 
കേസിൽ	keː sil 
വന്നു	ʋa n̪n̪u 
പോയി	poː ji 
നടപടി	n̪a ʈa pa ʈi 
കേരളത്തിൽ	keː ɾa ɭa t̪t̪il 
ചോദ്യം	t͡ʃoː d̪jam 
ചർച്ച	t͡ʃar t͡ʃt͡ʃa 
ചെയ്തത്	t͡ʃe jt̪a t̪ə 
വന്ന	ʋa n̪n̪a 
മുഹമ്മദ്	mu ɦa mma d̪ə 
എല്ലാം	e llaːm 
അങ്ങനെ	a ŋŋa ne 
എന്നെ	e n̪n̪e 
സ്കൂൾ	skuːɭ 
കേരളത്തിലെ	keː ɾa ɭa t̪t̪i le 
തങ്ങളുടെ	t̪a ŋŋa ɭu ʈe 
മാത്രമാണ്	maː t̪ra maː ɳə 
ആദ്യം	aː d̪jam 
സംഘം	sam ɡʱam 
നടത്തുന്ന	n̪a ʈa t̪t̪u n̪n̪a 
പ്രധാനമന്ത്രി	pra d̪ʱaː na ma n̪t̪ri 
ഇവർ	i ʋar 
കാര്യങ്ങൾ	kaː ɾja ŋŋaɭ 
സിപിഎം	si pi em 
രണ്ടാം	ɾa ɳʈaːm 
കേസ്	keː sə 
മെഡിക്കൽ	me ɖi kkal 
പേർ	peːr 
എന്നിവ	e n̪n̪i ʋa 
ചെറിയ	t͡ʃe ri ja 
ഉള്ള	u ɭɭa 
നിലയിൽ	n̪i la jil 
എന്നിവർ	e n̪n̪i ʋar 
അതേസമയം	a t̪eː sa ma jam 
ഒന്നും	o n̪n̪um 
മാസം	maː sam 
പദ്ധതി	pa d̪d̪ʱa t̪i 
ജെ	ɟe 
കാണാൻ	kaː ɳaːn 
ഇന്നലെ	i n̪n̪a le 
ഇങ്ങനെ	i ŋŋa ne 
നാം	n̪aːm 
അന്വേഷണം	a nʋeː ʂa ɳam 
നേതാവ്	n̪eː t̪aː ʋə 
നാല്	n̪aː lə 
ശതമാനം	ʃa t̪a maː nam 
വിവരം	ʋi ʋa ɾam 
നേതൃത്വത്തിൽ	n̪eː t̪rɨ t̪ʋa t̪t̪il 
മൂന്നു	muː n̪n̪u 
പറഞ്ഞത്	pa ra ɲɲa t̪ə 
അഞ്ച്	a ɲt͡ʃə 
അതിൽ	a t̪il 
അതു	a t̪u 
വകുപ്പ്	ʋa ku ppə 
വില	ʋi la 
കുറിച്ച്	ku ri t͡ʃt͡ʃə 
അറസ്റ്റ്	a ra sṯṯə 
സംവിധാനം	sam ʋi d̪ʱaː nam 
ഭാഗമായി	bʱaː ɡa maː ji 
തീരുമാനം	t̪iː ɾu maː nam 
ചേർന്ന്	t͡ʃeːr n̪n̪ə 
ആയി	aː ji 
യാത്ര	jaː t̪ra 
ഉദ്ഘാടനം	u d̪ɡʱaː ʈa nam 
എൽ	el 
നൽകുന്ന	n̪al ku n̪n̪a 
ഒക്കെ	o kke 
പറഞ്ഞ്	pa ra ɲɲə 
സ്വകാര്യ	sʋa kaː ɾja 
നേതൃത്വം	n̪eː t̪rɨ t̪ʋam 
അധികൃതർ	a d̪ʱi krɨ t̪ar 
അദ്ദേഹത്തിന്റെ	a d̪d̪eː ɦa t̪t̪i nṯe 
ഞങ്ങൾ	ɲa ŋŋaɭ 
മുസ്ലിം	mu slim 
നിന്നുള്ള	n̪i n̪n̪u ɭɭa 
രീതിയിൽ	ɾiː t̪i jil 
പോസ്റ്റ്	poː sṯṯə 
ചെയ്യുന്നത്	t͡ʃe jju n̪n̪a t̪ə 
നമുക്ക്	n̪a mu kkə 
കൂടാതെ	kuː ʈaː t̪e 
കഥ	ka t̪ʰa 
അല്ലെങ്കിൽ	a lle ŋkil 
കണ്ടു	ka ɳʈu 
ജി	ɟi 
നിങ്ങൾ	n̪i ŋŋaɭ 
ഒന്ന്	o n̪n̪ə 
മുൻപ്	mun pə 
പഞ്ചായത്ത്	pa ɲt͡ʃaː ja t̪t̪ə 
അൽ	al 
ബാങ്ക്	baː ŋkə 
ജീവിതം	ɟiː ʋi t̪am 
അമേരിക്കൻ	a meː ɾi kkan 
കൂടെ	kuː ʈe 
രാത്രി	ɾaː t̪ri 
പിണറായി	pi ɳa raː ji 
പകരം	pa ka ɾam 
മറുപടി	ma ru pa ʈi 
ലെ	le 
എത്ര	e t̪ra 
വൻ	ʋan 
ബന്ധപ്പെട്ട്	ba n̪d̪ʱa ppe ʈʈə 
വിവരങ്ങൾ	ʋi ʋa ɾa ŋŋaɭ 
കോഴിക്കോട്	koː ɻi kkoː ʈə 
മറ്റും	ma ṯṯum 
നീ	n̪iː 
സ്വയം	sʋa jam 
ചെയ്യും	t͡ʃe jjum 
വെച്ച്	ʋe t͡ʃt͡ʃə 
എന്നതാണ്	e n̪n̪a t̪aː ɳə 
പഴയ	pa ɻa ja 
നോക്കി	n̪oː kki 
അവരെ	a ʋa ɾe 
വെള്ളം	ʋe ɭɭam 
വച്ച്	ʋa t͡ʃt͡ʃə 
നമ്മൾ	n̪a mmaɭ 
ശക്തമായ	ʃa kt̪a maː ja 
ഇതു	i t̪u 
തോമസ്	t̪oː ma sə 
സിനിമ	si ni ma 
എഫ്	e fə 
ചെയ്യുന്നു	t͡ʃe jju n̪n̪u 
വരും	ʋa ɾum 
ഇതിൽ	i t̪il 
സംബന്ധിച്ച്	sam ba n̪d̪ʱi t͡ʃt͡ʃə 
പ്രകാരം	pra kaː ɾam 
അന്ന്	a n̪n̪ə 
ബന്ധപ്പെട്ട	ba n̪d̪ʱa ppe ʈʈa 
ആവശ്യപ്പെട്ടു	aː ʋa ʃja ppe ʈʈu 
യോഗം	joː ɡam 
ഉണ്ട്	u ɳʈə 
വിദ്യാഭ്യാസ	ʋi d̪jaː bʱjaː sa 
തിരുവനന്തപുരം	t̪i ɾu ʋa na n̪t̪a pu ɾam 
സംഭവം	sam bʱa ʋam 
സമരം	sa ma ɾam 
വാർത്ത	ʋaːr t̪t̪a 
സാഹചര്യത്തിൽ	saː ɦa t͡ʃa ɾja t̪t̪il 
കാലത്ത്	kaː la t̪t̪ə 
മാറ്റി	maː ṯṯi 
തമ്മിൽ	t̪a mmil 
കൊണ്ടു	ko ɳʈu 
ആയിരുന്നു	aː ji ɾu n̪n̪u 
രാജ്യത്തെ	ɾaː ɟja t̪t̪e 
നൽകിയത്	n̪al ki ja t̪ə 
നേരെ	n̪eː ɾe 
അവൻ	a ʋan 
മോദി	moː d̪i 
ജില്ലയിലെ	ɟi lla ji le 
നിങ്ങളുടെ	n̪i ŋŋa ɭu ʈe 
മാറി	maː ri 
നൽകാൻ	n̪al kaːn 
അതേ	a t̪eː 
പേര്	peː ɾə 
പറഞ്ഞ	pa ra ɲɲa 
വിഭാഗം	ʋi bʱaː ɡam 
ഒന്നാം	o n̪n̪aːm 
സർക്കാരിന്റെ	sar kkaː ɾi nṯe 
ഫോൺ	foːɳ 
ഡോ	ɖoː 
ആശുപത്രിയിൽ	aː ʃu pa t̪ri jil 
പുറത്ത്	pu ra t̪t̪ə 
അമ്മ	a mma 
സോഷ്യൽ	soː ʂjal 
ഉപയോഗിച്ച്	u pa joː ɡi t͡ʃt͡ʃə 
നടപടികൾ	n̪a ʈa pa ʈi kaɭ 
കഴിഞ്ഞു	ka ɻi ɲɲu 
കോടതിയിൽ	koː ʈa t̪i jil 
നിലപാട്	n̪i la paː ʈə 
കാലം	kaː lam 
കാര്യത്തിൽ	kaː ɾja t̪t̪il 
ഇന്ത്യയിൽ	i n̪t̪ja jil 
അവൾ	a ʋaɭ 
എങ്ങനെ	e ŋŋa ne 
കണ്ട്	ka ɳʈə 
നിൽക്കുന്ന	n̪il kku n̪n̪a 
നന്ദി	n̪a n̪d̪i 
ഇന്ത്യയുടെ	i n̪t̪ja ju ʈe 
ഇതിന്റെ	i t̪i nṯe 
അനുമതി	a nu ma t̪i 
ഇനിയും	i ni jum 
ആരും	aː ɾum 
പറയാൻ	pa ra jaːn 
നിയമം	n̪i ja mam 
എങ്കിലും	e ŋki lum 
ഭൂമി	bʱuː mi 
കമ്മിറ്റി	ka mmi ṯṯi 
മൂലം	muː lam 
തവണ	t̪a ʋa ɳa 
താരം	t̪aː ɾam 
ഭാര്യ	bʱaː ɾja 
മൊബൈൽ	mo bai̯l 
രംഗത്ത്	ɾam ɡa t̪t̪ə 
സുപ്രീം	su priːm 
ചീഫ്	t͡ʃiː fə 
നേടിയ	n̪eː ʈi ja 
സമിതി	sa mi t̪i 
നിലവിൽ	n̪i la ʋil 
ഉടൻ	u ʈan 
മലയാളം	ma la jaː ɭam 
അയാൾ	a jaːɭ 
നീക്കം	n̪iː kkam 
മലയാളി	ma la jaː ɭi 
കേരളം	keː ɾa ɭam 
വേണം	ʋeː ɳam 
കണ്ണൂർ	ka ɳɳuːr 
വിവാഹം	ʋi ʋaː ɦam 
സമയത്ത്	sa ma ja t̪t̪ə 
അവർക്ക്	a ʋar kkə 
ഇതുവരെ	i t̪u ʋa ɾe 
നേതാക്കൾ	n̪eː t̪aː kkaɭ 
സാധാരണ	saː d̪ʱaː ɾa ɳa 
നടന്നു	n̪a ʈa n̪n̪u 
സ്ഥലം	st̪ʰa lam 
പ്രമുഖ	pra mu kʰa 
വിതരണം	ʋi t̪a ɾa ɳam 
രാഹുൽ	ɾaː ɦul 
അതിനു	a t̪i nu 
മകൻ	ma kan 
ആവശ്യം	aː ʋa ʃjam 
ഹൈക്കോടതി	ɦai̯ kkoː ʈa t̪i 
പോയ	poː ja 
റോഡ്	roː ɖə 
നാട്ടിൽ	n̪aː ʈʈil 
മലയാള	ma la jaː ɭa 
കടുത്ത	ka ʈu t̪t̪a 
ഇതിന്	i t̪i nə 
സ്ഥാനം	st̪ʰaː nam 
കമ്പനി	ka mpa ni 
നടത്താൻ	n̪a ʈa t̪t̪aːn 
ഇപ്പോഴും	i ppoː ɻum 
നടത്തിയത്	n̪a ʈa t̪t̪i ja t̪ə 
കയറി	ka ja ri 
മനസ്സിൽ	ma na ssil 
അപ്പോൾ	a ppoːɭ 
യോഗത്തിൽ	joː ɡa t̪t̪il 
കുമാർ	ku maːr 
തുക	t̪u ka 
വിധി	ʋi d̪ʱi 
ചെയർമാൻ	t͡ʃe jar maːn 
മേഖലയിൽ	meː kʰa la jil 
എൻറെ	en re 
ചെയ്തിരുന്നു	t͡ʃe jt̪i ɾu n̪n̪u 
സ്ത്രീ	st̪riː 
സംബന്ധിച്ച	sam ba n̪d̪ʱi t͡ʃt͡ʃa 
എന്ത്	e n̪t̪ə 
പറയുന്ന	pa ra ju n̪n̪a 
ലഭിച്ച	la bʱi t͡ʃt͡ʃa 
ബോർഡ്	boːr ɖə 
പ്രവർത്തകർ	pra ʋar t̪t̪a kar 
തൊഴിൽ	t̪o ɻil 
സ്വദേശി	sʋa d̪eː ʃi 
പലരും	pa la ɾum 
ശ്രീ	ʃriː 
പിന്നിൽ	pi n̪n̪il 
കമ്മീഷൻ	ka mmiː ʂan 
ഇന്ത്യയിലെ	i n̪t̪ja ji le 
ബസ്	ba sə 
ആരോപണം	aː ɾoː pa ɳam 
വേണ്ട	ʋeː ɳʈa 
വീഡിയോ	ʋiː ɖi joː 
പോകുന്ന	poː ku n̪n̪a 
നികുതി	n̪i ku t̪i 
കുറച്ചു	ku ra t͡ʃt͡ʃu 
യാതൊരു	jaː t̪o ɾu 
തമ്മിലുള്ള	t̪a mmi lu ɭɭa 
ആറ്	aː rə 
അതിന്	a t̪i nə 
തിരിച്ചു	t̪i ɾi t͡ʃt͡ʃu 
പ്രശ്നം	pra ʃnam 
അവസാന	a ʋa saː na 
പിന്നാലെ	pi n̪n̪aː le 
തെരഞ്ഞെടുപ്പ്	t̪e ɾa ɲɲe ʈu ppə 
നാലു	n̪aː lu 
തങ്ങൾ	t̪a ŋŋaɭ 
മാർച്ച്	maːr t͡ʃt͡ʃə 
അന്വേഷണ	a nʋeː ʂa ɳa 
വനിതാ	ʋa ni t̪aː 
വൈസ്	ʋai̯ sə 
ശ്രമം	ʃra mam 
പ്രവർത്തനം	pra ʋar t̪t̪a nam 
സംഭവത്തിൽ	sam bʱa ʋa t̪t̪il 
ഏതെങ്കിലും	eː t̪e ŋki lum 
വിഷയത്തിൽ	ʋi ʂa ja t̪t̪il 
പലപ്പോഴും	pa la ppoː ɻum 
തിരഞ്ഞെടുപ്പ്	t̪i ɾa ɲɲe ʈu ppə 
ഒരാൾ	o ɾaːɭ 
ഇല്ല	i lla 
ലക്ഷ്യം	la kʂjam 
പ്രശ്നങ്ങൾ	pra ʃna ŋŋaɭ 
അഭിപ്രായം	a bʱi praː jam 
ഒന്നു	o n̪n̪u 
കോളേജ്	koː ɭeː ɟə 
ഡയറക്ടർ	ɖa ja ra kʈar 
ലീഗ്	liː ɡə 
ഒരേ	o ɾeː 
കൊച്ചി	ko t͡ʃt͡ʃi 
പ്രവർത്തിക്കുന്ന	pra ʋar t̪t̪i kku n̪n̪a 
ലോക	loː ka 
നന്നായി	n̪a n̪n̪aː ji 
ചിത്രങ്ങൾ	t͡ʃi t̪ra ŋŋaɭ 
ആദ്യമായി	aː d̪ja maː ji 
മൂന്നാം	muː n̪n̪aːm 
ജോസഫ്	ɟoː sa fə 
കാണാം	kaː ɳaːm 
എല്ലാവരും	e llaː ʋa ɾum 
ആൻഡ്	aːn ɖə 
നാളെ	n̪aː ɭe 
വിജയം	ʋi ɟa jam 
അവളുടെ	a ʋa ɭu ʈe 
നായർ	n̪aː jar 
ഭക്ഷണം	bʱa kʂa ɳam 
നേടി	n̪eː ʈi 
അന്താരാഷ്ട്ര	a n̪t̪aː ɾaː ʂʈra 
ക്രിക്കറ്റ്	kri kka ṯṯə 
വന്നത്	ʋa n̪n̪a t̪ə 
വിദേശ	ʋi d̪eː ʃa 
ആളുകൾ	aː ɭu kaɭ 
അവസരം	a ʋa sa ɾam 
ഇതേ	i t̪eː 
എണ്ണം	e ɳɳam 
തനിക്ക്	t̪a ni kkə 
മുകളിൽ	mu ka ɭil 
സുരക്ഷാ	su ɾa kʂaː 
കുട്ടികൾ	ku ʈʈi kaɭ 
വർഷത്തെ	ʋar ʂa t̪t̪e 
അഞ്ചു	a ɲt͡ʃu 
അതുകൊണ്ട്	a t̪u ko ɳʈə 
സഹായം	sa ɦaː jam 
കണ്ടെത്തി	ka ɳʈe t̪t̪i 
അതിനെ	a t̪i ne 
അടിസ്ഥാനത്തിൽ	a ʈi st̪ʰaː na t̪t̪il 
പത്ത്	pa t̪t̪ə 
കുറഞ്ഞ	ku ra ɲɲa 
പൊതു	po t̪u 
ഉയർന്ന	u jar n̪n̪a 
കണ്ട	ka ɳʈa 
വെറും	ʋe rum 
ആഭ്യന്തര	aː bʱja n̪t̪a ɾa 
കൊല്ലം	ko llam 
ആയ	aː ja 
ഒടുവിൽ	o ʈu ʋil 
ഉൾപ്പെടെ	uɭ ppe ʈe 
അല്ല	a lla 
കഴിയുന്ന	ka ɻi ju n̪n̪a 
ബന്ധം	ba n̪d̪ʱam 
സാമൂഹിക	saː muː ɦi ka 
സെന്റ്	se nṯə 
രൂപയുടെ	ɾuː pa ju ʈe 
അതിനാൽ	a t̪i naːl 
ജില്ലയിൽ	ɟi lla jil 
ജനങ്ങൾ	ɟa na ŋŋaɭ 
ഇവരുടെ	i ʋa ɾu ʈe 
വീട്	ʋiː ʈə 
കോട്ടയം	koː ʈʈa jam 
പോലുള്ള	poː lu ɭɭa 
താഴെ	t̪aː ɻe 
കഴിഞ്ഞ്	ka ɻi ɲɲə 
സത്യം	sa t̪jam 
കാർ	kaːr 
ഇത്രയും	i t̪ra jum 
ഇന്നും	i n̪n̪um 
രാജ്യത്ത്	ɾaː ɟja t̪t̪ə 
എറണാകുളം	e ra ɳaː ku ɭam 
നിർദേശം	n̪ir d̪eː ʃam 
നരേന്ദ്ര	n̪a ɾeː n̪d̪ɾa 
ഏത്	eː t̪ə 
ഇയാൾ	i jaːɭ 
ആരോഗ്യ	aː ɾoː ɡja 
അവന്റെ	a ʋa nṯe 
ഞങ്ങളുടെ	ɲa ŋŋa ɭu ʈe 
ഒപ്പം	o ppam 
സൂചന	suː t͡ʃa na 
എന്തെങ്കിലും	e n̪t̪e ŋki lum 
ഇക്കാര്യം	i kkaː ɾjam 
കടന്നു	ka ʈa n̪n̪u 
വരുന്നത്	ʋa ɾu n̪n̪a t̪ə 
പ്രവർത്തനങ്ങൾ	pra ʋar t̪t̪a na ŋŋaɭ 
ഞാനും	ɲaː num 
ഒരിക്കലും	o ɾi kka lum 
അവാർഡ്	a ʋaːr ɖə 
ചടങ്ങിൽ	t͡ʃa ʈa ŋŋil 
ഉദ്യോഗസ്ഥർ	u d̪joː ɡa st̪ʰar 
വിജയൻ	ʋi ɟa jan 
അവ	a ʋa 
വാങ്ങി	ʋaː ŋŋi 
പറഞ്ഞാൽ	pa ra ɲɲaːl 
പുറത്തു	pu ra t̪t̪u 
ഇന്നത്തെ	i n̪n̪a t̪t̪e 
മുഖം	mu kʰam 
അധികം	a d̪ʱi kam 
ഉത്തരവ്	u t̪t̪a ɾa ʋə 
വൈദ്യുതി	ʋai̯ d̪ju t̪i 
എത്തി	e t̪t̪i 
മതി	ma t̪i 
മരിച്ചു	ma ɾi t͡ʃt͡ʃu 
ഹിന്ദു	ɦi n̪d̪u 
ചിലർ	t͡ʃi lar 
സർവീസ്	sar ʋiː sə 
നിന്നാണ്	n̪i n̪n̪aː ɳə 
മരണം	ma ɾa ɳam 
വികസന	ʋi ka sa na 
ലോകം	loː kam 
നേരിട്ട്	n̪eː ɾi ʈʈə 
പ്രതിപക്ഷ	pra t̪i pa kʂa 
സ്ഥിതി	st̪ʰi t̪i 
വന്ന്	ʋa n̪n̪ə 
യുടെ	ju ʈe 
ആദ്യത്തെ	aː d̪ja t̪t̪e 
വിളിച്ചു	ʋi ɭi t͡ʃt͡ʃu 
ബ്ലോഗ്	bloː ɡə 
സ്കൂളിൽ	skuː ɭil 
പ്രതി	pra t̪i 
സാംസ്കാരിക	saːm skaː ɾi ka 
ചേർന്ന	t͡ʃeːr n̪n̪a 
വാർത്തകൾ	ʋaːr t̪t̪a kaɭ 
ആക്രമണം	aː kra ma ɳam 
സംസ്ഥാനത്ത്	sam st̪ʰaː na t̪t̪ə 
ചോദിച്ചു	t͡ʃoː d̪i t͡ʃt͡ʃu 
സാധ്യത	saː d̪ʱja t̪a 
ഒരിക്കൽ	o ɾi kkal 
ചെയ്യുക	t͡ʃe jju ka 
കഴിയും	ka ɻi jum 
മഴ	ma ɻa 
വാദം	ʋaː d̪am 
മുതിർന്ന	mu t̪ir n̪n̪a 
ഏതു	eː t̪u 
പിടിച്ചു	pi ʈi t͡ʃt͡ʃu 
സംസ്ഥാനത്തെ	sam st̪ʰaː na t̪t̪e 
ഗാന്ധി	ɡaː n̪d̪ʱi 
നിർദ്ദേശം	n̪ir d̪d̪eː ʃam 
മാറ്റം	maː ṯṯam 
തിരികെ	t̪i ɾi ke 
ഗ്രൂപ്പ്	ɡɾuː ppə 
തുടർന്നാണ്	t̪u ʈar n̪n̪aː ɳə 
പരിശോധന	pa ɾi ʃoː d̪ʱa na 
ശേഷമാണ്	ʃeː ʂa maː ɳə 
പിന്തുണ	pi n̪t̪u ɳa 
കേരളത്തിന്റെ	keː ɾa ɭa t̪t̪i nṯe 
ജോർജ്	ɟoːr ɟə 
ചിത്രത്തിൽ	t͡ʃi t̪ra t̪t̪il 
മുന്നോട്ട്	mu n̪n̪oː ʈʈə 
കൗൺസിൽ	kau̯ɳ sil 
പാക്	paː kə 
തുടക്കം	t̪u ʈa kkam 
സാങ്കേതിക	saː ŋkeː t̪i ka 
ജസ്റ്റിസ്	ɟa sṯṯi sə 
സൂപ്പർ	suː ppar 
നമ്പർ	n̪a mpar 
ടീം	ʈiːm 
കുട്ടികളെ	ku ʈʈi ka ɭe 
എത്തിയ	e t̪t̪i ja 
പഠനം	pa ʈʰa nam 
കേന്ദ്രം	keː n̪d̪ɾam 
കുറച്ച്	ku ra t͡ʃt͡ʃə 
നിറഞ്ഞ	n̪i ra ɲɲa 
മലപ്പുറം	ma la ppu ram 
നിന്റെ	n̪i nṯe 
കനത്ത	ka na t̪t̪a 
കൈ	kai̯ 
ചൂണ്ടിക്കാട്ടി	t͡ʃuː ɳʈi kkaː ʈʈi 
വോട്ട്	ʋoː ʈʈə 
മുംബൈ	mum bai̯ 
കാണുന്ന	kaː ɳu n̪n̪a 
പുറമെ	pu ra me 
സുരേഷ്	su ɾeː ʂə 
കൃഷി	krɨ ʂi 
സംശയം	sam ʃa jam 
റെയിൽവേ	re jil ʋeː 
സൗദി	sau̯ d̪i 
ദൈവം	d̪ai̯ ʋam 
ഓഫീസ്	oː fiː sə 
രൂപം	ɾuː pam 
ഏതാനും	eː t̪aː num 
നടത്തുന്നത്	n̪a ʈa t̪t̪u n̪n̪a t̪ə 
ഇത്തരത്തിൽ	i t̪t̪a ɾa t̪t̪il 
സമീപം	sa miː pam 
സമ്മേളനം	sa mmeː ɭa nam 
ലഭിക്കുന്ന	la bʱi kku n̪n̪a 
പേരും	peː ɾum 
ഉണ്ടായിരുന്നു	u ɳʈaː ji ɾu n̪n̪u 
ഔദ്യോഗിക	au̯ d̪joː ɡi ka 
മാർ	maːr 
ചേർത്ത്	t͡ʃeːr t̪t̪ə 
കിലോമീറ്റർ	ki loː miː ṯṯar 
ഇംഗ്ലീഷ്	im ɡliː ʂə 
എന്തു	e n̪t̪u 
അസോസിയേഷൻ	a soː si jeː ʂan 
നിയമ	n̪i ja ma 
എന്നിവരാണ്	e n̪n̪i ʋa ɾaː ɳə 
ഇതിനു	i t̪i nu 
കുറെ	ku re 
ഒ	o 
ഏപ്രിൽ	eː pril 
വിജിലൻസ്	ʋi ɟi lan sə 
ഇവരെ	i ʋa ɾe 
വരുന്നു	ʋa ɾu n̪n̪u 
കുട്ടികളുടെ	ku ʈʈi ka ɭu ʈe 
തമിഴ്	t̪a mi ɻə 
ഇവ	i ʋa 
പോകാൻ	poː kaːn 
ഏഴ്	eː ɻə 
നൽകുന്നത്	n̪al ku n̪n̪a t̪ə 
നാഷണൽ	n̪aː ʂa ɳal 
ആർക്കും	aːr kkum 
ജീവൻ	ɟiː ʋan 
അവസാനം	a ʋa saː nam 
ആവശ്യപ്പെട്ട്	aː ʋa ʃja ppe ʈʈə 
കുട്ടി	ku ʈʈi 
വിഷയം	ʋi ʂa jam 
കൊണ്ടാണ്	ko ɳʈaː ɳə 
ഡിസംബർ	ɖi sam bar 
സിംഗ്	sim ɡə 
നിയമസഭാ	n̪i ja ma sa bʱaː 
മത്സരത്തിൽ	ma t̪sa ɾa t̪t̪il 
വിട്ടു	ʋi ʈʈu 
തൻറെ	t̪an re 
എഴുതി	e ɻu t̪i 
രമേശ്	ɾa meː ʃə 
ജോൺ	ɟoːɳ 
അദ്ദേഹത്തെ	a d̪d̪eː ɦa t̪t̪e 
ഭാഗം	bʱaː ɡam 
മാധ്യമ	maː d̪ʱja ma 
ഉന്നത	u nna t̪a 
ഫലം	pʰa lam 
അഥവാ	a t̪ʰa ʋaː 
കരാർ	ka ɾaːr 
ജീവിതത്തിൽ	ɟiː ʋi t̪a t̪t̪il 
തുറന്നു	t̪u ra n̪n̪u 
മരിച്ച	ma ɾi t͡ʃt͡ʃa 
രാജ്യം	ɾaː ɟjam 
രജിസ്റ്റർ	ɾa ɟi sṯṯar 
തിരഞ്ഞെടുപ്പിൽ	t̪i ɾa ɲɲe ʈu ppil 
തീരുമാനിച്ചു	t̪iː ɾu maː ni t͡ʃt͡ʃu 
നാട്ടുകാർ	n̪aː ʈʈu kaːr 
മൃതദേഹം	mrɨ t̪a d̪eː ɦam 
വരെയുള്ള	ʋa ɾe ju ɭɭa 
ഓൺലൈൻ	oːɳ lai̯n 
തേടി	t̪eː ʈi 
പ്രതിഷേധം	pra t̪i ʂeː d̪ʱam 
ഡൽഹി	ɖal ɦi 
കണ്ടെത്തിയത്	ka ɳʈe t̪t̪i ja t̪ə 
കാർഡ്	kaːr ɖə 
യുവതി	ju ʋa t̪i 
തോന്നി	t̪oː n̪n̪i 
തൃശൂർ	t̪rɨ ʃuːr 
സിനിമാ	si ni maː 
ജനങ്ങളുടെ	ɟa na ŋŋa ɭu ʈe 
പാർട്ടിയുടെ	paːr ʈʈi ju ʈe 
അപേക്ഷ	a peː kʂa 
നടന്നത്	n̪a ʈa n̪n̪a t̪ə 
നീണ്ട	n̪iː ɳʈa 
അഴിമതി	a ɻi ma t̪i 
ഇത്തവണ	i t̪t̪a ʋa ɳa 
തോന്നുന്നു	t̪oː n̪n̪u n̪n̪u 
കിട്ടിയ	ki ʈʈi ja 
നടക്കും	n̪a ʈa kkum 
തമിഴ്നാട്	t̪a mi ɻn̪aː ʈə 
പാലക്കാട്	paː la kkaː ʈə 
ഉൾപ്പെടെയുള്ള	uɭ ppe ʈe ju ɭɭa 
ഇതോടെ	i t̪oː ʈe 
കൈകാര്യം	kai̯ kaː ɾjam 
എട്ട്	e ʈʈə 
മത	ma t̪a 
എഴുതിയ	e ɻu t̪i ja 
സൈനിക	sai̯ ni ka 
അമേരിക്ക	a meː ɾi kka 
ചരിത്രം	t͡ʃa ɾi t̪ram 
നവംബർ	n̪a ʋam bar 
ശബരിമല	ʃa ba ɾi ma la 
അടിസ്ഥാന	a ʈi st̪ʰaː na 
പരിപാടി	pa ɾi paː ʈi 
ക്ലാസ്	klaː sə 
സ്ത്രീകൾ	st̪riː kaɭ 
പെട്ടെന്ന്	pe ʈʈe n̪n̪ə 
പരസ്പരം	pa ɾa spa ɾam 
കണ്ടത്	ka ɳʈa t̪ə 
അബ്ദുൽ	a bd̪ul 
നൽകിയിരുന്നു	n̪al ki ji ɾu n̪n̪u 
തെരഞ്ഞെടുപ്പിൽ	t̪e ɾa ɲɲe ʈu ppil 
മൊഴി	mo ɻi 
മുന്നറിയിപ്പ്	mu n̪n̪a ri ji ppə 
ലോകത്തെ	loː ka t̪t̪e 
സംവിധായകൻ	sam ʋi d̪ʱaː ja kan 
നൽകും	n̪al kum 
യുഡിഎഫ്	ju ɖi e fə 
ചെയ്താൽ	t͡ʃe jt̪aːl 
ഒരുപാട്	o ɾu paː ʈə 
പരിസ്ഥിതി	pa ɾi st̪ʰi t̪i 
എടുത്തു	e ʈu t̪t̪u 
സമ്മേളനത്തിൽ	sa mmeː ɭa na t̪t̪il 
താങ്കൾ	t̪aː ŋkaɭ 
എയർ	e jar 
വ്യാജ	ʋjaː ɟa 
ആവശ്യമായ	aː ʋa ʃja maː ja 
വാക്കുകൾ	ʋaː kku kaɭ 
ജൂൺ	ɟuːɳ 
ഫേസ്ബുക്ക്	feː sbu kkə 
പണി	pa ɳi 
ആറു	aː ru 
ആരോപിച്ചു	aː ɾoː pi t͡ʃt͡ʃu 
നേരം	n̪eː ɾam 
പങ്കെടുത്തു	pa ŋke ʈu t̪t̪u 
ഹർജി	ɦar ɟi 
സിനിമയിൽ	si ni ma jil 
എന്തായാലും	e n̪t̪aː jaː lum 
കൂട്ടിച്ചേർത്തു	kuː ʈʈi t͡ʃt͡ʃeːr t̪t̪u 
കവിത	ka ʋi t̪a 
സിബിഐ	si bi ai̯ 
സ്ഥലത്ത്	st̪ʰa la t̪t̪ə 
പറ്റി	pa ṯṯi 
കരുതി	ka ɾu t̪i 
ബാക്കി	baː kki 
ആധുനിക	aː d̪ʱu ni ka 
അത്തരം	a t̪t̪a ɾam 
നടക്കുന്നത്	n̪a ʈa kku n̪n̪a t̪ə 
പ്രകടനം	pra ka ʈa nam 
പുരസ്കാരം	pu ɾa skaː ɾam 
പേരെ	peː ɾe 
പുസ്തകം	pu st̪a kam 
രാജ്യത്തിന്റെ	ɾaː ɟja t̪t̪i nṯe 
മാധ്യമങ്ങൾ	maː d̪ʱja ma ŋŋaɭ 
ദിവസവും	d̪i ʋa sa ʋum 
ആശുപത്രി	aː ʃu pa t̪ri 
മകൾ	ma kaɭ 
മേൽ	meːl 
ഉത്തരം	u t̪t̪a ɾam 
സാമൂഹ്യ	saː muː ɦja 
അവസ്ഥ	a ʋa st̪ʰa 
സുപ്രീംകോടതി	su priːm koː ʈa t̪i 
അയാളുടെ	a jaː ɭu ʈe 
വരുമ്പോൾ	ʋa ɾu mpoːɭ 
ശിക്ഷ	ʃi kʂa 
ധാരാളം	d̪ʱaː ɾaː ɭam 
ബ്രിട്ടീഷ്	bri ʈʈiː ʂə 
എന്നിങ്ങനെ	e n̪n̪i ŋŋa ne 
ജനുവരി	ɟa nu ʋa ɾi 
വാഗ്ദാനം	ʋaː ɡd̪aː nam 
ഓഫീസർ	oː fiː sar 
വിശ്വാസം	ʋi ʃʋaː sam 
മണിക്കൂർ	ma ɳi kkuːr 
മണി	ma ɳi 
നടി	n̪a ʈi 
ആലപ്പുഴ	aː la ppu ɻa 
തുടങ്ങിയവർ	t̪u ʈa ŋŋi ja ʋar 
ജോസ്	ɟoː sə 
നടൻ	n̪a ʈan 
വേറെ	ʋeː re 
പ്രാദേശിക	praː d̪eː ʃi ka 
ഉമ്മൻ	u mman 
ജയിലിൽ	ɟa ji lil 
അടക്കമുള്ള	a ʈa kka mu ɭɭa 
കീഴിൽ	kiː ɻil 
കേസിലെ	keː si le 
തല	t̪a la 
ഇന്നു	i n̪n̪u 
നേതൃത്വത്തിലുള്ള	n̪eː t̪rɨ t̪ʋa t̪t̪i lu ɭɭa 
എന്നിവരുടെ	e n̪n̪i ʋa ɾu ʈe 
ഇക്കാര്യത്തിൽ	i kkaː ɾja t̪t̪il 
അത്ര	a t̪ra 
സ്വാമി	sʋaː mi 
ഭാഗത്ത്	bʱaː ɡa t̪t̪ə 
ശ്രദ്ധ	ʃra d̪d̪ʱa 
പെൺകുട്ടി	peɳ ku ʈʈi 
ദേവസ്വം	d̪eː ʋa sʋam 
ഫോട്ടോ	foː ʈʈoː 
ശേഖരിച്ചത്	ʃeː kʰa ɾi t͡ʃt͡ʃa t̪ə 
സേവനം	seː ʋa nam 
കാണുന്നത്	kaː ɳu n̪n̪a t̪ə 
ഒക്ടോബർ	o kʈoː bar 
മത്സരം	ma t̪sa ɾam 
ലഭിച്ചത്	la bʱi t͡ʃt͡ʃa t̪ə 
സഭ	sa bʱa 
ബിൻ	bin 
അടക്കം	a ʈa kkam 
അച്ഛൻ	a t͡ʃt͡ʃʰan 
ലൈംഗിക	lai̯m ɡi ka 
റിപ്പോർട്ടുകൾ	ri ppoːr ʈʈu kaɭ 
അംഗം	am ɡam 
നിർത്തി	n̪ir t̪t̪i 
എച്ച്	e t͡ʃt͡ʃə 
സന്തോഷം	sa n̪t̪oː ʂam 
ഇല്ലാത്ത	i llaː t̪t̪a 
വാഹനം	ʋaː ɦa nam 
കാർഷിക	kaːr ʂi ka 
അന്നത്തെ	a n̪n̪a t̪t̪e 
എന്താണ്	e n̪t̪aː ɳə 
ജനങ്ങളെ	ɟa na ŋŋa ɭe 
എത്തിയത്	e t̪t̪i ja t̪ə 
സീറ്റ്	siː ṯṯə 
ഓഫീസിൽ	oː fiː sil 
വെറുതെ	ʋe ru t̪e 
തിങ്കളാഴ്ച	t̪i ŋka ɭaː ɻt͡ʃa 
മെയ്	me jə 
പറഞ്ഞിരുന്നു	pa ra ɲɲi ɾu n̪n̪u 
മലബാർ	ma la baːr 
ബാബു	baː bu 
ഇപ്പോഴത്തെ	i ppoː ɻa t̪t̪e 
ടിക്കറ്റ്	ʈi kka ṯṯə 
പദ്ധതികൾ	pa d̪d̪ʱa t̪i kaɭ 
ഭരണം	bʱa ɾa ɳam 
അലി	a li 
സർക്കാരിന്	sar kkaː ɾi nə 
റിപ്പോർട്ടിൽ	ri ppoːr ʈʈil 
വന്നാൽ	ʋa n̪n̪aːl 
താളിൽനിന്നു	t̪aː ɭil ni n̪n̪u 
രീതി	ɾiː t̪i 
തുടർന്നു	t̪u ʈar n̪n̪u 
നിങ്ങൾക്ക്	n̪i ŋŋaɭ kkə 
ചെന്നിത്തല	t͡ʃe n̪n̪i t̪t̪a la 
ഭർത്താവ്	bʱar t̪t̪aː ʋə 
ചികിത്സ	t͡ʃi ki t̪sa 
പ്രത്യേകം	pra t̪jeː kam 
വിശദീകരണം	ʋi ʃa d̪iː ka ɾa ɳam 
മീറ്റർ	miː ṯṯar 
എല്ലാവർക്കും	e llaː ʋar kkum 
വെള്ളിയാഴ്ച	ʋe ɭɭi jaː ɻt͡ʃa 
മേഖലയിലെ	meː kʰa la ji le 
പരിശീലനം	pa ɾi ʃiː la nam 
ഏകദേശം	eː ka d̪eː ʃam 
സുരക്ഷ	su ɾa kʂa 
പരാതിയിൽ	pa ɾaː t̪i jil 
ലോകത്ത്	loː ka t̪t̪ə 
എടുത്ത്	e ʈu t̪t̪ə 
ജീവിത	ɟiː ʋi t̪a 
അമ്മയുടെ	a mma ju ʈe 
നു	n̪u 
സംസാരിക്കുകയായിരുന്നു	sam saː ɾi kku ka jaː ji ɾu n̪n̪u 
എന്നൊക്കെ	e n̪n̪o kke 
ആത്മഹത്യ	aː t̪ma ɦa t̪ja 
സിനിമയുടെ	si ni ma ju ʈe 
വിധം	ʋi d̪ʱam 
റോഡിൽ	roː ɖil 
കൂടിയാണ്	kuː ʈi jaː ɳə 
രേഖകൾ	ɾeː kʰa kaɭ 
മുഖ്യമന്ത്രിയുടെ	mu kʰja ma n̪t̪ri ju ʈe 
ഇതിനെ	i t̪i ne 
അധ്യക്ഷൻ	a d̪ʱja kʂan 
എന്തോ	e n̪t̪oː 
നിന്ന	n̪i n̪n̪a 
വിരുദ്ധ	ʋi ɾu d̪d̪ʱa 
നിരക്ക്	n̪i ɾa kkə 
തരം	t̪a ɾam 
പോകുന്നത്	poː ku n̪n̪a t̪ə 
ഭരണ	bʱa ɾa ɳa 
ക്ഷേത്രം	kʂeː t̪ram 
രാജ്യങ്ങളിൽ	ɾaː ɟja ŋŋa ɭil 
ഇരു	i ɾu 
കിടക്കുന്ന	ki ʈa kku n̪n̪a 
വാർത്താ	ʋaːr t̪t̪aː 
മുഖ്യ	mu kʰja 
ലഭിച്ചു	la bʱi t͡ʃt͡ʃu 
സിവിൽ	si ʋil 
എനിക്കു	e ni kku 
പിതാവ്	pi t̪aː ʋə 
വിമാനം	ʋi maː nam 
അതായത്	a t̪aː ja t̪ə 
പദ്ധതിയുടെ	pa d̪d̪ʱa t̪i ju ʈe 
നേരിടുന്ന	n̪eː ɾi ʈu n̪n̪a 
മുന്നോട്ടു	mu n̪n̪oː ʈʈu 
ഡോക്ടർ	ɖoː kʈar 
ആകെ	aː ke 
പ്രതിരോധ	pra t̪i ɾoː d̪ʱa 
ഞായറാഴ്ച	ɲaː ja raː ɻt͡ʃa 
ആരെങ്കിലും	aː ɾe ŋki lum 
മന്ത്രാലയം	ma n̪t̪raː la jam 
എന്നൊരു	e n̪n̪o ɾu 
വിളിച്ച്	ʋi ɭi t͡ʃt͡ʃə 
വിശുദ്ധ	ʋi ʃu d̪d̪ʱa 
ആം	aːm 
യഥാർത്ഥ	ja t̪ʰaːr t̪t̪ʰa 
സന്ദേശം	sa n̪d̪eː ʃam 
ഒട്ടേറെ	o ʈʈeː re 
ശനിയാഴ്ച	ʃa ni jaː ɻt͡ʃa 
നടത്തും	n̪a ʈa t̪t̪um 
ആന്റ്	aː nṯə 
പേർക്ക്	peːr kkə 
രണ്ടാമത്തെ	ɾa ɳʈaː ma t̪t̪e 
പിടിച്ച്	pi ʈi t͡ʃt͡ʃə 
സ്റ്റേഷനിൽ	sṯṯeː ʂa nil 
വ്യക്തമായ	ʋja kt̪a maː ja 
സംഘടിപ്പിച്ച	sam ɡʱa ʈi ppi t͡ʃt͡ʃa 
കൂടിയ	kuː ʈi ja 
ലഭിക്കും	la bʱi kkum 
സിപിഐ	si pi ai̯ 
മാത്യു	maː t̪ju 
ദിവസങ്ങളിൽ	d̪i ʋa sa ŋŋa ɭil 
കുട്ടികൾക്ക്	ku ʈʈi kaɭ kkə 
സമൂഹം	sa muː ɦam 
സഹകരണ	sa ɦa ka ɾa ɳa 
കയ്യിൽ	ka jjil 
ബിജു	bi ɟu 
കൂട്ടി	kuː ʈʈi 
ഇസ്ലാമിക	i slaː mi ka 
ഉപയോഗിക്കുന്ന	u pa joː ɡi kku n̪n̪a 
നോട്ട്	n̪oː ʈʈə 
നിയന്ത്രണം	n̪i ja n̪t̪ra ɳam 
കഴിഞ്ഞാൽ	ka ɻi ɲɲaːl 
അനുസരിച്ച്	a nu sa ɾi t͡ʃt͡ʃə 
ചിലപ്പോൾ	t͡ʃi la ppoːɭ 
സിങ്	si ŋə 
യുവാവ്	ju ʋaː ʋə 
പത്തു	pa t̪t̪u 
നൽകിയിട്ടുണ്ട്	n̪al ki ji ʈʈu ɳʈə 
കോളജ്	koː ɭa ɟə 
ചിത്രത്തിന്റെ	t͡ʃi t̪ra t̪t̪i nṯe 
വാഹനങ്ങൾ	ʋaː ɦa na ŋŋaɭ 
എംഎൽഎ	em el e 
സിറ്റി	si ṯṯi 
ജാതി	ɟaː t̪i 
കോളേജിൽ	koː ɭeː ɟil 
പുറമേ	pu ra meː 
സമൂഹത്തിൽ	sa muː ɦa t̪t̪il 
മുസ്ലീം	mu sliːm 
കൃത്യമായി	krɨ t̪ja maː ji 
യൂത്ത്	juː t̪t̪ə 
പരമാവധി	pa ɾa maː ʋa d̪ʱi 
മണ്ഡലം	ma ɳɖa lam 
യൂണിയൻ	juː ɳi jan 
വൈകിട്ട്	ʋai̯ ki ʈʈə 
ഭീഷണി	bʱiː ʂa ɳi 
പ്രാഥമിക	praː t̪ʰa mi ka 
ഉണ്ടായ	u ɳʈaː ja 
ആർഎസ്എസ്	aːr e sə e sə 
മനുഷ്യൻ	ma nu ʂjan 
ആരംഭിച്ച	aː ɾam bʱi t͡ʃt͡ʃa 
സമർപ്പിച്ച	sa mar ppi t͡ʃt͡ʃa 
ശബ്ദം	ʃa bd̪am 
ചെയ്തിട്ടുണ്ട്	t͡ʃe jt̪i ʈʈu ɳʈə 
എന്നിവിടങ്ങളിൽ	e n̪n̪i ʋi ʈa ŋŋa ɭil 
കുറ്റം	ku ṯṯam 
സംഗീത	sam ɡiː t̪a 
സ്വതന്ത്ര	sʋa t̪a n̪t̪ra 
സംഘടന	sam ɡʱa ʈa na 
പ്രാധാന്യം	praː d̪ʱaː njam 
കേന്ദ്രസർക്കാർ	keː n̪d̪ɾa sar kkaːr 
ജൂലൈ	ɟuː lai̯ 
സൗകര്യം	sau̯ ka ɾjam 
ലോക്സഭാ	loː ksa bʱaː 
എപ്പോഴും	e ppoː ɻum 
ഫുട്ബോൾ	fu ʈboːɭ 
വിദ്യാഭ്യാസം	ʋi d̪jaː bʱjaː sam 
തരത്തിൽ	t̪a ɾa t̪t̪il 
പശ്ചാത്തലത്തിൽ	pa ʃt͡ʃaː t̪t̪a la t̪t̪il 
നോട്ടീസ്	n̪oː ʈʈiː sə 
