ഒരു	o ɾ u	o ɾ u
ഈ	iː	iː
എന്ന	e n̪ n̪ a	e n̪ n̪ a
തന്നെ	t̪ a n̪ n̪ e	t̪ a n n e
പറഞ്ഞു	p a r a ɲ ɲ u	p a r a ɲ ɲ u
എന്ന്	e n̪ n̪ ə	e n̪ n̪ ə
നിന്ന്	n̪ i n̪ n̪ ə	n̪ i n̪ n̪ ə
ആ	aː	aː
നിന്നും	n̪ i n̪ n̪ u m	n̪ i n̪ n̪ u m
എന്നാൽ	e n̪ n̪ aː l	e n̪ n̪ aː l
എന്നാൽ	e n n aː l	e n n aː l
ഞാൻ	ɲ aː n	ɲ aː n
പി	p i	p i
സർക്കാർ	s a r k k aː r	s a r k k aː r
അദ്ദേഹം	a d̪ d̪ eː ɦ a m	a d̪ d̪ eː ɦ a m
പുതിയ	p u t̪ i j a	p u t̪ i j a
അത്	a t̪ ə	a t̪ ə
ചെയ്തു	t͡ʃ e j t̪ u	t͡ʃ e j t̪ u
കെ	k e	k e
സി	s i	s i
ശേഷം	ʃ eː ʂ a m	ʃ eː ʂ a m
കഴിഞ്ഞ	k a ɻ i ɲ ɲ a	k a ɻ i ɲ ɲ a
എസ്	e s ə	e s
എം	e m	e m
കൂടുതൽ	k uː ʈ u t̪ a l	k uː ʈ u t̪ a l
എന്റെ	e n ṯ e	e n ṯ e
കൊണ്ട്	k o ɳ ʈ ə	k o ɳ ʈ ə
ഏറ്റവും	eː ṯ ṯ a ʋ u m	eː ṯ ṯ a ʋ u m
പോലീസ്	p oː l iː s ə	p oː l iː s ə
വലിയ	ʋ a l i j a	ʋ a l i j a
തന്റെ	t̪ a n ṯ e	t̪ a n ṯ e
മുതൽ	m u t̪ a l	m u t̪ a l
ഇത്	i t̪ ə	i t̪ ə
മാത്രം	m aː t̪ r a m	m aː t̪ r a m
എല്ലാ	e l l aː	e l l aː
വരെ	ʋ a ɾ e	ʋ a ɾ e
സംസ്ഥാന	s a m s t̪ʰ aː n a	s a m s t̪ʰ aː n a
ചില	t͡ʃ i l a	t͡ʃ i l a
ഇന്ത്യൻ	i n̪ t̪ j a n	i n̪ t̪ j a n
അവർ	a ʋ a r	a ʋ a r
രണ്ട്	ɾ a ɳ ʈ ə	ɾ a ɳ ʈ ə
കൂടി	k uː ʈ i	k uː ʈ i
പോലെ	p oː l e	p oː l e
ഇപ്പോൾ	i p p oː ɭ	i p p oː ɭ
എ	e	e
ദിവസം	d̪ i ʋ a s a m	d̪ i ʋ a s a m
നടത്തിയ	n̪ a ʈ a t̪ t̪ i j a	n̪ a ʈ a t̪ t̪ i j a
പോലും	p oː l u m	p oː l u m
തുടർന്ന്	t̪ u ʈ a r n̪ n̪ ə	t̪ u ʈ a r n̪ n̪ ə
എന്നു	e n̪ n̪ u	e n̪ n̪ u
ആണ്	aː ɳ ə	aː ɳ ə
ഇവിടെ	i ʋ i ʈ e	i ʋ i ʈ e
വേണ്ടി	ʋ eː ɳ ʈ i	ʋ eː ɳ ʈ i
പറയുന്നു	p a r a j u n̪ n̪ u	p a r a j u n̪ n̪ u
നമ്മുടെ	n̪ a m m u ʈ e	n̪ a m m u ʈ e
നടന്ന	n̪ a ʈ a n̪ n̪ a	n̪ a ʈ a n̪ n̪ a
വീണ്ടും	ʋ iː ɳ ʈ u m	ʋ iː ɳ ʈ u m
ഇന്ന്	i n̪ n̪ ə	i n̪ n̪ ə
നൽകി	n̪ a l k i	n̪ a l k i
മന്ത്രി	m a n̪ t̪ r i	m a n̪ t̪ r i
ജില്ലാ	ɟ i l l aː	ɟ i l l aː
കോൺഗ്രസ്	k oː ɳ ɡ ɾ a s ə	k oː ɳ ɡ ɾ a s ə
കോടതി	k oː ʈ a t̪ i	k oː ʈ a t̪ i
വിവിധ	ʋ i ʋ i d̪ʱ a	ʋ i ʋ i d̪ʱ a
അവരുടെ	a ʋ a ɾ u ʈ e	a ʋ a ɾ u ʈ e
പല	p a l a	p a l a
തുടങ്ങിയ	t̪ u ʈ a ŋ ŋ i j a	t̪ u ʈ a ŋ ŋ i j a
വർഷം	ʋ a r ʂ a m	ʋ a r ʂ a m
നല്ല	n̪ a l l a	n̪ a l l a
രണ്ടു	ɾ a ɳ ʈ u	ɾ a ɳ ʈ u
കാരണം	k aː ɾ a ɳ a m	k aː ɾ a ɳ a m
ബി	b i	b i
മുഖ്യമന്ത്രി	m u kʰ j a m a n̪ t̪ r i	m u kʰ j a m a n̪ t̪ r i
അറിയിച്ചു	a r i j i t͡ʃ t͡ʃ u	a r i j i t͡ʃ t͡ʃ u
റിപ്പോർട്ട്	r i p p oː r ʈ ʈ ə	r i p p oː r ʈ ʈ ə
വളരെ	ʋ a ɭ a ɾ e	ʋ a ɭ a ɾ e
ചെയ്ത	t͡ʃ e j t̪ a	t͡ʃ e j t̪ a
സെക്രട്ടറി	s e k r a ʈ ʈ a r i	s e k r a ʈ ʈ a r i
കേരള	k eː ɾ a ɭ a	k eː ɾ a ɭ a
പൊലീസ്	p o l iː s ə	p o l iː s ə
വി	ʋ i	ʋ i
സ്വന്തം	s ʋ a n̪ t̪ a m	s ʋ a n̪ t̪ a m
ഐ	ai̯	ai̯
പ്രസിഡന്റ്	p r a s i ɖ a n ṯ ə	p r a s i ɖ a n ṯ ə
ഇനി	i n i	i n i
എന്നും	e n̪ n̪ u m	e n̪ n̪ u m
രൂപ	ɾ uː p a	ɾ uː p a
പേരിൽ	p eː ɾ i l	p eː ɾ i l
നൽകിയ	n̪ a l k i j a	n̪ a l k i j a
രാഷ്ട്രീയ	ɾ aː ʂ ʈ r iː j a	ɾ aː ʂ ʈ r iː j a
പിന്നെ	p i n̪ n̪ e	p i n n e
ഓരോ	oː ɾ oː	oː ɾ oː
ബിജെപി	b i ɟ e p i	b i ɟ e p i
ഇത്തരം	i t̪ t̪ a ɾ a m	i t̪ t̪ a ɾ a m
കേന്ദ്ര	k eː n̪ d̪ ɾ a	k eː n̪ d̪ ɾ a
ചെയ്യുന്ന	t͡ʃ e j j u n̪ n̪ a	t͡ʃ e j j u n̪ n̪ a
പാർട്ടി	p aː r ʈ ʈ i	p aː r ʈ ʈ i
വഴി	ʋ a ɻ i	ʋ a ɻ i
ടി	ʈ i	ʈ i
മൂന്ന്	m uː n̪ n̪ ə	m uː n̪ n̪ ə
എന്നീ	e n̪ n̪ iː	e n̪ n̪ iː
ഡി	ɖ i	ɖ i
പിന്നീട്	p i n̪ n̪ iː ʈ ə	p i n n iː ʈ ə
എന്നാണ്	e n̪ n̪ aː ɳ ə	e n̪ n̪ aː ɳ ə
തുടങ്ങി	t̪ u ʈ a ŋ ŋ i	t̪ u ʈ a ŋ ŋ i
ആദ്യ	aː d̪ j a	aː d̪ j a
മറ്റു	m a ṯ ṯ u	m a ṯ ṯ u
മുൻ	m u n	m u n
മറ്റൊരു	m a ṯ ṯ o ɾ u	m a ṯ ṯ o ɾ u
ഇന്ത്യ	i n̪ t̪ j a	i n̪ t̪ j a
ഓഫ്	oː f ə	oː f ə
പ്രധാന	p r a d̪ʱ aː n a	p r a d̪ʱ aː n a
അടുത്ത	a ʈ u t̪ t̪ a	a ʈ u t̪ t̪ a
വരുന്ന	ʋ a ɾ u n̪ n̪ a	ʋ a ɾ u n̪ n̪ a
നിരവധി	n̪ i ɾ a ʋ a d̪ʱ i	n̪ i ɾ a ʋ a d̪ʱ i
പറയുന്നത്	p a r a j u n̪ n̪ a t̪ ə	p a r a j u n̪ n̪ a t̪ ə
ദേശീയ	d̪ eː ʃ iː j a	d̪ eː ʃ iː j a
മികച്ച	m i k a t͡ʃ t͡ʃ a	m i k a t͡ʃ t͡ʃ a
അതിന്റെ	a t̪ i n ṯ e	a t̪ i n ṯ e
മുമ്പ്	m u m p ə	m u m p ə
നടത്തി	n̪ a ʈ a t̪ t̪ i	n̪ a ʈ a t̪ t̪ i
അവിടെ	a ʋ i ʈ e	a ʋ i ʈ e
ചെയ്യാൻ	t͡ʃ e j j aː n	t͡ʃ e j j aː n
സമയം	s a m a j a m	s a m a j a m
യു	j u	j u
മറ്റ്	m a ṯ ṯ ə	m a ṯ ṯ ə
നടക്കുന്ന	n̪ a ʈ a k k u n̪ n̪ a	n̪ a ʈ a k k u n̪ n̪ a
മുന്നിൽ	m u n̪ n̪ i l	m u n n i l
എനിക്ക്	e n i k k ə	e n i k k ə
താൻ	t̪ aː n	t̪ aː n
വ്യക്തമാക്കി	ʋ j a k t̪ a m aː k k i	ʋ j a k t̪ a m aː k k i
കാര്യം	k aː ɾ j a m	k aː ɾ j a m
പണം	p a ɳ a m	p a ɳ a m
പ്രത്യേക	p r a t̪ j eː k a	p r a t̪ j eː k a
പക്ഷെ	p a k ʂ e	p a k ʂ e
വീട്ടിൽ	ʋ iː ʈ ʈ i l	ʋ iː ʈ ʈ i l
ഏറെ	eː r e	eː r e
കോടി	k oː ʈ i	k oː ʈ i
പക്ഷേ	p a k ʂ eː	p a k ʂ eː
ചെയ്ത്	t͡ʃ e j t̪ ə	t͡ʃ e j t̪ ə
ഇ	i	i
ജോലി	ɟ oː l i	ɟ oː l i
ജനറൽ	ɟ a n a r a l	ɟ a n a r a l
മുഴുവൻ	m u ɻ u ʋ a n	m u ɻ u ʋ a n
എന്നത്	e n̪ n̪ a t̪ ə	e n̪ n̪ a t̪ ə
ചിത്രം	t͡ʃ i t̪ r a m	t͡ʃ i t̪ r a m
നേരത്തെ	n̪ eː ɾ a t̪ t̪ e	n̪ eː ɾ a t̪ t̪ e
ആർ	aː r	aː r
സാമ്പത്തിക	s aː m p a t̪ t̪ i k a	s aː m p a t̪ t̪ i k a
മാത്രമല്ല	m aː t̪ r a m a l l a	m aː t̪ r a m a l l a
നിന്നു	n̪ i n̪ n̪ u	n̪ i n̪ n̪ u
രാവിലെ	ɾ aː ʋ i l e	ɾ aː ʋ i l e
പരാതി	p a ɾ aː t̪ i	p a ɾ aː t̪ i
ലക്ഷം	l a k ʂ a m	l a k ʂ a m
തന്നെയാണ്	t̪ a n̪ n̪ e j aː ɳ ə	t̪ a n n e j aː ɳ ə
എൻ	e n	e n
മാത്രമേ	m aː t̪ r a m eː	m aː t̪ r a m eː
കേസിൽ	k eː s i l	k eː s i l
വന്നു	ʋ a n̪ n̪ u	ʋ a n̪ n̪ u
പോയി	p oː j i	p oː j i
നടപടി	n̪ a ʈ a p a ʈ i	n̪ a ʈ a p a ʈ i
കേരളത്തിൽ	k eː ɾ a ɭ a t̪ t̪ i l	k eː ɾ a ɭ a t̪ t̪ i l
ചോദ്യം	t͡ʃ oː d̪ j a m	t͡ʃ oː d̪ j a m
ചർച്ച	t͡ʃ a r t͡ʃ t͡ʃ a	t͡ʃ a r t͡ʃ t͡ʃ a
ചെയ്തത്	t͡ʃ e j t̪ a t̪ ə	t͡ʃ e j t̪ a t̪ ə
വന്ന	ʋ a n̪ n̪ a	ʋ a n̪ n̪ a
മുഹമ്മദ്	m u ɦ a m m a d̪ ə	m u ɦ a m m a d̪ ə
എല്ലാം	e l l aː m	e l l aː m
അങ്ങനെ	a ŋ ŋ a n e	a ŋ ŋ a n e
എന്നെ	e n̪ n̪ e	e n n e
സ്കൂൾ	s k uː ɭ	s k uː ɭ
കേരളത്തിലെ	k eː ɾ a ɭ a t̪ t̪ i l e	k eː ɾ a ɭ a t̪ t̪ i l e
തങ്ങളുടെ	t̪ a ŋ ŋ a ɭ u ʈ e	t̪ a ŋ ŋ a ɭ u ʈ e
മാത്രമാണ്	m aː t̪ r a m aː ɳ ə	m aː t̪ r a m aː ɳ ə
ആദ്യം	aː d̪ j a m	aː d̪ j a m
സംഘം	s a m ɡʱ a m	s a m ɡʱ a m
നടത്തുന്ന	n̪ a ʈ a t̪ t̪ u n̪ n̪ a	n̪ a ʈ a t̪ t̪ u n̪ n̪ a
പ്രധാനമന്ത്രി	p r a d̪ʱ aː n a m a n̪ t̪ r i	p r a d̪ʱ aː n a m a n̪ t̪ r i
ഇവർ	i ʋ a r	i ʋ a r
കാര്യങ്ങൾ	k aː ɾ j a ŋ ŋ a ɭ	k aː ɾ j a ŋ ŋ a ɭ
സിപിഎം	s i p i e m	s i p i e m
രണ്ടാം	ɾ a ɳ ʈ aː m	ɾ a ɳ ʈ aː m
കേസ്	k eː s ə	k eː s ə
മെഡിക്കൽ	m e ɖ i k k a l	m e ɖ i k k a l
പേർ	p eː r	p eː r
എന്നിവ	e n̪ n̪ i ʋ a	e n̪ n̪ i ʋ a
ചെറിയ	t͡ʃ e r i j a	t͡ʃ e r i j a
ഉള്ള	u ɭ ɭ a	u ɭ ɭ a
നിലയിൽ	n̪ i l a j i l	n̪ i l a j i l
എന്നിവർ	e n̪ n̪ i ʋ a r	e n̪ n̪ i ʋ a r
അതേസമയം	a t̪ eː s a m a j a m	a t̪ eː s a m a j a m
ഒന്നും	o n̪ n̪ u m	o n̪ n̪ u m
മാസം	m aː s a m	m aː s a m
പദ്ധതി	p a d̪ d̪ʱ a t̪ i	p a d̪ d̪ʱ a t̪ i
ജെ	ɟ e	ɟ e
കാണാൻ	k aː ɳ aː n	k aː ɳ aː n
ഇന്നലെ	i n̪ n̪ a l e	i n̪ n̪ a l e
ഇങ്ങനെ	i ŋ ŋ a n e	i ŋ ŋ a n e
നാം	n̪ aː m	n̪ aː m
അന്വേഷണം	a n ʋ eː ʂ a ɳ a m	a n ʋ eː ʂ a ɳ a m
നേതാവ്	n̪ eː t̪ aː ʋ ə	n̪ eː t̪ aː ʋ ə
നാല്	n̪ aː l ə	n̪ aː l ə
ശതമാനം	ʃ a t̪ a m aː n a m	ʃ a t̪ a m aː n a m
വിവരം	ʋ i ʋ a ɾ a m	ʋ i ʋ a ɾ a m
നേതൃത്വത്തിൽ	n̪ eː t̪ rɨ t̪ ʋ a t̪ t̪ i l	n̪ eː t̪ rɨ t̪ ʋ a t̪ t̪ i l
മൂന്നു	m uː n̪ n̪ u	m uː n̪ n̪ u
പറഞ്ഞത്	p a r a ɲ ɲ a t̪ ə	p a r a ɲ ɲ a t̪ ə
അഞ്ച്	a ɲ t͡ʃ ə	a ɲ t͡ʃ ə
അതിൽ	a t̪ i l	a t̪ i l
അതു	a t̪ u	a t̪ u
വകുപ്പ്	ʋ a k u p p ə	ʋ a k u p p ə
വില	ʋ i l a	ʋ i l a
കുറിച്ച്	k u r i t͡ʃ t͡ʃ ə	k u r i t͡ʃ t͡ʃ ə
അറസ്റ്റ്	a r a s ṯ ṯ ə	a r a s ṯ ṯ ə
സംവിധാനം	s a m ʋ i d̪ʱ aː n a m	s a m ʋ i d̪ʱ aː n a m
ഭാഗമായി	bʱ aː ɡ a m aː j i	bʱ aː ɡ a m aː j i
തീരുമാനം	t̪ iː ɾ u m aː n a m	t̪ iː ɾ u m aː n a m
ചേർന്ന്	t͡ʃ eː r n̪ n̪ ə	t͡ʃ eː r n̪ n̪ ə
ആയി	aː j i	aː j i
യാത്ര	j aː t̪ r a	j aː t̪ r a
ഉദ്ഘാടനം	u d̪ ɡʱ aː ʈ a n a m	u d̪ ɡʱ aː ʈ a n a m
എൽ	e l	e l
നൽകുന്ന	n̪ a l k u n̪ n̪ a	n̪ a l k u n̪ n̪ a
ഒക്കെ	o k k e	o k k e
പറഞ്ഞ്	p a r a ɲ ɲ ə	p a r a ɲ ɲ ə
സ്വകാര്യ	s ʋ a k aː ɾ j a	s ʋ a k aː ɾ j a
നേതൃത്വം	n̪ eː t̪ rɨ t̪ ʋ a m	n̪ eː t̪ rɨ t̪ ʋ a m
അധികൃതർ	a d̪ʱ i k rɨ t̪ a r	a d̪ʱ i k rɨ t̪ a r
അദ്ദേഹത്തിന്റെ	a d̪ d̪ eː ɦ a t̪ t̪ i n ṯ e	a d̪ d̪ eː ɦ a t̪ t̪ i n ṯ e
ഞങ്ങൾ	ɲ a ŋ ŋ a ɭ	ɲ a ŋ ŋ a ɭ
മുസ്ലിം	m u s l i m	m u s l i m
നിന്നുള്ള	n̪ i n̪ n̪ u ɭ ɭ a	n̪ i n̪ n̪ u ɭ ɭ a
രീതിയിൽ	ɾ iː t̪ i j i l	ɾ iː t̪ i j i l
പോസ്റ്റ്	p oː s ṯ ṯ ə	p oː s ṯ ṯ ə
ചെയ്യുന്നത്	t͡ʃ e j j u n̪ n̪ a t̪ ə	t͡ʃ e j j u n̪ n̪ a t̪ ə
നമുക്ക്	n̪ a m u k k ə	n̪ a m u k k ə
കൂടാതെ	k uː ʈ aː t̪ e	k uː ʈ aː t̪ e
കഥ	k a t̪ʰ a	k a t̪ʰ a
അല്ലെങ്കിൽ	a l l e ŋ k i l	a l l e ŋ k i l
കണ്ടു	k a ɳ ʈ u	k a ɳ ʈ u
ജി	ɟ i	ɟ i
നിങ്ങൾ	n̪ i ŋ ŋ a ɭ	n̪ i ŋ ŋ a ɭ
ഒന്ന്	o n̪ n̪ ə	o n̪ n̪ ə
മുൻപ്	m u n p ə	m u n p ə
പഞ്ചായത്ത്	p a ɲ t͡ʃ aː j a t̪ t̪ ə	p a ɲ t͡ʃ aː j a t̪ t̪ ə
അൽ	a l	a l
ബാങ്ക്	b aː ŋ k ə	b aː ŋ k ə
ജീവിതം	ɟ iː ʋ i t̪ a m	ɟ iː ʋ i t̪ a m
അമേരിക്കൻ	a m eː ɾ i k k a n	a m eː ɾ i k k a n
കൂടെ	k uː ʈ e	k uː ʈ e
രാത്രി	ɾ aː t̪ r i	ɾ aː t̪ r i
പിണറായി	p i ɳ a r aː j i	p i ɳ a r aː j i
പകരം	p a k a ɾ a m	p a k a ɾ a m
മറുപടി	m a r u p a ʈ i	m a r u p a ʈ i
ലെ	l e	l e
എത്ര	e t̪ r a	e t̪ r a
വൻ	ʋ a n	ʋ a n
ബന്ധപ്പെട്ട്	b a n̪ d̪ʱ a p p e ʈ ʈ ə	b a n̪ d̪ʱ a p p e ʈ ʈ ə
വിവരങ്ങൾ	ʋ i ʋ a ɾ a ŋ ŋ a ɭ	ʋ i ʋ a ɾ a ŋ ŋ a ɭ
കോഴിക്കോട്	k oː ɻ i k k oː ʈ ə	k oː ɻ i k k oː ʈ ə
മറ്റും	m a ṯ ṯ u m	m a ṯ ṯ u m
നീ	n̪ iː	n̪ iː
സ്വയം	s ʋ a j a m	s ʋ a j a m
ചെയ്യും	t͡ʃ e j j u m	t͡ʃ e j j u m
വെച്ച്	ʋ e t͡ʃ t͡ʃ ə	ʋ e t͡ʃ t͡ʃ ə
എന്നതാണ്	e n̪ n̪ a t̪ aː ɳ ə	e n̪ n̪ a t̪ aː ɳ ə
പഴയ	p a ɻ a j a	p a ɻ a j a
നോക്കി	n̪ oː k k i	n̪ oː k k i
അവരെ	a ʋ a ɾ e	a ʋ a ɾ e
വെള്ളം	ʋ e ɭ ɭ a m	ʋ e ɭ ɭ a m
വച്ച്	ʋ a t͡ʃ t͡ʃ ə	ʋ a t͡ʃ t͡ʃ ə
നമ്മൾ	n̪ a m m a ɭ	n̪ a m m a ɭ
ശക്തമായ	ʃ a k t̪ a m aː j a	ʃ a k t̪ a m aː j a
ഇതു	i t̪ u	i t̪ u
തോമസ്	t̪ oː m a s ə	t̪ oː m a s
സിനിമ	s i n i m a	s i n i m a
എഫ്	e f ə	e f
ചെയ്യുന്നു	t͡ʃ e j j u n̪ n̪ u	t͡ʃ e j j u n̪ n̪ u
വരും	ʋ a ɾ u m	ʋ a ɾ u m
ഇതിൽ	i t̪ i l	i t̪ i l
സംബന്ധിച്ച്	s a m b a n̪ d̪ʱ i t͡ʃ t͡ʃ ə	s a m b a n̪ d̪ʱ i t͡ʃ t͡ʃ ə
പ്രകാരം	p r a k aː ɾ a m	p r a k aː ɾ a m
അന്ന്	a n̪ n̪ ə	a n̪ n̪ ə
ബന്ധപ്പെട്ട	b a n̪ d̪ʱ a p p e ʈ ʈ a	b a n̪ d̪ʱ a p p e ʈ ʈ a
ആവശ്യപ്പെട്ടു	aː ʋ a ʃ j a p p e ʈ ʈ u	aː ʋ a ʃ j a p p e ʈ ʈ u
യോഗം	j oː ɡ a m	j oː ɡ a m
ഉണ്ട്	u ɳ ʈ ə	u ɳ ʈ ə
വിദ്യാഭ്യാസ	ʋ i d̪ j aː bʱ j aː s a	ʋ i d̪ j aː bʱ j aː s a
തിരുവനന്തപുരം	t̪ i ɾ u ʋ a n a n̪ t̪ a p u ɾ a m	t̪ i ɾ u ʋ a n a n̪ t̪ a p u ɾ a m
സംഭവം	s a m bʱ a ʋ a m	s a m bʱ a ʋ a m
സമരം	s a m a ɾ a m	s a m a ɾ a m
വാർത്ത	ʋ aː r t̪ t̪ a	ʋ aː r t̪ t̪ a
സാഹചര്യത്തിൽ	s aː ɦ a t͡ʃ a ɾ j a t̪ t̪ i l	s aː ɦ a t͡ʃ a ɾ j a t̪ t̪ i l
കാലത്ത്	k aː l a t̪ t̪ ə	k aː l a t̪ t̪ ə
മാറ്റി	m aː ṯ ṯ i	m aː ṯ ṯ i
തമ്മിൽ	t̪ a m m i l	t̪ a m m i l
കൊണ്ടു	k o ɳ ʈ u	k o ɳ ʈ u
ആയിരുന്നു	aː j i ɾ u n̪ n̪ u	aː j i ɾ u n̪ n̪ u
രാജ്യത്തെ	ɾ aː ɟ j a t̪ t̪ e	ɾ aː ɟ j a t̪ t̪ e
നൽകിയത്	n̪ a l k i j a t̪ ə	n̪ a l k i j a t̪ ə
നേരെ	n̪ eː ɾ e	n̪ eː ɾ e
അവൻ	a ʋ a n	a ʋ a n
മോദി	m oː d̪ i	m oː d̪ i
ജില്ലയിലെ	ɟ i l l a j i l e	ɟ i l l a j i l e
നിങ്ങളുടെ	n̪ i ŋ ŋ a ɭ u ʈ e	n̪ i ŋ ŋ a ɭ u ʈ e
മാറി	m aː r i	m aː r i
നൽകാൻ	n̪ a l k aː n	n̪ a l k aː n
അതേ	a t̪ eː	a t̪ eː
പേര്	p eː ɾ ə	p eː ɾ ə
പറഞ്ഞ	p a r a ɲ ɲ a	p a r a ɲ ɲ a
വിഭാഗം	ʋ i bʱ aː ɡ a m	ʋ i bʱ aː ɡ a m
ഒന്നാം	o n̪ n̪ aː m	o n̪ n̪ aː m
സർക്കാരിന്റെ	s a r k k aː ɾ i n ṯ e	s a r k k aː ɾ i n ṯ e
ഫോൺ	f oː ɳ	f oː ɳ
ഡോ	ɖ oː	ɖ oː
ആശുപത്രിയിൽ	aː ʃ u p a t̪ r i j i l	aː ʃ u p a t̪ r i j i l
പുറത്ത്	p u r a t̪ t̪ ə	p u r a t̪ t̪ ə
അമ്മ	a m m a	a m m a
സോഷ്യൽ	s oː ʂ j a l	s oː ʂ j a l
ഉപയോഗിച്ച്	u p a j oː ɡ i t͡ʃ t͡ʃ ə	u p a j oː ɡ i t͡ʃ t͡ʃ ə
നടപടികൾ	n̪ a ʈ a p a ʈ i k a ɭ	n̪ a ʈ a p a ʈ i k a ɭ
കഴിഞ്ഞു	k a ɻ i ɲ ɲ u	k a ɻ i ɲ ɲ u
കോടതിയിൽ	k oː ʈ a t̪ i j i l	k oː ʈ a t̪ i j i l
നിലപാട്	n̪ i l a p aː ʈ ə	n̪ i l a p aː ʈ ə
കാലം	k aː l a m	k aː l a m
കാര്യത്തിൽ	k aː ɾ j a t̪ t̪ i l	k aː ɾ j a t̪ t̪ i l
ഇന്ത്യയിൽ	i n̪ t̪ j a j i l	i n̪ t̪ j a j i l
അവൾ	a ʋ a ɭ	a ʋ a ɭ
എങ്ങനെ	e ŋ ŋ a n e	e ŋ ŋ a n e
കണ്ട്	k a ɳ ʈ ə	k a ɳ ʈ ə
നിൽക്കുന്ന	n̪ i l k k u n̪ n̪ a	n̪ i l k k u n̪ n̪ a
നന്ദി	n̪ a n̪ d̪ i	n̪ a n̪ d̪ i
ഇന്ത്യയുടെ	i n̪ t̪ j a j u ʈ e	i n̪ t̪ j a j u ʈ e
ഇതിന്റെ	i t̪ i n ṯ e	i t̪ i n ṯ e
അനുമതി	a n u m a t̪ i	a n u m a t̪ i
ഇനിയും	i n i j u m	i n i j u m
ആരും	aː ɾ u m	aː ɾ u m
പറയാൻ	p a r a j aː n	p a r a j aː n
നിയമം	n̪ i j a m a m	n̪ i j a m a m
എങ്കിലും	e ŋ k i l u m	e ŋ k i l u m
ഭൂമി	bʱ uː m i	bʱ uː m i
കമ്മിറ്റി	k a m m i ṯ ṯ i	k a m m i ṯ ṯ i
മൂലം	m uː l a m	m uː l a m
തവണ	t̪ a ʋ a ɳ a	t̪ a ʋ a ɳ a
താരം	t̪ aː ɾ a m	t̪ aː ɾ a m
ഭാര്യ	bʱ aː ɾ j a	bʱ aː ɾ j a
മൊബൈൽ	m o b ai̯ l	m o b ai̯ l
രംഗത്ത്	ɾ a m ɡ a t̪ t̪ ə	ɾ a m ɡ a t̪ t̪ ə
സുപ്രീം	s u p r iː m	s u p r iː m
ചീഫ്	t͡ʃ iː f ə	t͡ʃ iː f ə
നേടിയ	n̪ eː ʈ i j a	n̪ eː ʈ i j a
സമിതി	s a m i t̪ i	s a m i t̪ i
നിലവിൽ	n̪ i l a ʋ i l	n̪ i l a ʋ i l
ഉടൻ	u ʈ a n	u ʈ a n
മലയാളം	m a l a j aː ɭ a m	m a l a j aː ɭ a m
അയാൾ	a j aː ɭ	a j aː ɭ
നീക്കം	n̪ iː k k a m	n̪ iː k k a m
മലയാളി	m a l a j aː ɭ i	m a l a j aː ɭ i
കേരളം	k eː ɾ a ɭ a m	k eː ɾ a ɭ a m
വേണം	ʋ eː ɳ a m	ʋ eː ɳ a m
കണ്ണൂർ	k a ɳ ɳ uː r	k a ɳ ɳ uː r
വിവാഹം	ʋ i ʋ aː ɦ a m	ʋ i ʋ aː ɦ a m
സമയത്ത്	s a m a j a t̪ t̪ ə	s a m a j a t̪ t̪ ə
അവർക്ക്	a ʋ a r k k ə	a ʋ a r k k ə
ഇതുവരെ	i t̪ u ʋ a ɾ e	i t̪ u ʋ a ɾ e
നേതാക്കൾ	n̪ eː t̪ aː k k a ɭ	n̪ eː t̪ aː k k a ɭ
സാധാരണ	s aː d̪ʱ aː ɾ a ɳ a	s aː d̪ʱ aː ɾ a ɳ a
നടന്നു	n̪ a ʈ a n̪ n̪ u	n̪ a ʈ a n̪ n̪ u
സ്ഥലം	s t̪ʰ a l a m	s t̪ʰ a l a m
പ്രമുഖ	p r a m u kʰ a	p r a m u kʰ a
വിതരണം	ʋ i t̪ a ɾ a ɳ a m	ʋ i t̪ a ɾ a ɳ a m
രാഹുൽ	ɾ aː ɦ u l	ɾ aː ɦ u l
അതിനു	a t̪ i n u	a t̪ i n u
മകൻ	m a k a n	m a k a n
ആവശ്യം	aː ʋ a ʃ j a m	aː ʋ a ʃ j a m
ഹൈക്കോടതി	ɦ ai̯ k k oː ʈ a t̪ i	ɦ ai̯ k k oː ʈ a t̪ i
പോയ	p oː j a	p oː j a
റോഡ്	r oː ɖ ə	r oː ɖ ə
നാട്ടിൽ	n̪ aː ʈ ʈ i l	n̪ aː ʈ ʈ i l
മലയാള	m a l a j aː ɭ a	m a l a j aː ɭ a
കടുത്ത	k a ʈ u t̪ t̪ a	k a ʈ u t̪ t̪ a
ഇതിന്	i t̪ i n ə	i t̪ i n ə
സ്ഥാനം	s t̪ʰ aː n a m	s t̪ʰ aː n a m
കമ്പനി	k a m p a n i	k a m p a n i
നടത്താൻ	n̪ a ʈ a t̪ t̪ aː n	n̪ a ʈ a t̪ t̪ aː n
ഇപ്പോഴും	i p p oː ɻ u m	i p p oː ɻ u m
നടത്തിയത്	n̪ a ʈ a t̪ t̪ i j a t̪ ə	n̪ a ʈ a t̪ t̪ i j a t̪ ə
കയറി	k a j a r i	k a j a r i
മനസ്സിൽ	m a n a s s i l	m a n a s s i l
അപ്പോൾ	a p p oː ɭ	a p p oː ɭ
യോഗത്തിൽ	j oː ɡ a t̪ t̪ i l	j oː ɡ a t̪ t̪ i l
കുമാർ	k u m aː r	k u m aː r
തുക	t̪ u k a	t̪ u k a
വിധി	ʋ i d̪ʱ i	ʋ i d̪ʱ i
ചെയർമാൻ	t͡ʃ e j a r m aː n	t͡ʃ e j a r m aː n
മേഖലയിൽ	m eː kʰ a l a j i l	m eː kʰ a l a j i l
എൻറെ	e n r e	e n r e
ചെയ്തിരുന്നു	t͡ʃ e j t̪ i ɾ u n̪ n̪ u	t͡ʃ e j t̪ i ɾ u n̪ n̪ u
സ്ത്രീ	s t̪ r iː	s t̪ r iː
സംബന്ധിച്ച	s a m b a n̪ d̪ʱ i t͡ʃ t͡ʃ a	s a m b a n̪ d̪ʱ i t͡ʃ t͡ʃ a
എന്ത്	e n̪ t̪ ə	e n̪ t̪ ə
പറയുന്ന	p a r a j u n̪ n̪ a	p a r a j u n̪ n̪ a
ലഭിച്ച	l a bʱ i t͡ʃ t͡ʃ a	l a bʱ i t͡ʃ t͡ʃ a
ബോർഡ്	b oː r ɖ ə	b oː r ɖ ə
പ്രവർത്തകർ	p r a ʋ a r t̪ t̪ a k a r	p r a ʋ a r t̪ t̪ a k a r
തൊഴിൽ	t̪ o ɻ i l	t̪ o ɻ i l
സ്വദേശി	s ʋ a d̪ eː ʃ i	s ʋ a d̪ eː ʃ i
പലരും	p a l a ɾ u m	p a l a ɾ u m
ശ്രീ	ʃ r iː	ʃ r iː
പിന്നിൽ	p i n̪ n̪ i l	p i n n i l
കമ്മീഷൻ	k a m m iː ʂ a n	k a m m iː ʂ a n
ഇന്ത്യയിലെ	i n̪ t̪ j a j i l e	i n̪ t̪ j a j i l e
ബസ്	b a s ə	b a s ə
ആരോപണം	aː ɾ oː p a ɳ a m	aː ɾ oː p a ɳ a m
വേണ്ട	ʋ eː ɳ ʈ a	ʋ eː ɳ ʈ a
വീഡിയോ	ʋ iː ɖ i j oː	ʋ iː ɖ i j oː
പോകുന്ന	p oː k u n̪ n̪ a	p oː k u n̪ n̪ a
നികുതി	n̪ i k u t̪ i	n̪ i k u t̪ i
കുറച്ചു	k u r a t͡ʃ t͡ʃ u	k u r a t͡ʃ t͡ʃ u
യാതൊരു	j aː t̪ o ɾ u	j aː t̪ o ɾ u
തമ്മിലുള്ള	t̪ a m m i l u ɭ ɭ a	t̪ a m m i l u ɭ ɭ a
ആറ്	aː r ə	aː r ə
അതിന്	a t̪ i n ə	a t̪ i n ə
തിരിച്ചു	t̪ i ɾ i t͡ʃ t͡ʃ u	t̪ i ɾ i t͡ʃ t͡ʃ u
പ്രശ്നം	p r a ʃ n a m	p r a ʃ n a m
അവസാന	a ʋ a s aː n a	a ʋ a s aː n a
പിന്നാലെ	p i n̪ n̪ aː l e	p i n n aː l e
തെരഞ്ഞെടുപ്പ്	t̪ e ɾ a ɲ ɲ e ʈ u p p ə	t̪ e ɾ a ɲ ɲ e ʈ u p p ə
നാലു	n̪ aː l u	n̪ aː l u
തങ്ങൾ	t̪ a ŋ ŋ a ɭ	t̪ a ŋ ŋ a ɭ
മാർച്ച്	m aː r t͡ʃ t͡ʃ ə	m aː r t͡ʃ t͡ʃ ə
അന്വേഷണ	a n ʋ eː ʂ a ɳ a	a n ʋ eː ʂ a ɳ a
വനിതാ	ʋ a n i t̪ aː	ʋ a n i t̪ aː
വൈസ്	ʋ ai̯ s ə	ʋ ai̯ s ə
ശ്രമം	ʃ r a m a m	ʃ r a m a m
പ്രവർത്തനം	p r a ʋ a r t̪ t̪ a n a m	p r a ʋ a r t̪ t̪ a n a m
സംഭവത്തിൽ	s a m bʱ a ʋ a t̪ t̪ i l	s a m bʱ a ʋ a t̪ t̪ i l
ഏതെങ്കിലും	eː t̪ e ŋ k i l u m	eː t̪ e ŋ k i l u m
വിഷയത്തിൽ	ʋ i ʂ a j a t̪ t̪ i l	ʋ i ʂ a j a t̪ t̪ i l
പലപ്പോഴും	p a l a p p oː ɻ u m	p a l a p p oː ɻ u m
തിരഞ്ഞെടുപ്പ്	t̪ i ɾ a ɲ ɲ e ʈ u p p ə	t̪ i ɾ a ɲ ɲ e ʈ u p p ə
ഒരാൾ	o ɾ aː ɭ	o ɾ aː ɭ
ഇല്ല	i l l a	i l l a
ലക്ഷ്യം	l a k ʂ j a m	l a k ʂ j a m
പ്രശ്നങ്ങൾ	p r a ʃ n a ŋ ŋ a ɭ	p r a ʃ n a ŋ ŋ a ɭ
അഭിപ്രായം	a bʱ i p r aː j a m	a bʱ i p r aː j a m
ഒന്നു	o n̪ n̪ u	o n̪ n̪ u
കോളേജ്	k oː ɭ eː ɟ ə	k oː ɭ eː ɟ ə
ഡയറക്ടർ	ɖ a j a r a k ʈ a r	ɖ a j a r a k ʈ a r
ലീഗ്	l iː ɡ ə	l iː ɡ ə
ഒരേ	o ɾ eː	o ɾ eː
കൊച്ചി	k o t͡ʃ t͡ʃ i	k o t͡ʃ t͡ʃ i
പ്രവർത്തിക്കുന്ന	p r a ʋ a r t̪ t̪ i k k u n̪ n̪ a	p r a ʋ a r t̪ t̪ i k k u n̪ n̪ a
ലോക	l oː k a	l oː k a
നന്നായി	n̪ a n̪ n̪ aː j i	n̪ a n̪ n̪ aː j i
ചിത്രങ്ങൾ	t͡ʃ i t̪ r a ŋ ŋ a ɭ	t͡ʃ i t̪ r a ŋ ŋ a ɭ
ആദ്യമായി	aː d̪ j a m aː j i	aː d̪ j a m aː j i
മൂന്നാം	m uː n̪ n̪ aː m	m uː n̪ n̪ aː m
ജോസഫ്	ɟ oː s a f ə	ɟ oː s a f
കാണാം	k aː ɳ aː m	k aː ɳ aː m
എല്ലാവരും	e l l aː ʋ a ɾ u m	e l l aː ʋ a ɾ u m
ആൻഡ്	aː n ɖ ə	aː n ɖ ə
നാളെ	n̪ aː ɭ e	n̪ aː ɭ e
വിജയം	ʋ i ɟ a j a m	ʋ i ɟ a j a m
അവളുടെ	a ʋ a ɭ u ʈ e	a ʋ a ɭ u ʈ e
നായർ	n̪ aː j a r	n̪ aː j a r
ഭക്ഷണം	bʱ a k ʂ a ɳ a m	bʱ a k ʂ a ɳ a m
നേടി	n̪ eː ʈ i	n̪ eː ʈ i
അന്താരാഷ്ട്ര	a n̪ t̪ aː ɾ aː ʂ ʈ r a	a n̪ t̪ aː ɾ aː ʂ ʈ r a
ക്രിക്കറ്റ്	k r i k k a ṯ ṯ ə	k r i k k a ṯ ṯ ə
വന്നത്	ʋ a n̪ n̪ a t̪ ə	ʋ a n̪ n̪ a t̪ ə
വിദേശ	ʋ i d̪ eː ʃ a	ʋ i d̪ eː ʃ a
ആളുകൾ	aː ɭ u k a ɭ	aː ɭ u k a ɭ
അവസരം	a ʋ a s a ɾ a m	a ʋ a s a ɾ a m
ഇതേ	i t̪ eː	i t̪ eː
എണ്ണം	e ɳ ɳ a m	e ɳ ɳ a m
തനിക്ക്	t̪ a n i k k ə	t̪ a n i k k ə
മുകളിൽ	m u k a ɭ i l	m u k a ɭ i l
സുരക്ഷാ	s u ɾ a k ʂ aː	s u ɾ a k ʂ aː
കുട്ടികൾ	k u ʈ ʈ i k a ɭ	k u ʈ ʈ i k a ɭ
വർഷത്തെ	ʋ a r ʂ a t̪ t̪ e	ʋ a r ʂ a t̪ t̪ e
അഞ്ചു	a ɲ t͡ʃ u	a ɲ t͡ʃ u
അതുകൊണ്ട്	a t̪ u k o ɳ ʈ ə	a t̪ u k o ɳ ʈ ə
സഹായം	s a ɦ aː j a m	s a ɦ aː j a m
കണ്ടെത്തി	k a ɳ ʈ e t̪ t̪ i	k a ɳ ʈ e t̪ t̪ i
അതിനെ	a t̪ i n e	a t̪ i n e
അടിസ്ഥാനത്തിൽ	a ʈ i s t̪ʰ aː n a t̪ t̪ i l	a ʈ i s t̪ʰ aː n a t̪ t̪ i l
പത്ത്	p a t̪ t̪ ə	p a t̪ t̪ ə
കുറഞ്ഞ	k u r a ɲ ɲ a	k u r a ɲ ɲ a
പൊതു	p o t̪ u	p o t̪ u
ഉയർന്ന	u j a r n̪ n̪ a	u j a r n̪ n̪ a
കണ്ട	k a ɳ ʈ a	k a ɳ ʈ a
വെറും	ʋ e r u m	ʋ e r u m
ആഭ്യന്തര	aː bʱ j a n̪ t̪ a ɾ a	aː bʱ j a n̪ t̪ a ɾ a
കൊല്ലം	k o l l a m	k o l l a m
ആയ	aː j a	aː j a
ഒടുവിൽ	o ʈ u ʋ i l	o ʈ u ʋ i l
ഉൾപ്പെടെ	u ɭ p p e ʈ e	u ɭ p p e ʈ e
അല്ല	a l l a	a l l a
കഴിയുന്ന	k a ɻ i j u n̪ n̪ a	k a ɻ i j u n̪ n̪ a
ബന്ധം	b a n̪ d̪ʱ a m	b a n̪ d̪ʱ a m
സാമൂഹിക	s aː m uː ɦ i k a	s aː m uː ɦ i k a
സെന്റ്	s e n ṯ ə	s e n ṯ ə
രൂപയുടെ	ɾ uː p a j u ʈ e	ɾ uː p a j u ʈ e
അതിനാൽ	a t̪ i n aː l	a t̪ i n aː l
ജില്ലയിൽ	ɟ i l l a j i l	ɟ i l l a j i l
ജനങ്ങൾ	ɟ a n a ŋ ŋ a ɭ	ɟ a n a ŋ ŋ a ɭ
ഇവരുടെ	i ʋ a ɾ u ʈ e	i ʋ a ɾ u ʈ e
വീട്	ʋ iː ʈ ə	ʋ iː ʈ ə
കോട്ടയം	k oː ʈ ʈ a j a m	k oː ʈ ʈ a j a m
പോലുള്ള	p oː l u ɭ ɭ a	p oː l u ɭ ɭ a
താഴെ	t̪ aː ɻ e	t̪ aː ɻ e
കഴിഞ്ഞ്	k a ɻ i ɲ ɲ ə	k a ɻ i ɲ ɲ ə
സത്യം	s a t̪ j a m	s a t̪ j a m
കാർ	k aː r	k aː r
ഇത്രയും	i t̪ r a j u m	i t̪ r a j u m
ഇന്നും	i n̪ n̪ u m	i n̪ n̪ u m
രാജ്യത്ത്	ɾ aː ɟ j a t̪ t̪ ə	ɾ aː ɟ j a t̪ t̪ ə
എറണാകുളം	e r a ɳ aː k u ɭ a m	e r a ɳ aː k u ɭ a m
നിർദേശം	n̪ i r d̪ eː ʃ a m	n̪ i r d̪ eː ʃ a m
നരേന്ദ്ര	n̪ a ɾ eː n̪ d̪ ɾ a	n̪ a ɾ eː n̪ d̪ ɾ a
ഏത്	eː t̪ ə	eː t̪ ə
ഇയാൾ	i j aː ɭ	i j aː ɭ
ആരോഗ്യ	aː ɾ oː ɡ j a	aː ɾ oː ɡ j a
അവന്റെ	a ʋ a n ṯ e	a ʋ a n ṯ e
ഞങ്ങളുടെ	ɲ a ŋ ŋ a ɭ u ʈ e	ɲ a ŋ ŋ a ɭ u ʈ e
ഒപ്പം	o p p a m	o p p a m
സൂചന	s uː t͡ʃ a n a	s uː t͡ʃ a n a
എന്തെങ്കിലും	e n̪ t̪ e ŋ k i l u m	e n̪ t̪ e ŋ k i l u m
ഇക്കാര്യം	i k k aː ɾ j a m	i k k aː ɾ j a m
കടന്നു	k a ʈ a n̪ n̪ u	k a ʈ a n̪ n̪ u
വരുന്നത്	ʋ a ɾ u n̪ n̪ a t̪ ə	ʋ a ɾ u n̪ n̪ a t̪ ə
പ്രവർത്തനങ്ങൾ	p r a ʋ a r t̪ t̪ a n a ŋ ŋ a ɭ	p r a ʋ a r t̪ t̪ a n a ŋ ŋ a ɭ
ഞാനും	ɲ aː n u m	ɲ aː n u m
ഒരിക്കലും	o ɾ i k k a l u m	o ɾ i k k a l u m
അവാർഡ്	a ʋ aː r ɖ ə	a ʋ aː r ɖ ə
ചടങ്ങിൽ	t͡ʃ a ʈ a ŋ ŋ i l	t͡ʃ a ʈ a ŋ ŋ i l
ഉദ്യോഗസ്ഥർ	u d̪ j oː ɡ a s t̪ʰ a r	u d̪ j oː ɡ a s t̪ʰ a r
വിജയൻ	ʋ i ɟ a j a n	ʋ i ɟ a j a n
അവ	a ʋ a	a ʋ a
വാങ്ങി	ʋ aː ŋ ŋ i	ʋ aː ŋ ŋ i
പറഞ്ഞാൽ	p a r a ɲ ɲ aː l	p a r a ɲ ɲ aː l
പുറത്തു	p u r a t̪ t̪ u	p u r a t̪ t̪ u
ഇന്നത്തെ	i n̪ n̪ a t̪ t̪ e	i n̪ n̪ a t̪ t̪ e
മുഖം	m u kʰ a m	m u kʰ a m
അധികം	a d̪ʱ i k a m	a d̪ʱ i k a m
ഉത്തരവ്	u t̪ t̪ a ɾ a ʋ ə	u t̪ t̪ a ɾ a ʋ ə
വൈദ്യുതി	ʋ ai̯ d̪ j u t̪ i	ʋ ai̯ d̪ j u t̪ i
എത്തി	e t̪ t̪ i	e t̪ t̪ i
മതി	m a t̪ i	m a t̪ i
മരിച്ചു	m a ɾ i t͡ʃ t͡ʃ u	m a ɾ i t͡ʃ t͡ʃ u
ഹിന്ദു	ɦ i n̪ d̪ u	ɦ i n̪ d̪ u
ചിലർ	t͡ʃ i l a r	t͡ʃ i l a r
സർവീസ്	s a r ʋ iː s ə	s a r ʋ iː s ə
നിന്നാണ്	n̪ i n̪ n̪ aː ɳ ə	n̪ i n̪ n̪ aː ɳ ə
മരണം	m a ɾ a ɳ a m	m a ɾ a ɳ a m
വികസന	ʋ i k a s a n a	ʋ i k a s a n a
ലോകം	l oː k a m	l oː k a m
നേരിട്ട്	n̪ eː ɾ i ʈ ʈ ə	n̪ eː ɾ i ʈ ʈ ə
പ്രതിപക്ഷ	p r a t̪ i p a k ʂ a	p r a t̪ i p a k ʂ a
സ്ഥിതി	s t̪ʰ i t̪ i	s t̪ʰ i t̪ i
വന്ന്	ʋ a n̪ n̪ ə	ʋ a n̪ n̪ ə
യുടെ	j u ʈ e	j u ʈ e
ആദ്യത്തെ	aː d̪ j a t̪ t̪ e	aː d̪ j a t̪ t̪ e
വിളിച്ചു	ʋ i ɭ i t͡ʃ t͡ʃ u	ʋ i ɭ i t͡ʃ t͡ʃ u
ബ്ലോഗ്	b l oː ɡ ə	b l oː ɡ ə
സ്കൂളിൽ	s k uː ɭ i l	s k uː ɭ i l
പ്രതി	p r a t̪ i	p r a t̪ i
സാംസ്കാരിക	s aː m s k aː ɾ i k a	s aː m s k aː ɾ i k a
ചേർന്ന	t͡ʃ eː r n̪ n̪ a	t͡ʃ eː r n̪ n̪ a
വാർത്തകൾ	ʋ aː r t̪ t̪ a k a ɭ	ʋ aː r t̪ t̪ a k a ɭ
ആക്രമണം	aː k r a m a ɳ a m	aː k r a m a ɳ a m
സംസ്ഥാനത്ത്	s a m s t̪ʰ aː n a t̪ t̪ ə	s a m s t̪ʰ aː n a t̪ t̪ ə
ചോദിച്ചു	t͡ʃ oː d̪ i t͡ʃ t͡ʃ u	t͡ʃ oː d̪ i t͡ʃ t͡ʃ u
സാധ്യത	s aː d̪ʱ j a t̪ a	s aː d̪ʱ j a t̪ a
ഒരിക്കൽ	o ɾ i k k a l	o ɾ i k k a l
ചെയ്യുക	t͡ʃ e j j u k a	t͡ʃ e j j u k a
കഴിയും	k a ɻ i j u m	k a ɻ i j u m
മഴ	m a ɻ a	m a ɻ a
വാദം	ʋ aː d̪ a m	ʋ aː d̪ a m
മുതിർന്ന	m u t̪ i r n̪ n̪ a	m u t̪ i r n̪ n̪ a
ഏതു	eː t̪ u	eː t̪ u
പിടിച്ചു	p i ʈ i t͡ʃ t͡ʃ u	p i ʈ i t͡ʃ t͡ʃ u
സംസ്ഥാനത്തെ	s a m s t̪ʰ aː n a t̪ t̪ e	s a m s t̪ʰ aː n a t̪ t̪ e
ഗാന്ധി	ɡ aː n̪ d̪ʱ i	ɡ aː n̪ d̪ʱ i
നിർദ്ദേശം	n̪ i r d̪ d̪ eː ʃ a m	n̪ i r d̪ d̪ eː ʃ a m
മാറ്റം	m aː ṯ ṯ a m	m aː ṯ ṯ a m
തിരികെ	t̪ i ɾ i k e	t̪ i ɾ i k e
ഗ്രൂപ്പ്	ɡ ɾ uː p p ə	ɡ ɾ uː p p ə
തുടർന്നാണ്	t̪ u ʈ a r n̪ n̪ aː ɳ ə	t̪ u ʈ a r n̪ n̪ aː ɳ ə
പരിശോധന	p a ɾ i ʃ oː d̪ʱ a n a	p a ɾ i ʃ oː d̪ʱ a n a
ശേഷമാണ്	ʃ eː ʂ a m aː ɳ ə	ʃ eː ʂ a m aː ɳ ə
പിന്തുണ	p i n̪ t̪ u ɳ a	p i n̪ t̪ u ɳ a
കേരളത്തിന്റെ	k eː ɾ a ɭ a t̪ t̪ i n ṯ e	k eː ɾ a ɭ a t̪ t̪ i n ṯ e
ജോർജ്	ɟ oː r ɟ ə	ɟ oː r ɟ
ചിത്രത്തിൽ	t͡ʃ i t̪ r a t̪ t̪ i l	t͡ʃ i t̪ r a t̪ t̪ i l
മുന്നോട്ട്	m u n̪ n̪ oː ʈ ʈ ə	m u n̪ n̪ oː ʈ ʈ ə
കൌൺസിൽ	k au̯ ɳ s i l	k au̯ ɳ s i l
പാക്	p aː k ə	p aː k ə
തുടക്കം	t̪ u ʈ a k k a m	t̪ u ʈ a k k a m
സാങ്കേതിക	s aː ŋ k eː t̪ i k a	s aː ŋ k eː t̪ i k a
ജസ്റ്റിസ്	ɟ a s ṯ ṯ i s ə	ɟ a s ṯ ṯ i s ə
സൂപ്പർ	s uː p p a r	s uː p p a r
നമ്പർ	n̪ a m p a r	n a m p a r
ടീം	ʈ iː m	ʈ iː m
കുട്ടികളെ	k u ʈ ʈ i k a ɭ e	k u ʈ ʈ i k a ɭ e
എത്തിയ	e t̪ t̪ i j a	e t̪ t̪ i j a
പഠനം	p a ʈʰ a n a m	p a ʈʰ a n a m
കേന്ദ്രം	k eː n̪ d̪ ɾ a m	k eː n̪ d̪ ɾ a m
കുറച്ച്	k u r a t͡ʃ t͡ʃ ə	k u r a t͡ʃ t͡ʃ ə
നിറഞ്ഞ	n̪ i r a ɲ ɲ a	n̪ i r a ɲ ɲ a
മലപ്പുറം	m a l a p p u r a m	m a l a p p u r a m
നിന്റെ	n̪ i n ṯ e	n̪ i n ṯ e
കനത്ത	k a n a t̪ t̪ a	k a n a t̪ t̪ a
കൈ	k ai̯	k ai̯
ചൂണ്ടിക്കാട്ടി	t͡ʃ uː ɳ ʈ i k k aː ʈ ʈ i	t͡ʃ uː ɳ ʈ i k k aː ʈ ʈ i
വോട്ട്	ʋ oː ʈ ʈ ə	ʋ oː ʈ ʈ ə
മുംബൈ	m u m b ai̯	m u m b ai̯
കാണുന്ന	k aː ɳ u n̪ n̪ a	k aː ɳ u n̪ n̪ a
പുറമെ	p u r a m e	p u r a m e
സുരേഷ്	s u ɾ eː ʂ ə	s u ɾ eː ʂ
കൃഷി	k rɨ ʂ i	k rɨ ʂ i
സംശയം	s a m ʃ a j a m	s a m ʃ a j a m
റെയിൽവേ	r e j i l ʋ eː	r e j i l ʋ eː
സൌദി	s au̯ d̪ i	s au̯ d̪ i
ദൈവം	d̪ ai̯ ʋ a m	d̪ ai̯ ʋ a m
ഓഫീസ്	oː f iː s ə	oː f iː s ə
രൂപം	ɾ uː p a m	ɾ uː p a m
ഏതാനും	eː t̪ aː n u m	eː t̪ aː n u m
നടത്തുന്നത്	n̪ a ʈ a t̪ t̪ u n̪ n̪ a t̪ ə	n̪ a ʈ a t̪ t̪ u n̪ n̪ a t̪ ə
ഇത്തരത്തിൽ	i t̪ t̪ a ɾ a t̪ t̪ i l	i t̪ t̪ a ɾ a t̪ t̪ i l
സമീപം	s a m iː p a m	s a m iː p a m
സമ്മേളനം	s a m m eː ɭ a n a m	s a m m eː ɭ a n a m
ലഭിക്കുന്ന	l a bʱ i k k u n̪ n̪ a	l a bʱ i k k u n̪ n̪ a
പേരും	p eː ɾ u m	p eː ɾ u m
ഉണ്ടായിരുന്നു	u ɳ ʈ aː j i ɾ u n̪ n̪ u	u ɳ ʈ aː j i ɾ u n̪ n̪ u
ഔദ്യോഗിക	au̯ d̪ j oː ɡ i k a	au̯ d̪ j oː ɡ i k a
മാർ	m aː r	m aː r
ചേർത്ത്	t͡ʃ eː r t̪ t̪ ə	t͡ʃ eː r t̪ t̪ ə
കിലോമീറ്റർ	k i l oː m iː ṯ ṯ a r	k i l oː m iː ṯ ṯ a r
ഇംഗ്ലീഷ്	i m ɡ l iː ʂ ə	i m ɡ l iː ʂ ə
എന്തു	e n̪ t̪ u	e n̪ t̪ u
അസോസിയേഷൻ	a s oː s i j eː ʂ a n	a s oː s i j eː ʂ a n
നിയമ	n̪ i j a m a	n̪ i j a m a
എന്നിവരാണ്	e n̪ n̪ i ʋ a ɾ aː ɳ ə	e n̪ n̪ i ʋ a ɾ aː ɳ ə
ഇതിനു	i t̪ i n u	i t̪ i n u
കുറെ	k u r e	k u r e
ഒ	o	o
ഏപ്രിൽ	eː p r i l	eː p r i l
വിജിലൻസ്	ʋ i ɟ i l a n s ə	ʋ i ɟ i l a n s ə
ഇവരെ	i ʋ a ɾ e	i ʋ a ɾ e
വരുന്നു	ʋ a ɾ u n̪ n̪ u	ʋ a ɾ u n̪ n̪ u
കുട്ടികളുടെ	k u ʈ ʈ i k a ɭ u ʈ e	k u ʈ ʈ i k a ɭ u ʈ e
തമിഴ്	t̪ a m i ɻ ə	t̪ a m i ɻ ə
ഇവ	i ʋ a	i ʋ a
പോകാൻ	p oː k aː n	p oː k aː n
ഏഴ്	eː ɻ ə	eː ɻ ə
നൽകുന്നത്	n̪ a l k u n̪ n̪ a t̪ ə	n̪ a l k u n̪ n̪ a t̪ ə
നാഷണൽ	n̪ aː ʂ a ɳ a l	n̪ aː ʂ a ɳ a l
ആർക്കും	aː r k k u m	aː r k k u m
ജീവൻ	ɟ iː ʋ a n	ɟ iː ʋ a n
അവസാനം	a ʋ a s aː n a m	a ʋ a s aː n a m
ആവശ്യപ്പെട്ട്	aː ʋ a ʃ j a p p e ʈ ʈ ə	aː ʋ a ʃ j a p p e ʈ ʈ ə
കുട്ടി	k u ʈ ʈ i	k u ʈ ʈ i
വിഷയം	ʋ i ʂ a j a m	ʋ i ʂ a j a m
കൊണ്ടാണ്	k o ɳ ʈ aː ɳ ə	k o ɳ ʈ aː ɳ ə
ഡിസംബർ	ɖ i s a m b a r	ɖ i s a m b a r
സിംഗ്	s i m ɡ ə	s i m ɡ ə
നിയമസഭാ	n̪ i j a m a s a bʱ aː	n̪ i j a m a s a bʱ aː
മത്സരത്തിൽ	m a t̪ s a ɾ a t̪ t̪ i l	m a t̪ s a ɾ a t̪ t̪ i l
വിട്ടു	ʋ i ʈ ʈ u	ʋ i ʈ ʈ u
തൻറെ	t̪ a n r e	t̪ a n r e
എഴുതി	e ɻ u t̪ i	e ɻ u t̪ i
രമേശ്	ɾ a m eː ʃ ə	ɾ a m eː ʃ
ജോൺ	ɟ oː ɳ	ɟ oː ɳ
അദ്ദേഹത്തെ	a d̪ d̪ eː ɦ a t̪ t̪ e	a d̪ d̪ eː ɦ a t̪ t̪ e
ഭാഗം	bʱ aː ɡ a m	bʱ aː ɡ a m
മാധ്യമ	m aː d̪ʱ j a m a	m aː d̪ʱ j a m a
ഉന്നത	u n n a t̪ a	u n n a t̪ a
ഫലം	pʰ a l a m	pʰ a l a m
അഥവാ	a t̪ʰ a ʋ aː	a t̪ʰ a ʋ aː
കരാർ	k a ɾ aː r	k a ɾ aː r
ജീവിതത്തിൽ	ɟ iː ʋ i t̪ a t̪ t̪ i l	ɟ iː ʋ i t̪ a t̪ t̪ i l
തുറന്നു	t̪ u r a n̪ n̪ u	t̪ u r a n̪ n̪ u
മരിച്ച	m a ɾ i t͡ʃ t͡ʃ a	m a ɾ i t͡ʃ t͡ʃ a
രാജ്യം	ɾ aː ɟ j a m	ɾ aː ɟ j a m
രജിസ്റ്റർ	ɾ a ɟ i s ṯ ṯ a r	ɾ a ɟ i s ṯ ṯ a r
തിരഞ്ഞെടുപ്പിൽ	t̪ i ɾ a ɲ ɲ e ʈ u p p i l	t̪ i ɾ a ɲ ɲ e ʈ u p p i l
തീരുമാനിച്ചു	t̪ iː ɾ u m aː n i t͡ʃ t͡ʃ u	t̪ iː ɾ u m aː n i t͡ʃ t͡ʃ u
നാട്ടുകാർ	n̪ aː ʈ ʈ u k aː r	n̪ aː ʈ ʈ u k aː r
മൃതദേഹം	m rɨ t̪ a d̪ eː ɦ a m	m rɨ t̪ a d̪ eː ɦ a m
വരെയുള്ള	ʋ a ɾ e j u ɭ ɭ a	ʋ a ɾ e j u ɭ ɭ a
ഓൺലൈൻ	oː ɳ l ai̯ n	oː ɳ l ai̯ n
തേടി	t̪ eː ʈ i	t̪ eː ʈ i
പ്രതിഷേധം	p r a t̪ i ʂ eː d̪ʱ a m	p r a t̪ i ʂ eː d̪ʱ a m
ഡൽഹി	ɖ a l ɦ i	ɖ a l ɦ i
കണ്ടെത്തിയത്	k a ɳ ʈ e t̪ t̪ i j a t̪ ə	k a ɳ ʈ e t̪ t̪ i j a t̪ ə
കാർഡ്	k aː r ɖ ə	k aː r ɖ ə
യുവതി	j u ʋ a t̪ i	j u ʋ a t̪ i
തോന്നി	t̪ oː n̪ n̪ i	t̪ oː n̪ n̪ i
തൃശൂർ	t̪ rɨ ʃ uː r	t̪ rɨ ʃ uː r
സിനിമാ	s i n i m aː	s i n i m aː
ജനങ്ങളുടെ	ɟ a n a ŋ ŋ a ɭ u ʈ e	ɟ a n a ŋ ŋ a ɭ u ʈ e
പാർട്ടിയുടെ	p aː r ʈ ʈ i j u ʈ e	p aː r ʈ ʈ i j u ʈ e
അപേക്ഷ	a p eː k ʂ a	a p eː k ʂ a
നടന്നത്	n̪ a ʈ a n̪ n̪ a t̪ ə	n̪ a ʈ a n̪ n̪ a t̪ ə
നീണ്ട	n̪ iː ɳ ʈ a	n̪ iː ɳ ʈ a
അഴിമതി	a ɻ i m a t̪ i	a ɻ i m a t̪ i
ഇത്തവണ	i t̪ t̪ a ʋ a ɳ a	i t̪ t̪ a ʋ a ɳ a
തോന്നുന്നു	t̪ oː n̪ n̪ u n̪ n̪ u	t̪ oː n̪ n̪ u n̪ n̪ u
കിട്ടിയ	k i ʈ ʈ i j a	k i ʈ ʈ i j a
നടക്കും	n̪ a ʈ a k k u m	n̪ a ʈ a k k u m
തമിഴ്നാട്	t̪ a m i ɻ n̪ aː ʈ ə	t̪ a m i ɻ n̪ aː ʈ ə
പാലക്കാട്	p aː l a k k aː ʈ ə	p aː l a k k aː ʈ ə
ഉൾപ്പെടെയുള്ള	u ɭ p p e ʈ e j u ɭ ɭ a	u ɭ p p e ʈ e j u ɭ ɭ a
ഇതോടെ	i t̪ oː ʈ e	i t̪ oː ʈ e
കൈകാര്യം	k ai̯ k aː ɾ j a m	k ai̯ k aː ɾ j a m
എട്ട്	e ʈ ʈ ə	e ʈ ʈ ə
മത	m a t̪ a	m a t̪ a
എഴുതിയ	e ɻ u t̪ i j a	e ɻ u t̪ i j a
സൈനിക	s ai̯ n i k a	s ai̯ n i k a
അമേരിക്ക	a m eː ɾ i k k a	a m eː ɾ i k k a
ചരിത്രം	t͡ʃ a ɾ i t̪ r a m	t͡ʃ a ɾ i t̪ r a m
നവംബർ	n̪ a ʋ a m b a r	n a ʋ a m b a r
ശബരിമല	ʃ a b a ɾ i m a l a	ʃ a b a ɾ i m a l a
അടിസ്ഥാന	a ʈ i s t̪ʰ aː n a	a ʈ i s t̪ʰ aː n a
പരിപാടി	p a ɾ i p aː ʈ i	p a ɾ i p aː ʈ i
ക്ലാസ്	k l aː s ə	k l aː s ə
സ്ത്രീകൾ	s t̪ r iː k a ɭ	s t̪ r iː k a ɭ
പെട്ടെന്ന്	p e ʈ ʈ e n̪ n̪ ə	p e ʈ ʈ e n̪ n̪ ə
പരസ്പരം	p a ɾ a s p a ɾ a m	p a ɾ a s p a ɾ a m
കണ്ടത്	k a ɳ ʈ a t̪ ə	k a ɳ ʈ a t̪ ə
അബ്ദുൽ	a b d̪ u l	a b d̪ u l
നൽകിയിരുന്നു	n̪ a l k i j i ɾ u n̪ n̪ u	n̪ a l k i j i ɾ u n̪ n̪ u
തെരഞ്ഞെടുപ്പിൽ	t̪ e ɾ a ɲ ɲ e ʈ u p p i l	t̪ e ɾ a ɲ ɲ e ʈ u p p i l
മൊഴി	m o ɻ i	m o ɻ i
മുന്നറിയിപ്പ്	m u n̪ n̪ a r i j i p p ə	m u n n a r i j i p p ə
ലോകത്തെ	l oː k a t̪ t̪ e	l oː k a t̪ t̪ e
സംവിധായകൻ	s a m ʋ i d̪ʱ aː j a k a n	s a m ʋ i d̪ʱ aː j a k a n
നൽകും	n̪ a l k u m	n̪ a l k u m
യുഡിഎഫ്	j u ɖ i e f ə	j u ɖ i e f
ചെയ്താൽ	t͡ʃ e j t̪ aː l	t͡ʃ e j t̪ aː l
ഒരുപാട്	o ɾ u p aː ʈ ə	o ɾ u p aː ʈ ə
പരിസ്ഥിതി	p a ɾ i s t̪ʰ i t̪ i	p a ɾ i s t̪ʰ i t̪ i
എടുത്തു	e ʈ u t̪ t̪ u	e ʈ u t̪ t̪ u
സമ്മേളനത്തിൽ	s a m m eː ɭ a n a t̪ t̪ i l	s a m m eː ɭ a n a t̪ t̪ i l
താങ്കൾ	t̪ aː ŋ k a ɭ	t̪ aː ŋ k a ɭ
എയർ	e j a r	e j a r
വ്യാജ	ʋ j aː ɟ a	ʋ j aː ɟ a
ആവശ്യമായ	aː ʋ a ʃ j a m aː j a	aː ʋ a ʃ j a m aː j a
വാക്കുകൾ	ʋ aː k k u k a ɭ	ʋ aː k k u k a ɭ
ജൂൺ	ɟ uː ɳ	ɟ uː ɳ
ഫേസ്ബുക്ക്	f eː s b u k k ə	f eː s b u k k ə
പണി	p a ɳ i	p a ɳ i
ആറു	aː r u	aː r u
ആരോപിച്ചു	aː ɾ oː p i t͡ʃ t͡ʃ u	aː ɾ oː p i t͡ʃ t͡ʃ u
നേരം	n̪ eː ɾ a m	n̪ eː ɾ a m
പങ്കെടുത്തു	p a ŋ k e ʈ u t̪ t̪ u	p a ŋ k e ʈ u t̪ t̪ u
ഹർജി	ɦ a r ɟ i	ɦ a r ɟ i
സിനിമയിൽ	s i n i m a j i l	s i n i m a j i l
എന്തായാലും	e n̪ t̪ aː j aː l u m	e n̪ t̪ aː j aː l u m
കൂട്ടിച്ചേർത്തു	k uː ʈ ʈ i t͡ʃ t͡ʃ eː r t̪ t̪ u	k uː ʈ ʈ i t͡ʃ t͡ʃ eː r t̪ t̪ u
കവിത	k a ʋ i t̪ a	k a ʋ i t̪ a
സിബിഐ	s i b i ai̯	s i b i ai̯
സ്ഥലത്ത്	s t̪ʰ a l a t̪ t̪ ə	s t̪ʰ a l a t̪ t̪ ə
പറ്റി	p a ṯ ṯ i	p a ṯ ṯ i
വർഗ്ഗങ്ങൾ	ʋ a r ɡ ɡ a ŋ ŋ a ɭ	ʋ a r ɡ ɡ a ŋ ŋ a ɭ
കരുതി	k a ɾ u t̪ i	k a ɾ u t̪ i
ബാക്കി	b aː k k i	b aː k k i
ആധുനിക	aː d̪ʱ u n i k a	aː d̪ʱ u n i k a
അത്തരം	a t̪ t̪ a ɾ a m	a t̪ t̪ a ɾ a m
നടക്കുന്നത്	n̪ a ʈ a k k u n̪ n̪ a t̪ ə	n̪ a ʈ a k k u n̪ n̪ a t̪ ə
പ്രകടനം	p r a k a ʈ a n a m	p r a k a ʈ a n a m
പുരസ്കാരം	p u ɾ a s k aː ɾ a m	p u ɾ a s k aː ɾ a m
പേരെ	p eː ɾ e	p eː ɾ e
പുസ്തകം	p u s t̪ a k a m	p u s t̪ a k a m
രാജ്യത്തിന്റെ	ɾ aː ɟ j a t̪ t̪ i n ṯ e	ɾ aː ɟ j a t̪ t̪ i n ṯ e
മാധ്യമങ്ങൾ	m aː d̪ʱ j a m a ŋ ŋ a ɭ	m aː d̪ʱ j a m a ŋ ŋ a ɭ
ദിവസവും	d̪ i ʋ a s a ʋ u m	d̪ i ʋ a s a ʋ u m
ആശുപത്രി	aː ʃ u p a t̪ r i	aː ʃ u p a t̪ r i
മകൾ	m a k a ɭ	m a k a ɭ
മേൽ	m eː l	m eː l
ഉത്തരം	u t̪ t̪ a ɾ a m	u t̪ t̪ a ɾ a m
സാമൂഹ്യ	s aː m uː ɦ j a	s aː m uː ɦ j a
അവസ്ഥ	a ʋ a s t̪ʰ a	a ʋ a s t̪ʰ a
സുപ്രീംകോടതി	s u p r iː m k oː ʈ a t̪ i	s u p r iː m k oː ʈ a t̪ i
അയാളുടെ	a j aː ɭ u ʈ e	a j aː ɭ u ʈ e
വരുമ്പോൾ	ʋ a ɾ u m p oː ɭ	ʋ a ɾ u m p oː ɭ
ശിക്ഷ	ʃ i k ʂ a	ʃ i k ʂ a
ധാരാളം	d̪ʱ aː ɾ aː ɭ a m	d̪ʱ aː ɾ aː ɭ a m
ബ്രിട്ടീഷ്	b r i ʈ ʈ iː ʂ ə	b r i ʈ ʈ iː ʂ ə
എന്നിങ്ങനെ	e n̪ n̪ i ŋ ŋ a n e	e n̪ n̪ i ŋ ŋ a n e
ജനുവരി	ɟ a n u ʋ a ɾ i	ɟ a n u ʋ a ɾ i
വാഗ്ദാനം	ʋ aː ɡ d̪ aː n a m	ʋ aː ɡ d̪ aː n a m
ഓഫീസർ	oː f iː s a r	oː f iː s a r
വിശ്വാസം	ʋ i ʃ ʋ aː s a m	ʋ i ʃ ʋ aː s a m
മണിക്കൂർ	m a ɳ i k k uː r	m a ɳ i k k uː r
മണി	m a ɳ i	m a ɳ i
നടി	n̪ a ʈ i	n̪ a ʈ i
ആലപ്പുഴ	aː l a p p u ɻ a	aː l a p p u ɻ a
തുടങ്ങിയവർ	t̪ u ʈ a ŋ ŋ i j a ʋ a r	t̪ u ʈ a ŋ ŋ i j a ʋ a r
ജോസ്	ɟ oː s ə	ɟ oː s
നടൻ	n̪ a ʈ a n	n̪ a ʈ a n
വേറെ	ʋ eː r e	ʋ eː r e
പ്രാദേശിക	p r aː d̪ eː ʃ i k a	p r aː d̪ eː ʃ i k a
ഉമ്മൻ	u m m a n	u m m a n
ജയിലിൽ	ɟ a j i l i l	ɟ a j i l i l
അടക്കമുള്ള	a ʈ a k k a m u ɭ ɭ a	a ʈ a k k a m u ɭ ɭ a
കീഴിൽ	k iː ɻ i l	k iː ɻ i l
കേസിലെ	k eː s i l e	k eː s i l e
തല	t̪ a l a	t̪ a l a
ഇന്നു	i n̪ n̪ u	i n̪ n̪ u
നേതൃത്വത്തിലുള്ള	n̪ eː t̪ rɨ t̪ ʋ a t̪ t̪ i l u ɭ ɭ a	n̪ eː t̪ rɨ t̪ ʋ a t̪ t̪ i l u ɭ ɭ a
എന്നിവരുടെ	e n̪ n̪ i ʋ a ɾ u ʈ e	e n̪ n̪ i ʋ a ɾ u ʈ e
ഇക്കാര്യത്തിൽ	i k k aː ɾ j a t̪ t̪ i l	i k k aː ɾ j a t̪ t̪ i l
അത്ര	a t̪ r a	a t̪ r a
സ്വാമി	s ʋ aː m i	s ʋ aː m i
ഭാഗത്ത്	bʱ aː ɡ a t̪ t̪ ə	bʱ aː ɡ a t̪ t̪ ə
ശ്രദ്ധ	ʃ r a d̪ d̪ʱ a	ʃ r a d̪ d̪ʱ a
പെൺകുട്ടി	p e ɳ k u ʈ ʈ i	p e ɳ k u ʈ ʈ i
ദേവസ്വം	d̪ eː ʋ a s ʋ a m	d̪ eː ʋ a s ʋ a m
ഫോട്ടോ	f oː ʈ ʈ oː	f oː ʈ ʈ oː
ശേഖരിച്ചത്	ʃ eː kʰ a ɾ i t͡ʃ t͡ʃ a t̪ ə	ʃ eː kʰ a ɾ i t͡ʃ t͡ʃ a t̪ ə
സേവനം	s eː ʋ a n a m	s eː ʋ a n a m
കാണുന്നത്	k aː ɳ u n̪ n̪ a t̪ ə	k aː ɳ u n̪ n̪ a t̪ ə
ഒക്ടോബർ	o k ʈ oː b a r	o k ʈ oː b a r
മത്സരം	m a t̪ s a ɾ a m	m a t̪ s a ɾ a m
ലഭിച്ചത്	l a bʱ i t͡ʃ t͡ʃ a t̪ ə	l a bʱ i t͡ʃ t͡ʃ a t̪ ə
സഭ	s a bʱ a	s a bʱ a
ബിൻ	b i n	b i n
അടക്കം	a ʈ a k k a m	a ʈ a k k a m
അച്ഛൻ	a t͡ʃ t͡ʃʰ a n	a t͡ʃ t͡ʃʰ a n
ലൈംഗിക	l ai̯ m ɡ i k a	l ai̯ m ɡ i k a
റിപ്പോർട്ടുകൾ	r i p p oː r ʈ ʈ u k a ɭ	r i p p oː r ʈ ʈ u k a ɭ
അംഗം	a m ɡ a m	a m ɡ a m
നിർത്തി	n̪ i r t̪ t̪ i	n̪ i r t̪ t̪ i
എച്ച്	e t͡ʃ t͡ʃ ə	e t͡ʃ t͡ʃ
സന്തോഷം	s a n̪ t̪ oː ʂ a m	s a n̪ t̪ oː ʂ a m
ഇല്ലാത്ത	i l l aː t̪ t̪ a	i l l aː t̪ t̪ a
വാഹനം	ʋ aː ɦ a n a m	ʋ aː ɦ a n a m
കാർഷിക	k aː r ʂ i k a	k aː r ʂ i k a
അന്നത്തെ	a n̪ n̪ a t̪ t̪ e	a n̪ n̪ a t̪ t̪ e
എന്താണ്	e n̪ t̪ aː ɳ ə	e n̪ t̪ aː ɳ ə
ജനങ്ങളെ	ɟ a n a ŋ ŋ a ɭ e	ɟ a n a ŋ ŋ a ɭ e
എത്തിയത്	e t̪ t̪ i j a t̪ ə	e t̪ t̪ i j a t̪ ə
സീറ്റ്	s iː ṯ ṯ ə	s iː ṯ ṯ ə
ഓഫീസിൽ	oː f iː s i l	oː f iː s i l
വെറുതെ	ʋ e r u t̪ e	ʋ e r u t̪ e
തിങ്കളാഴ്ച	t̪ i ŋ k a ɭ aː ɻ t͡ʃ a	t̪ i ŋ k a ɭ aː ɻ t͡ʃ a
മെയ്	m e j ə	m e j ə
പറഞ്ഞിരുന്നു	p a r a ɲ ɲ i ɾ u n̪ n̪ u	p a r a ɲ ɲ i ɾ u n̪ n̪ u
മലബാർ	m a l a b aː r	m a l a b aː r
ബാബു	b aː b u	b aː b u
ഇപ്പോഴത്തെ	i p p oː ɻ a t̪ t̪ e	i p p oː ɻ a t̪ t̪ e
ടിക്കറ്റ്	ʈ i k k a ṯ ṯ ə	ʈ i k k a ṯ ṯ ə
പദ്ധതികൾ	p a d̪ d̪ʱ a t̪ i k a ɭ	p a d̪ d̪ʱ a t̪ i k a ɭ
ഭരണം	bʱ a ɾ a ɳ a m	bʱ a ɾ a ɳ a m
അലി	a l i	a l i
സർക്കാരിന്	s a r k k aː ɾ i n ə	s a r k k aː ɾ i n ə
റിപ്പോർട്ടിൽ	r i p p oː r ʈ ʈ i l	r i p p oː r ʈ ʈ i l
വന്നാൽ	ʋ a n̪ n̪ aː l	ʋ a n̪ n̪ aː l
താളിൽനിന്നു	t̪ aː ɭ i l n i n̪ n̪ u	t̪ aː ɭ i l n i n̪ n̪ u
രീതി	ɾ iː t̪ i	ɾ iː t̪ i
തുടർന്നു	t̪ u ʈ a r n̪ n̪ u	t̪ u ʈ a r n̪ n̪ u
നിങ്ങൾക്ക്	n̪ i ŋ ŋ a ɭ k k ə	n̪ i ŋ ŋ a ɭ k k ə
ചെന്നിത്തല	t͡ʃ e n̪ n̪ i t̪ t̪ a l a	t͡ʃ e n n i t̪ t̪ a l a
ഭർത്താവ്	bʱ a r t̪ t̪ aː ʋ ə	bʱ a r t̪ t̪ aː ʋ ə
ചികിത്സ	t͡ʃ i k i t̪ s a	t͡ʃ i k i t̪ s a
പ്രത്യേകം	p r a t̪ j eː k a m	p r a t̪ j eː k a m
വിശദീകരണം	ʋ i ʃ a d̪ iː k a ɾ a ɳ a m	ʋ i ʃ a d̪ iː k a ɾ a ɳ a m
മീറ്റർ	m iː ṯ ṯ a r	m iː ṯ ṯ a r
എല്ലാവർക്കും	e l l aː ʋ a r k k u m	e l l aː ʋ a r k k u m
വെള്ളിയാഴ്ച	ʋ e ɭ ɭ i j aː ɻ t͡ʃ a	ʋ e ɭ ɭ i j aː ɻ t͡ʃ a
മേഖലയിലെ	m eː kʰ a l a j i l e	m eː kʰ a l a j i l e
പരിശീലനം	p a ɾ i ʃ iː l a n a m	p a ɾ i ʃ iː l a n a m
ഏകദേശം	eː k a d̪ eː ʃ a m	eː k a d̪ eː ʃ a m
സുരക്ഷ	s u ɾ a k ʂ a	s u ɾ a k ʂ a
പരാതിയിൽ	p a ɾ aː t̪ i j i l	p a ɾ aː t̪ i j i l
ലോകത്ത്	l oː k a t̪ t̪ ə	l oː k a t̪ t̪ ə
എടുത്ത്	e ʈ u t̪ t̪ ə	e ʈ u t̪ t̪ ə
ജീവിത	ɟ iː ʋ i t̪ a	ɟ iː ʋ i t̪ a
അമ്മയുടെ	a m m a j u ʈ e	a m m a j u ʈ e
നു	n̪ u	n u
സംസാരിക്കുകയായിരുന്നു	s a m s aː ɾ i k k u k a j aː j i ɾ u n̪ n̪ u	s a m s aː ɾ i k k u k a j aː j i ɾ u n̪ n̪ u
എന്നൊക്കെ	e n̪ n̪ o k k e	e n̪ n̪ o k k e
ആത്മഹത്യ	aː t̪ m a ɦ a t̪ j a	aː t̪ m a ɦ a t̪ j a
സിനിമയുടെ	s i n i m a j u ʈ e	s i n i m a j u ʈ e
വിധം	ʋ i d̪ʱ a m	ʋ i d̪ʱ a m
റോഡിൽ	r oː ɖ i l	r oː ɖ i l
കൂടിയാണ്	k uː ʈ i j aː ɳ ə	k uː ʈ i j aː ɳ ə
രേഖകൾ	ɾ eː kʰ a k a ɭ	ɾ eː kʰ a k a ɭ
മുഖ്യമന്ത്രിയുടെ	m u kʰ j a m a n̪ t̪ r i j u ʈ e	m u kʰ j a m a n̪ t̪ r i j u ʈ e
ഇതിനെ	i t̪ i n e	i t̪ i n e
അധ്യക്ഷൻ	a d̪ʱ j a k ʂ a n	a d̪ʱ j a k ʂ a n
എന്തോ	e n̪ t̪ oː	e n̪ t̪ oː
നിന്ന	n̪ i n̪ n̪ a	n̪ i n̪ n̪ a
വിരുദ്ധ	ʋ i ɾ u d̪ d̪ʱ a	ʋ i ɾ u d̪ d̪ʱ a
നിരക്ക്	n̪ i ɾ a k k ə	n̪ i ɾ a k k ə
തരം	t̪ a ɾ a m	t̪ a ɾ a m
പോകുന്നത്	p oː k u n̪ n̪ a t̪ ə	p oː k u n̪ n̪ a t̪ ə
ഭരണ	bʱ a ɾ a ɳ a	bʱ a ɾ a ɳ a
ക്ഷേത്രം	k ʂ eː t̪ r a m	k ʂ eː t̪ r a m
രാജ്യങ്ങളിൽ	ɾ aː ɟ j a ŋ ŋ a ɭ i l	ɾ aː ɟ j a ŋ ŋ a ɭ i l
ഇരു	i ɾ u	i ɾ u
കിടക്കുന്ന	k i ʈ a k k u n̪ n̪ a	k i ʈ a k k u n̪ n̪ a
വാർത്താ	ʋ aː r t̪ t̪ aː	ʋ aː r t̪ t̪ aː
മുഖ്യ	m u kʰ j a	m u kʰ j a
ലഭിച്ചു	l a bʱ i t͡ʃ t͡ʃ u	l a bʱ i t͡ʃ t͡ʃ u
സിവിൽ	s i ʋ i l	s i ʋ i l
എനിക്കു	e n i k k u	e n i k k u
പിതാവ്	p i t̪ aː ʋ ə	p i t̪ aː ʋ ə
വിമാനം	ʋ i m aː n a m	ʋ i m aː n a m
അതായത്	a t̪ aː j a t̪ ə	a t̪ aː j a t̪ ə
പദ്ധതിയുടെ	p a d̪ d̪ʱ a t̪ i j u ʈ e	p a d̪ d̪ʱ a t̪ i j u ʈ e
നേരിടുന്ന	n̪ eː ɾ i ʈ u n̪ n̪ a	n̪ eː ɾ i ʈ u n̪ n̪ a
മുന്നോട്ടു	m u n̪ n̪ oː ʈ ʈ u	m u n n oː ʈ ʈ u
ഡോക്ടർ	ɖ oː k ʈ a r	ɖ oː k ʈ a r
ആകെ	aː k e	aː k e
പ്രതിരോധ	p r a t̪ i ɾ oː d̪ʱ a	p r a t̪ i ɾ oː d̪ʱ a
ഞായറാഴ്ച	ɲ aː j a r aː ɻ t͡ʃ a	ɲ aː j a r aː ɻ t͡ʃ a
ആരെങ്കിലും	aː ɾ e ŋ k i l u m	aː ɾ e ŋ k i l u m
മന്ത്രാലയം	m a n̪ t̪ r aː l a j a m	m a n̪ t̪ r aː l a j a m
എന്നൊരു	e n̪ n̪ o ɾ u	e n̪ n̪ o ɾ u
വിളിച്ച്	ʋ i ɭ i t͡ʃ t͡ʃ ə	ʋ i ɭ i t͡ʃ t͡ʃ ə
വിശുദ്ധ	ʋ i ʃ u d̪ d̪ʱ a	ʋ i ʃ u d̪ d̪ʱ a
ആം	aː m	aː m
യഥാർത്ഥ	j a t̪ʰ aː r t̪ t̪ʰ a	j a t̪ʰ aː r t̪ t̪ʰ a
സന്ദേശം	s a n̪ d̪ eː ʃ a m	s a n̪ d̪ eː ʃ a m
ഒട്ടേറെ	o ʈ ʈ eː r e	o ʈ ʈ eː r e
ശനിയാഴ്ച	ʃ a n i j aː ɻ t͡ʃ a	ʃ a n i j aː ɻ t͡ʃ a
നടത്തും	n̪ a ʈ a t̪ t̪ u m	n̪ a ʈ a t̪ t̪ u m
ആന്റ്	aː n ṯ ə	aː n ṯ ə
പേർക്ക്	p eː r k k ə	p eː r k k ə
രണ്ടാമത്തെ	ɾ a ɳ ʈ aː m a t̪ t̪ e	ɾ a ɳ ʈ aː m a t̪ t̪ e
പിടിച്ച്	p i ʈ i t͡ʃ t͡ʃ ə	p i ʈ i t͡ʃ t͡ʃ ə
സ്റ്റേഷനിൽ	s ṯ ṯ eː ʂ a n i l	s ṯ ṯ eː ʂ a n i l
വ്യക്തമായ	ʋ j a k t̪ a m aː j a	ʋ j a k t̪ a m aː j a
സംഘടിപ്പിച്ച	s a m ɡʱ a ʈ i p p i t͡ʃ t͡ʃ a	s a m ɡʱ a ʈ i p p i t͡ʃ t͡ʃ a
കൂടിയ	k uː ʈ i j a	k uː ʈ i j a
ലഭിക്കും	l a bʱ i k k u m	l a bʱ i k k u m
സിപിഐ	s i p i ai̯	s i p i ai̯
മാത്യു	m aː t̪ j u	m aː t̪ j u
ദിവസങ്ങളിൽ	d̪ i ʋ a s a ŋ ŋ a ɭ i l	d̪ i ʋ a s a ŋ ŋ a ɭ i l
കുട്ടികൾക്ക്	k u ʈ ʈ i k a ɭ k k ə	k u ʈ ʈ i k a ɭ k k ə
സമൂഹം	s a m uː ɦ a m	s a m uː ɦ a m
സഹകരണ	s a ɦ a k a ɾ a ɳ a	s a ɦ a k a ɾ a ɳ a
കയ്യിൽ	k a j j i l	k a j j i l
ബിജു	b i ɟ u	b i ɟ u
കൂട്ടി	k uː ʈ ʈ i	k uː ʈ ʈ i
ഇസ്ലാമിക	i s l aː m i k a	i s l aː m i k a
ഉപയോഗിക്കുന്ന	u p a j oː ɡ i k k u n̪ n̪ a	u p a j oː ɡ i k k u n̪ n̪ a
നോട്ട്	n̪ oː ʈ ʈ ə	n̪ oː ʈ ʈ ə
നിയന്ത്രണം	n̪ i j a n̪ t̪ r a ɳ a m	n̪ i j a n̪ t̪ r a ɳ a m
കഴിഞ്ഞാൽ	k a ɻ i ɲ ɲ aː l	k a ɻ i ɲ ɲ aː l
അനുസരിച്ച്	a n u s a ɾ i t͡ʃ t͡ʃ ə	a n u s a ɾ i t͡ʃ t͡ʃ ə
ചിലപ്പോൾ	t͡ʃ i l a p p oː ɭ	t͡ʃ i l a p p oː ɭ
സിങ്	s i ŋ ə	s i ŋ ə
യുവാവ്	j u ʋ aː ʋ ə	j u ʋ aː ʋ ə
പത്തു	p a t̪ t̪ u	p a t̪ t̪ u
നൽകിയിട്ടുണ്ട്	n̪ a l k i j i ʈ ʈ u ɳ ʈ ə	n̪ a l k i j i ʈ ʈ u ɳ ʈ ə
കോളജ്	k oː ɭ a ɟ ə	k oː ɭ a ɟ ə
ചിത്രത്തിന്റെ	t͡ʃ i t̪ r a t̪ t̪ i n ṯ e	t͡ʃ i t̪ r a t̪ t̪ i n ṯ e
വാഹനങ്ങൾ	ʋ aː ɦ a n a ŋ ŋ a ɭ	ʋ aː ɦ a n a ŋ ŋ a ɭ
എംഎൽഎ	e m e l e	e m e l e
സിറ്റി	s i ṯ ṯ i	s i ṯ ṯ i
ജാതി	ɟ aː t̪ i	ɟ aː t̪ i
കോളേജിൽ	k oː ɭ eː ɟ i l	k oː ɭ eː ɟ i l
പുറമേ	p u r a m eː	p u r a m eː
സമൂഹത്തിൽ	s a m uː ɦ a t̪ t̪ i l	s a m uː ɦ a t̪ t̪ i l
മുസ്ലീം	m u s l iː m	m u s l iː m
കൃത്യമായി	k rɨ t̪ j a m aː j i	k rɨ t̪ j a m aː j i
യൂത്ത്	j uː t̪ t̪ ə	j uː t̪ t̪ ə
പരമാവധി	p a ɾ a m aː ʋ a d̪ʱ i	p a ɾ a m aː ʋ a d̪ʱ i
മണ്ഡലം	m a ɳ ɖ a l a m	m a ɳ ɖ a l a m
യൂണിയൻ	j uː ɳ i j a n	j uː ɳ i j a n
വൈകിട്ട്	ʋ ai̯ k i ʈ ʈ ə	ʋ ai̯ k i ʈ ʈ ə
ഭീഷണി	bʱ iː ʂ a ɳ i	bʱ iː ʂ a ɳ i
പ്രാഥമിക	p r aː t̪ʰ a m i k a	p r aː t̪ʰ a m i k a
ഉണ്ടായ	u ɳ ʈ aː j a	u ɳ ʈ aː j a
ആർഎസ്എസ്	aː r e s ə e s ə	aː r e s e s
മനുഷ്യൻ	m a n u ʂ j a n	m a n u ʂ j a n
ആരംഭിച്ച	aː ɾ a m bʱ i t͡ʃ t͡ʃ a	aː ɾ a m bʱ i t͡ʃ t͡ʃ a
സമർപ്പിച്ച	s a m a r p p i t͡ʃ t͡ʃ a	s a m a r p p i t͡ʃ t͡ʃ a
ശബ്ദം	ʃ a b d̪ a m	ʃ a b d̪ a m
ചെയ്തിട്ടുണ്ട്	t͡ʃ e j t̪ i ʈ ʈ u ɳ ʈ ə	t͡ʃ e j t̪ i ʈ ʈ u ɳ ʈ ə
എന്നിവിടങ്ങളിൽ	e n̪ n̪ i ʋ i ʈ a ŋ ŋ a ɭ i l	e n̪ n̪ i ʋ i ʈ a ŋ ŋ a ɭ i l
കുറ്റം	k u ṯ ṯ a m	k u ṯ ṯ a m
സംഗീത	s a m ɡ iː t̪ a	s a m ɡ iː t̪ a
സ്വതന്ത്ര	s ʋ a t̪ a n̪ t̪ r a	s ʋ a t̪ a n̪ t̪ r a
സംഘടന	s a m ɡʱ a ʈ a n a	s a m ɡʱ a ʈ a n a
പ്രാധാന്യം	p r aː d̪ʱ aː n j a m	p r aː d̪ʱ aː n j a m
കേന്ദ്രസർക്കാർ	k eː n̪ d̪ ɾ a s a r k k aː r	k eː n̪ d̪ ɾ a s a r k k aː r
ജൂലൈ	ɟ uː l ai̯	ɟ uː l ai̯
സൌകര്യം	s au̯ k a ɾ j a m	s au̯ k a ɾ j a m
ലോക്സഭാ	l oː k s a bʱ aː	l oː k s a bʱ aː
എപ്പോഴും	e p p oː ɻ u m	e p p oː ɻ u m
ഫുട്ബോൾ	f u ʈ b oː ɭ	f u ʈ b oː ɭ
വിദ്യാഭ്യാസം	ʋ i d̪ j aː bʱ j aː s a m	ʋ i d̪ j aː bʱ j aː s a m
തരത്തിൽ	t̪ a ɾ a t̪ t̪ i l	t̪ a ɾ a t̪ t̪ i l
പശ്ചാത്തലത്തിൽ	p a ʃ t͡ʃ aː t̪ t̪ a l a t̪ t̪ i l	p a ʃ t͡ʃ aː t̪ t̪ a l a t̪ t̪ i l
നോട്ടീസ്	n̪ oː ʈ ʈ iː s ə	n̪ oː ʈ ʈ iː s ə
