അക്കമ്മ	a kka mma 
അക്കാമ്മ	a kkaː mma 
അക്കിത്തം	a kki t̪t̪am 
അക്കിലസ്	a kki la sə 
അക്ബർ	a kbar 
അക്ഷയ	a kʂa ja 
അക്ഷയ്	a kʂa jə 
അക്ഷര	a kʂa ɾa 
അഖില	a kʰi la 
അഖിലേഷ്	a kʰi leː ʂə 
അഖിൽ	a kʰil 
അഖിൽരാജ്	a kʰil ɾaː ɟə 
അഗസ്തി	a ɡa st̪i 
അഗസ്റ്റിൻ	a ɡa sṯṯin 
അഗസ്റ്റ്യൻ	a ɡa sṯṯjan 
അച്ചൻകുഞ്ഞ്	a t͡ʃt͡ʃan ku ɲɲə 
അച്ചാമ്മ	a t͡ʃt͡ʃaː mma 
അച്ചു	a t͡ʃt͡ʃu 
അച്ചുതൻ	a t͡ʃt͡ʃu t̪an 
അച്യുതൻ	a t͡ʃju t̪an 
അച്യുതാനന്ദൻ	a t͡ʃju t̪aː na n̪d̪an 
അജയ	a ɟa ja 
അജയകുമാർ	a ɟa ja ku maːr 
അജയഘോഷ്	a ɟa ja ɡʱoː ʂə 
അജയൻ	a ɟa jan 
അജയ്	a ɟa jə 
അജയ്കുമാർ	a ɟa jku maːr 
അജയ്ഘോഷ്	a ɟa jɡʱoː ʂə 
അജാസ്	a ɟaː sə 
അജി	a ɟi 
അജികുമാർ	a ɟi ku maːr 
അജിത	a ɟi t̪a 
അജിതകുമാരി	a ɟi t̪a ku maː ɾi 
അജിത്	a ɟi t̪ə 
അജിത്കുമാർ	a ɟi t̪ku maːr 
അജിത്ത്	a ɟi t̪t̪ə 
അജിത്ത്കുമാർ	a ɟi t̪t̪ku maːr 
അജിന	a ɟi na 
അജിൻ	a ɟin 
അജിമോൻ	a ɟi moːn 
അജിമോൾ	a ɟi moːɭ 
അജിൽ	a ɟil 
അജിഷ	a ɟi ʂa 
അജീന	a ɟiː na 
അജീഷ്	a ɟiː ʂə 
അജീഷ്കുമാർ	a ɟiː ʂku maːr 
അജു	a ɟu 
അജേഷ്	a ɟeː ʂə 
അജോ	a ɟoː 
അജ്നാസ്	a ɟn̪aː sə 
അജ്മൽ	a ɟmal 
അഞ്ചു	a ɲt͡ʃu 
അഞ്ജന	a ɲɟa na 
അഞ്ജലി	a ɲɟa li 
അഞ്ജിത	a ɲɟi t̪a 
അഞ്ജു	a ɲɟu 
അഞ്ജുമോൾ	a ɲɟu moːɭ 
അഞ്ജുഷ	a ɲɟu ʂa 
അഡേൽ	a ɖeːl 
അഡോൾഫ്	a ɖoːɭ fə 
അതുൽ	a t̪ul 
അതുല്യ	a t̪u lja 
അത്തൻ	a t̪t̪an 
അനഘ	a na ɡʱa 
അനന്തകൃഷ്ണൻ	a na n̪t̪a krɨ ʂɳan 
അനന്തൻ	a na n̪t̪an 
അനന്തപത്മനാഭൻ	a na n̪t̪a pa t̪ma naː bʱan 
അനന്തു	a na n̪t̪u 
അനന്ദു	a na n̪d̪u 
അനശ്വര	a na ʃʋa ɾa 
അനസ്	a na sə 
അനാമിക	a naː mi ka 
അനി	a ni 
അനിജ	a ni ɟa 
അനിത	a ni t̪a 
അനിതകുമാരി	a ni t̪a ku maː ɾi 
അനിതാ	a ni t̪aː 
അനിതാകുമാരി	a ni t̪aː ku maː ɾi 
അനിമോൻ	a ni moːn 
അനിമോൾ	a ni moːɭ 
അനിയൻ	a ni jan 
അനിരുദ്ധൻ	a ni ɾu d̪d̪ʱan 
അനില	a ni la 
അനിലൻ	a ni lan 
അനിൽ	a nil 
അനിൽകുമാർ	a nil ku maːr 
അനിവർ	a ni ʋar 
അനിഷ	a ni ʂa 
അനിഷ്	a ni ʂə 
അനിറ്റ	a ni ṯṯa 
അനീന	a niː na 
അനീഷ	a niː ʂa 
അനീഷാ	a niː ʂaː 
അനീഷ്	a niː ʂə 
അനീഷ്കുമാർ	a niː ʂku maːr 
അനീസ	a niː sa 
അനീസ്	a niː sə 
അനീറ്റ	a niː ṯṯa 
അനു	a nu 
അനുജ	a nu ɟa 
അനുപമ	a nu pa ma 
അനുപ്	a nu pə 
അനുപ്രിയ	a nu pri ja 
അനുമോൾ	a nu moːɭ 
അനുരാഗ്	a nu ɾaː ɡə 
അനുരാജ്	a nu ɾaː ɟə 
അനുരാധ	a nu ɾaː d̪ʱa 
അനുരൂപ	a nu ɾuː pa 
അനുശ്രീ	a nu ʃriː 
അനുഷ	a nu ʂa 
അനൂജ	a nuː ɟa 
അനൂപ്	a nuː pə 
അനൂപ്കുമാർ	a nuː pku maːr 
അനൂബ്	a nuː bə 
അന്തർജനം	a n̪t̪ar ɟa nam 
അന്തർജ്ജനം	a n̪t̪ar ɟɟa nam 
അന്തോണി	a n̪t̪oː ɳi 
അന്ത്രു	a n̪t̪ru 
അന്ന	a n̪n̪a 
അന്നക്കുട്ടി	a n̪n̪a kku ʈʈi 
അന്നം	a n̪n̪am 
അന്നംകുട്ടി	a n̪n̪am ku ʈʈi 
അന്നമ്മ	a n̪n̪a mma 
അന്നാ	a n̪n̪aː 
അന്നു	a n̪n̪u 
അൻവർ	an ʋar 
അൻഷാദ്	an ʂaː d̪ə 
അൻസ	an sa 
അൻസർ	an sar 
അൻസൽ	an sal 
അൻസാരി	an saː ɾi 
അൻസാർ	an saːr 
അൻസി	an si 
അൻസിയ	an si ja 
അൻസില	an si la 
അൻസിൽ	an sil 
അൻസു	an su 
അന്റോണിയോ	a nṯoː ɳi joː 
അപരാജിത	a pa ɾaː ɟi t̪a 
അപർണ	a par ɳa 
അപർണ്ണ	a par ɳɳa 
അപ്പച്ചൻ	a ppa t͡ʃt͡ʃan 
അപ്പു	a ppu 
അപ്പുകുട്ടൻ	a ppu ku ʈʈan 
അപ്പുക്കുട്ടൻ	a ppu kku ʈʈan 
അപ്പുണ്ണി	a ppu ɳɳi 
അഫീഫ	a fiː fa 
അഫ്	a fə 
അഫ്സ	a fsa 
അഫ്സത്ത്	a fsa t̪t̪ə 
അഫ്സൽ	a fsal 
അബി	a bi 
അബിത	a bi t̪a 
അബിദ്	a bi d̪ə 
അബിൻ	a bin 
അബു	a bu 
അബുതാഹിർ	a bu t̪aː ɦir 
അബുബക്കർ	a bu ba kkar 
അബൂബക്കർ	a buː ba kkar 
അബൂബേക്കർ	a buː beː kkar 
അബ്	a bə 
അബ്ദു	a bd̪u 
അബ്ദുനാസർ	a bd̪u naː sar 
അബ്ദുൽ	a bd̪ul 
അബ്ദുൽഅസീസ്	a bd̪ul a siː sə 
അബ്ദുൽകരീം	a bd̪ul ka ɾiːm 
അബ്ദുൽഖാദർ	a bd̪ul kʰaː d̪ar 
അബ്ദുൽഗഫൂർ	a bd̪ul ɡa fuːr 
അബ്ദുൽജലീൽ	a bd̪ul ɟa liːl 
അബ്ദുൽനാസർ	a bd̪ul naː sar 
അബ്ദുൽമജീദ്	a bd̪ul ma ɟiː d̪ə 
അബ്ദുല്ല	a bd̪u lla 
അബ്ദുൽലത്തീഫ്	a bd̪ul la t̪t̪iː fə 
അബ്ദുൽസലാം	a bd̪ul sa laːm 
അബ്ദുൽറഷീദ്	a bd̪ul ra ʂiː d̪ə 
അബ്ദുസമദ്	a bd̪u sa ma d̪ə 
അബ്ദുസലാം	a bd̪u sa laːm 
അബ്ദുസ്സമദ്	a bd̪u ssa ma d̪ə 
അബ്ദുസ്സലാം	a bd̪u ssa laːm 
അബ്ദുളള	a bd̪u ɭa ɭa 
അബ്‌ദുൾ	a b d̪uɭ 
അബ്ദുൾ	a bd̪uɭ 
അബ്ദുൾഅസീസ്	a bd̪uɭ a siː sə 
അബ്ദുൾകരിം	a bd̪uɭ ka ɾim 
അബ്ദുൾകരീം	a bd̪uɭ ka ɾiːm 
അബ്ദുൾകാദർ	a bd̪uɭ kaː d̪ar 
അബ്ദുൾഖാദർ	a bd̪uɭ kʰaː d̪ar 
അബ്ദുൾഗഫൂർ	a bd̪uɭ ɡa fuːr 
അബ്ദുൾജബ്ബാർ	a bd̪uɭ ɟa bbaːr 
അബ്ദുൾജലീൽ	a bd̪uɭ ɟa liːl 
അബ്ദുൾനാസർ	a bd̪uɭ naː sar 
അബ്ദുൾമജീദ്	a bd̪uɭ ma ɟiː d̪ə 
അബ്ദുൾലത്തീഫ്	a bd̪uɭ la t̪t̪iː fə 
അബ്ദുൾസമദ്	a bd̪uɭ sa ma d̪ə 
അബ്ദുൾസലാം	a bd̪uɭ sa laːm 
അബ്ദുൾഹമീദ്	a bd̪uɭ ɦa miː d̪ə 
അബ്ദുള്ള	a bd̪u ɭɭa 
അബ്ദുള്ളകുട്ടി	a bd̪u ɭɭa ku ʈʈi 
അബ്ദുള്ളക്കുട്ടി	a bd̪u ɭɭa kku ʈʈi 
അബ്ദുൾറഷീദ്	a bd̪uɭ ra ʂiː d̪ə 
അബ്ദുൾറസാക്ക്	a bd̪uɭ ra saː kkə 
അബ്ദുൾറഹിമാൻ	a bd̪uɭ ra ɦi maːn 
അബ്ദുൾറഹ്മാൻ	a bd̪uɭ ra ɦmaːn 
അബ്ദുറബ്ബ്	a bd̪u ra bbə 
അബ്ദുറഷീദ്	a bd̪u ra ʂiː d̪ə 
അബ്ദുറസാക്ക്	a bd̪u ra saː kkə 
അബ്ദുറസാഖ്	a bd̪u ra saː kʰə 
അബ്ദുറഹിമാൻ	a bd̪u ra ɦi maːn 
അബ്ദുറഹീം	a bd̪u ra ɦiːm 
അബ്‌ദുറഹ്‌മാൻ	a b d̪u ra ɦ maːn 
അബ്ദുറഹ്മാൻ	a bd̪u ra ɦmaːn 
അബ്ബാസ്	a bbaː sə 
അബ്രഹാം	a bra ɦaːm 
അബ്രാഹം	a braː ɦam 
അഭി	a bʱi 
അഭിജിത്	a bʱi ɟi t̪ə 
അഭിജിത്ത്	a bʱi ɟi t̪t̪ə 
അഭിനന്ദ്	a bʱi na n̪d̪ə 
അഭിനവ്	a bʱi na ʋə 
അഭിമന്യു	a bʱi ma nju 
അഭിരാജ്	a bʱi ɾaː ɟə 
അഭിരാമി	a bʱi ɾaː mi 
അഭിരാം	a bʱi ɾaːm 
അഭിലാഷ്	a bʱi laː ʂə 
അഭിഷേക്	a bʱi ʂeː kə 
അമല	a ma la 
അമലു	a ma lu 
അമൽ	a mal 
അമൽജിത്ത്	a mal ɟi t̪t̪ə 
അമൽരാജ്	a mal ɾaː ɟə 
അമിത	a mi t̪a 
അമിതാഭ്	a mi t̪aː bʱə 
അമിത്	a mi t̪ə 
അമിത്ത്	a mi t̪t̪ə 
അമീന	a miː na 
അമീനുദ്ദീൻ	a miː nu d̪d̪iːn 
അമീൻ	a miːn 
അമീർ	a miːr 
അമീറ	a miː ra 
അമൃത	a mrɨ t̪a 
അമ്പാടി	a mpaː ʈi 
അമ്പിളി	a mpi ɭi 
അമ്പു	a mpu 
അംബ	am ba 
അംബി	am bi 
അംബിക	am bi ka 
അംബികാദേവി	am bi kaː d̪eː ʋi 
അംബികേഷ്	am bi keː ʂə 
അംബുജം	am bu ɟam 
അംബുജാക്ഷൻ	am bu ɟaː kʂan 
അംബുജാക്ഷി	am bu ɟaː kʂi 
അംബുജാക്ഷിയമ്മ	am bu ɟaː kʂi ja mma 
അംബ്രോസ്	am broː sə 
അമ്മ	a mma 
അമ്മത്	a mma t̪ə 
അമ്മദ്	a mma d̪ə 
അമ്മാളു	a mmaː ɭu 
അമ്മാൾ	a mmaːɭ 
അമ്മിണി	a mmi ɳi 
അമ്മിണിക്കുട്ടി	a mmi ɳi kku ʈʈi 
അമ്മിണിയമ്മ	a mmi ɳi ja mma 
അമ്മു	a mmu 
അമ്മുകുട്ടി	a mmu ku ʈʈi 
അമ്മുക്കുട്ടി	a mmu kku ʈʈi 
അമ്മുക്കുട്ടിയമ്മ	a mmu kku ʈʈi ja mma 
അയന	a ja na 
അയിശു	a ji ʃu 
അയിഷ	a ji ʂa 
അയിഷാബി	a ji ʂaː bi 
അയിഷാബീവി	a ji ʂaː biː ʋi 
അയൂബ്	a juː bə 
അയ്യങ്കാർ	a jja ŋkaːr 
അയ്യങ്കാളി	a jja ŋkaː ɭi 
അയ്യപ്പൻ	a jja ppan 
അയ്യപ്പൻകുട്ടി	a jja ppan ku ʈʈi 
അയ്യർ	a jjar 
അയ്യൂബ്	a jjuː bə 
അരയൻ	a ɾa jan 
അരവിന്ദൻ	a ɾa ʋi n̪d̪an 
അരവിന്ദാക്ഷൻ	a ɾa ʋi n̪d̪aː kʂan 
അരവിന്ദ്	a ɾa ʋi n̪d̪ə 
അരുണ	a ɾu ɳa 
അരുണാചലം	a ɾu ɳaː t͡ʃa lam 
അരുണിമ	a ɾu ɳi ma 
അരുൺ	a ɾuɳ 
അരുൺകുമാർ	a ɾuɳ ku maːr 
അരുൺദാസ്	a ɾuɳ d̪aː sə 
അരുൺരാജ്	a ɾuɳ ɾaː ɟə 
അരുൺലാൽ	a ɾuɳ laːl 
അരുന്ധതി	a ɾu n̪d̪ʱa t̪i 
അരുൾ	a ɾuɭ 
അർച്ചന	ar t͡ʃt͡ʃa na 
അർജുനൻ	ar ɟu nan 
അർജുൻ	ar ɟun 
അർജ്ജുനൻ	ar ɟɟu nan 
അർജ്ജുൻ	ar ɟɟun 
അർനോൾഡ്	ar noːɭ ɖə 
അർഷ	ar ʂa 
അർഷദ്	ar ʂa d̪ə 
അർഷാദ്	ar ʂaː d̪ə 
അർഷിദ	ar ʂi d̪a 
അലക്സാണ്ടർ	a la ksaː ɳʈar 
അലക്സ്	a la ksə 
അലൻ	a lan 
അലവി	a la ʋi 
അലവികുട്ടി	a la ʋi ku ʈʈi 
അലവിക്കുട്ടി	a la ʋi kku ʈʈi 
അലി	a li 
അലിഅക്ബർ	a li a kbar 
അലിക്കുട്ടി	a li kku ʈʈi 
അലിമ	a li ma 
അലിയാരുകുഞ്ഞ്	a li jaː ɾu ku ɲɲə 
അലിയാർ	a li jaːr 
അലീന	a liː na 
അലീമ	a liː ma 
അലോഷ്യസ്	a loː ʂja sə 
അൽ	al 
അൽത്താഫ്	al t̪t̪aː fə 
അൽഫിയ	al fi ja 
അൽഫോൺസ	al foːɳ sa 
അൽഫോൺസ്	al foːɳ sə 
അൽഫോൻസ	al foːn sa 
അൽഫോൻസാ	al foːn saː 
അൽഫോൻസ്	al foːn sə 
അല്ലി	a lli 
അവിനാഷ്	a ʋi naː ʂə 
അശറഫ്	a ʃa ra fə 
അശോക	a ʃoː ka 
അശോകൻ	a ʃoː kan 
അശോക്	a ʃoː kə 
അശോക്കുമാർ	a ʃoː kku maːr 
അശ്വതി	a ʃʋa t̪i 
അശ്വനി	a ʃʋa ni 
അശ്വന്ത്	a ʃʋa n̪t̪ə 
അശ്വിനി	a ʃʋi ni 
അശ്വിൻ	a ʃʋin 
അശ്റഫ്	a ʃra fə 
അഷറഫ്	a ʂa ra fə 
അഷിത	a ʂi t̪a 
അഷ്കർ	a ʂkar 
അഷ്ക്കർ	a ʂkkar 
അഷ്‌റഫ്	a ʂ ra fə 
അഷ്റഫ്	a ʂra fə 
അസീന	a siː na 
അസീം	a siːm 
അസീസ്	a siː sə 
അസുമാബീവി	a su maː biː ʋi 
അസൂറ	a suː ra 
അസൈനാർ	a sai̯ naːr 
അസൈൻ	a sai̯n 
അസ്	a sə 
അസ്കർ	a skar 
അസ്ക്കർ	a skkar 
അസ്ന	a sna 
അസ്മ	a sma 
അസ്മാബി	a smaː bi 
അസ്മാബീവി	a smaː biː ʋi 
അസ്‌ലം	a s lam 
അസ്ലം	a slam 
അസ്സൻ	a ssan 
അസ്സീസ്	a ssiː sə 
അസ്ഹർ	a sɦar 
അഹമ്മത്	a ɦa mma t̪ə 
അഹമ്മദ്	a ɦa mma d̪ə 
അഹമ്മദ്കുട്ടി	a ɦa mma d̪ku ʈʈi 
അഹല്യ	a ɦa lja 
അറഫാത്ത്	a ra faː t̪t̪ə 
അറമുഖൻ	a ra mu kʰan 
അറസ്റ്റ്	a ra sṯṯə 
അറുമുഖൻ	a ru mu kʰan 
ആകാശ്	aː kaː ʃə 
ആഗസ്തി	aː ɡa st̪i 
ആഗ്നസ്	aː ɡna sə 
ആചാരി	aː t͡ʃaː ɾi 
ആഞ്ജനേയൻ	aː ɲɟa neː jan 
ആണ്ടി	aː ɳʈi 
ആതിര	aː t̪i ɾa 
ആത്തിക്ക	aː t̪t̪i kka 
ആദം	aː d̪am 
ആദർശ്	aː d̪ar ʃə 
ആദിത്യ	aː d̪i t̪ja 
ആദിത്യൻ	aː d̪i t̪jan 
ആദിൽ	aː d̪il 
ആനന്ദ	aː na n̪d̪a 
ആനന്ദക്കുട്ടൻ	aː na n̪d̪a kku ʈʈan 
ആനന്ദൻ	aː na n̪d̪an 
ആനന്ദം	aː na n̪d̪am 
ആനന്ദവല്ലി	aː na n̪d̪a ʋa lli 
ആനന്ദവല്ലിയമ്മ	aː na n̪d̪a ʋa lli ja mma 
ആനന്ദി	aː na n̪d̪i 
ആനന്ദ്	aː na n̪d̪ə 
ആനാപ്പറമ്പിൽ	aː naː ppa ra mpil 
ആനി	aː ni 
ആനിയമ്മ	aː ni ja mma 
ആനീസ്	aː niː sə 
ആൻ	aːn 
ആൻഡ്രൂസ്	aːn ɖruː sə 
ആൻസൻ	aːn san 
ആൻസമ്മ	aːn sa mma 
ആൻസി	aːn si 
ആന്റണി	aː nṯa ɳi 
ആൻ്റണി	aː nṯa ɳi 
ആൻറണി	aːn ra ɳi 
ആന്റു	aː nṯu 
ആന്റെണി	aː nṯe ɳi 
ആന്റോ	aː nṯoː 
ആബിത	aː bi t̪a 
ആബിദ	aː bi d̪a 
ആബിദാബീവി	aː bi d̪aː biː ʋi 
ആബിദ്	aː bi d̪ə 
ആമചാട	aː ma t͡ʃaː ʈa 
ആമി	aː mi 
ആമിന	aː mi na 
ആമിനകുട്ടി	aː mi na ku ʈʈi 
ആമിനക്കുട്ടി	aː mi na kku ʈʈi 
ആമിനാബീവി	aː mi naː biː ʋi 
ആമിനു	aː mi nu 
ആയിശ	aː ji ʃa 
ആയിശക്കുട്ടി	aː ji ʃa kku ʈʈi 
ആയിശബി	aː ji ʃa bi 
ആയിശാബി	aː ji ʃaː bi 
ആയിശു	aː ji ʃu 
ആയിശുമ്മ	aː ji ʃu mma 
ആയിശുമ്മു	aː ji ʃu mmu 
ആയിഷ	aː ji ʂa 
ആയിഷകുട്ടി	aː ji ʂa ku ʈʈi 
ആയിഷക്കുട്ടി	aː ji ʂa kku ʈʈi 
ആയിഷത്ത്	aː ji ʂa t̪t̪ə 
ആയിഷബി	aː ji ʂa bi 
ആയിഷബീവി	aː ji ʂa biː ʋi 
ആയിഷാബി	aː ji ʂaː bi 
ആയിഷാബീവി	aː ji ʂaː biː ʋi 
ആയിഷുമ്മ	aː ji ʂu mma 
ആയിഷുമ്മു	aː ji ʂu mmu 
ആരണ്യ	aː ɾa ɳja 
ആരതി	aː ɾa t̪i 
ആരഭി	aː ɾa bʱi 
ആരിഫ	aː ɾi fa 
ആരിഫാ	aː ɾi faː 
ആരിഫാബീവി	aː ɾi faː biː ʋi 
ആരിഫ്	aː ɾi fə 
ആരോമൽ	aː ɾoː mal 
ആർക്കിമിഡീസ്	aːr kki mi ɖiː sə 
ആർച്ച	aːr t͡ʃt͡ʃa 
ആർതർ	aːr t̪ar 
ആർദ്ര	aːr d̪ɾa 
ആർനോൾഡ്	aːr noːɭ ɖə 
ആർബർട്ട്	aːr bar ʈʈə 
ആര്യ	aː ɾja 
ആര്യാ	aː ɾjaː 
ആർഷ	aːr ʂa 
ആലി	aː li 
ആലിക്കുട്ടി	aː li kku ʈʈi 
ആലിക്കോയ	aː li kkoː ja 
ആലിസ്	aː li sə 
ആലീസ്	aː liː sə 
ആൽഫി	aːl fi 
ആൽഫ്രഡ്	aːl fra ɖə 
ആൽബർട്ട്	aːl bar ʈʈə 
ആൽബി	aːl bi 
ആൽബിൻ	aːl bin 
ആൽവിൻ	aːl ʋin 
ആശ	aː ʃa 
ആശാ	aː ʃaː 
ആശാമോൾ	aː ʃaː moːɭ 
ആശാരി	aː ʃaː ɾi 
ആശാലത	aː ʃaː la t̪a 
ആശിഖ്	aː ʃi kʰə 
ആശിഷ്	aː ʃi ʂə 
ആഷ	aː ʂa 
ആഷാ	aː ʂaː 
ആഷിക്	aː ʂi kə 
ആഷിക്ക്	aː ʂi kkə 
ആഷിഖ്	aː ʂi kʰə 
ആഷിഫ	aː ʂi fa 
ആഷിഫ്	aː ʂi fə 
ആഷിഷ്	aː ʂi ʂə 
ആഷ്കിൻ	aː ʂkin 
ആഷ്ന	aː ʂn̪a 
ആഷ്‌ലി	aː ʂ li 
ആഷ്ലി	aː ʂli 
ആസാദ്	aː saː d̪ə 
ആസിഫ	aː si fa 
ആസിഫ്	aː si fə 
ആസിയ	aː si ja 
ആസ്യ	aː sja 
ആസ്യമ്മ	aː sja mma 
ആറുമുഖൻ	aː ru mu kʰan 
ഇക്കണ്ടവാര്യർ	i kka ɳʈa ʋaː ɾjar 
ഇക്ബാൽ	i kbaːl 
ഇഖ്ബാൽ	i kʰbaːl 
ഇഗ്നേഷ്യസ്	i ɡneː ʂja sə 
ഇജാസ്	i ɟaː sə 
ഇടിക്കുള	i ʈi kku ɭa 
ഇട്ടി	i ʈʈi 
ഇന്ദിര	i n̪d̪i ɾa 
ഇന്ദിരയമ്മ	i n̪d̪i ɾa ja mma 
ഇന്ദിരാ	i n̪d̪i ɾaː 
ഇന്ദിരാഗാന്ധി	i n̪d̪i ɾaː ɡaː n̪d̪ʱi 
ഇന്ദിരാദേവി	i n̪d̪i ɾaː d̪eː ʋi 
ഇന്ദിരാഭായി	i n̪d̪i ɾaː bʱaː ji 
ഇന്ദിരാമ്മ	i n̪d̪i ɾaː mma 
ഇന്ദു	i n̪d̪u 
ഇന്ദുലേഖ	i n̪d̪u leː kʰa 
ഇന്ദ്രൻ	i n̪d̪ɾan 
ഇബ്രായി	i braː ji 
ഇബ്രാഹിം	i braː ɦim 
ഇബ്രാഹിംകുട്ടി	i braː ɦim ku ʈʈi 
ഇബ്രാഹീം	i braː ɦiːm 
ഇമ്പിച്ചി	i mpi t͡ʃt͡ʃi 
ഇമ്മാനുവൽ	i mmaː nu ʋal 
ഇമ്മാനുവേൽ	i mmaː nu ʋeːl 
ഇയ്യാത്തു	i jjaː t̪t̪u 
ഇയ്യാത്തുട്ടി	i jjaː t̪t̪u ʈʈi 
ഇയ്യാത്തുമ്മ	i jjaː t̪t̪u mma 
ഇർഫാന	ir faː na 
ഇർഫാൻ	ir faːn 
ഇർഷാദ്	ir ʂaː d̪ə 
ഇലോൺ	i loːɳ 
ഇല്യാസ്	i ljaː sə 
ഇല്ല്യാസ്	i lljaː sə 
ഇഷ	i ʂa 
ഇസ്മയിൽ	i sma jil 
ഇസ്മായിൽ	i smaː jil 
ഇസ്ഹാക്ക്	i sɦaː kkə 
ഇസ്ഹാഖ്	i sɦaː kʰə 
ഈഗോൺ	iː ɡoːɳ 
ഈപ്പൻ	iː ppan 
ഈശോ	iː ʃoː 
ഈശ്വരൻ	iː ʃʋa ɾan 
ഈശ്വരി	iː ʃʋa ɾi 
ഈശ്വരിയമ്മ	iː ʃʋa ɾi ja mma 
ഉണ്ണി	u ɳɳi 
ഉണ്ണികൃഷ്ണൻ	u ɳɳi krɨ ʂɳan 
ഉണ്ണികൃഷ്ണപിള്ള	u ɳɳi krɨ ʂɳa pi ɭɭa 
ഉണ്ണിക്കുട്ടൻ	u ɳɳi kku ʈʈan 
ഉണ്ണിക്കൃഷ്ണൻ	u ɳɳi kkrɨ ʂɳan 
ഉണ്ണിത്താൻ	u ɳɳi t̪t̪aːn 
ഉണ്ണിമായ	u ɳɳi maː ja 
ഉണ്ണീൻ	u ɳɳiːn 
ഉണ്ണീൻകുട്ടി	u ɳɳiːn ku ʈʈi 
ഉണ്ണൂലി	u ɳɳuː li 
ഉത്തമൻ	u t̪t̪a man 
ഉദയ	u d̪a ja 
ഉദയകുമാരി	u d̪a ja ku maː ɾi 
ഉദയകുമാർ	u d̪a ja ku maːr 
ഉദയൻ	u d̪a jan 
ഉദയഭാനു	u d̪a ja bʱaː nu 
ഉനൈസ്	u nai̯ sə 
ഉബൈദുള്ള	u bai̯ d̪u ɭɭa 
ഉബൈദ്	u bai̯ d̪ə 
ഉമ	u ma 
ഉമയമ്മ	u ma ja mma 
ഉമർ	u mar 
ഉമാദേവി	u maː d̪eː ʋi 
ഉമാവതി	u maː ʋa t̪i 
ഉമേഷ്	u meː ʂə 
ഉമൈത്താനകത്ത്	u mai̯ t̪t̪aː na ka t̪t̪ə 
ഉമൈബ	u mai̯ ba 
ഉമൈബാൻ	u mai̯ baːn 
ഉമൈബാബീവി	u mai̯ baː biː ʋi 
ഉമൈമത്ത്	u mai̯ ma t̪t̪ə 
ഉമൈറ	u mai̯ ra 
ഉമ്മ	u mma 
ഉമ്മൻ	u mman 
ഉമ്മൻചാണ്ടി	u mman t͡ʃaː ɳʈi 
ഉമ്മയ്യ	u mma jja 
ഉമ്മർ	u mmar 
ഉമ്മർകുട്ടി	u mmar ku ʈʈi 
ഉമ്മർകോയ	u mmar koː ja 
ഉമ്മാച്ചു	u mmaː t͡ʃt͡ʃu 
ഉമ്മു	u mmu 
ഉമ്മുകുൽസു	u mmu kul su 
ഉമ്മുക്കുൽസു	u mmu kkul su 
ഉമ്മുൽ	u mmul 
ഉമ്മുസൽമ	u mmu sal ma 
ഉമ്മുഹബീബ	u mmu ɦa biː ba 
ഉർവശി	ur ʋa ʃi 
ഉലഹന്നാൻ	u la ɦa n̪n̪aːn 
ഉല്ലാസ്	u llaː sə 
ഉവൈസ്	u ʋai̯ sə 
ഉഷ	u ʂa 
ഉഷകുമാരി	u ʂa ku maː ɾi 
ഉഷസ്	u ʂa sə 
ഉഷാ	u ʂaː 
ഉഷാകുമാരി	u ʂaː ku maː ɾi 
ഉഷാദേവി	u ʂaː d̪eː ʋi 
ഉസൈൻ	u sai̯n 
ഉസ്മാൻ	u smaːn 
ഉസ്സയിൻ	u ssa jin 
ഊർമിള	uːr mi ɭa 
ഋഷി	rɨ ʂi 
എഡിസൺ	e ɖi saɳ 
എഡിസൻ	e ɖi san 
എഡ്‌വിൻ	e ɖ ʋin 
എഡ്വിൻ	e ɖʋin 
എഡ്വേർഡ്	e ɖʋeːr ɖə 
എത്സമ്മ	e t̪sa mma 
എബി	e bi 
എബിൻ	e bin 
എബ്രഹാം	e bra ɦaːm 
എബ്രാഹം	e braː ɦam 
എമിലി	e mi li 
എമിൽ	e mil 
എംഗൽസ്	em ɡal sə 
എയ്ഞ്ചൽ	e jɲt͡ʃal 
എലിസബത്ത്	e li sa ba t̪t̪ə 
എലിസബേത്ത്	e li sa beː t̪t̪ə 
എൽദോ	el d̪oː 
എൽദോസ്	el d̪oː sə 
എൽസ	el sa 
എൽസബത്ത്	el sa ba t̪t̪ə 
എൽസമ്മ	el sa mma 
എൽസാ	el saː 
എൽസി	el si 
എസ്	e sə 
എസ്സ്	e ssə 
ഏ	eː 
ഏണസ്റ്റ്	eː ɳa sṯṯə 
ഏബ്രഹാം	eː bra ɦaːm 
ഏയ്ഞ്ചൽ	eː jɲt͡ʃal 
ഏലമ്മ	eː la mma 
ഏലി	eː li 
ഏലിക്കുട്ടി	eː li kku ʈʈi 
ഏലിയാമ്മ	eː li jaː mma 
ഏലിയാസ്	eː li jaː sə 
ഏല്യ	eː lja 
ഏല്യാമ്മ	eː ljaː mma 
ഏല്യാസ്	eː ljaː sə 
ഐ	ai̯ 
ഐൻസ്റ്റീൻ	ai̯n sṯṯiːn 
ഐൻസ്റ്റൈൻ	ai̯n sṯṯai̯n 
ഐപ്പ്	ai̯ ppə 
ഐശു	ai̯ ʃu 
ഐശ്വര്യ	ai̯ ʃʋa ɾja 
ഐഷ	ai̯ ʂa 
ഐഷത്ത്	ai̯ ʂa t̪t̪ə 
ഐഷാ	ai̯ ʂaː 
ഐഷാബി	ai̯ ʂaː bi 
ഐഷാബീവി	ai̯ ʂaː biː ʋi 
ഐസക്	ai̯ sa kə 
ഐസക്ക്	ai̯ sa kkə 
ഐറിൻ	ai̯ rin 
ഓ	oː 
ഓമന	oː ma na 
ഓമനഅമ്മ	oː ma na a mma 
ഓമനകുട്ടൻ	oː ma na ku ʈʈan 
ഓമനക്കുട്ടൻ	oː ma na kku ʈʈan 
ഓമനയമ്മ	oː ma na ja mma 
ഓസ്റ്റിൻ	oː sṯṯin 
ഓറിയോൺ	oː ri joːɳ 
ഓറോവൻ	oː roː ʋan 
ഔസേപ്പ്	au̯ seː ppə 
ഔസേഫ്	au̯ seː fə 
കണാരൻ	ka ɳaː ɾan 
കണ്ടൻ	ka ɳʈan 
കണ്ടമുത്തൻ	ka ɳʈa mu t̪t̪an 
കണ്ണകി	ka ɳɳa ki 
കണ്ണൻ	ka ɳɳan 
കണ്ണൻപക്കി	ka ɳɳan pa kki 
കണ്ണപ്പച്ചിത്തർ	ka ɳɳa ppa t͡ʃt͡ʃi t̪t̪ar 
കണ്ണശ്ശൻ	ka ɳɳa ʃʃan 
കണ്ണ്	ka ɳɳə 
കതിയാമു	ka t̪i jaː mu 
കതീജ	ka t̪iː ɟa 
കതീശ	ka t̪iː ʃa 
കത്രീന	ka t̪riː na 
കദിയാമു	ka d̪i jaː mu 
കദിയുമ്മ	ka d̪i ju mma 
കദീജ	ka d̪iː ɟa 
കദീജത്ത്	ka d̪iː ɟa t̪t̪ə 
കദീശ	ka d̪iː ʃa 
കനക	ka na ka 
കനകമണി	ka na ka ma ɳi 
കനകം	ka na kam 
കനകമ്മ	ka na ka mma 
കനകരാജ്	ka na ka ɾaː ɟə 
കനകലത	ka na ka la t̪a 
കനകവല്ലി	ka na ka ʋa lli 
കപിലർ	ka pi lar 
കബീർ	ka biːr 
കമല	ka ma la 
കമലം	ka ma lam 
കമലമ്മ	ka ma la mma 
കമലാക്ഷൻ	ka ma laː kʂan 
കമലാക്ഷി	ka ma laː kʂi 
കമലാക്ഷിയമ്മ	ka ma laː kʂi ja mma 
കമലാദേവി	ka ma laː d̪eː ʋi 
കമലാഭായി	ka ma laː bʱaː ji 
കമലാസനൻ	ka ma laː sa nan 
കമലു	ka ma lu 
കമൽ	ka mal 
കമറുദ്ദീൻ	ka ma ru d̪d̪iːn 
കമറുന്നിസ	ka ma ru n̪n̪i sa 
കമറുന്നീസ	ka ma ru n̪n̪iː sa 
കമാൽ	ka maːl 
കമ്മത്ത്	ka mma t̪t̪ə 
കമ്മു	ka mmu 
കരിം	ka ɾim 
കരീം	ka ɾiːm 
കരുണൻ	ka ɾu ɳan 
കരുണാകര	ka ɾu ɳaː ka ɾa 
കരുണാകരൻ	ka ɾu ɳaː ka ɾan 
കർണ്ണൻ	kar ɳɳan 
കർമ്മലി	kar mma li 
കല	ka la 
കലാദേവി	ka laː d̪eː ʋi 
കലാധരൻ	ka laː d̪ʱa ɾan 
കലാം	ka laːm 
കലാവതി	ka laː ʋa t̪i 
കലേഷ്	ka leː ʂə 
കൽക്കി	kal kki 
കല്യാണി	ka ljaː ɳi 
കല്ല്യാണി	ka lljaː ɳi 
കല്ല്യാണിക്കുട്ടി	ka lljaː ɳi kku ʈʈi 
കല്ല്യാണിയമ്മ	ka lljaː ɳi ja mma 
കവിത	ka ʋi t̪a 
കസ്തൂരി	ka st̪uː ɾi 
കസ്തൂർബാ	ka st̪uːr baː 
കറപ്പൻ	ka ra ppan 
കറുപ്പൻ	ka ru ppan 
കറുപ്പസ്വാമി	ka ru ppa sʋaː mi 
കാജാഹുസൈൻ	kaː ɟaː ɦu sai̯n 
കാഞ്ചന	kaː ɲt͡ʃa na 
കാണി	kaː ɳi 
കാതറിൻ	kaː t̪a rin 
കാദർ	kaː d̪ar 
കാന്താരി	kaː n̪t̪aː ɾi 
കാമ	kaː ma 
കാമാക്ഷി	kaː maː kʂi 
കാമു	kaː mu 
കാരിച്ചി	kaː ɾi t͡ʃt͡ʃi 
കാരെൻ	kaː ɾen 
കാർതിക്	kaːr t̪i kə 
കാർത്തി	kaːr t̪t̪i 
കാർത്തിക	kaːr t̪t̪i ka 
കാർത്തികേയൻ	kaːr t̪t̪i keː jan 
കാർത്തിക്	kaːr t̪t̪i kə 
കാർത്തു	kaːr t̪t̪u 
കാർത്ത്യായനി	kaːr t̪t̪jaː ja ni 
കാർത്ത്യായനിഅമ്മ	kaːr t̪t̪jaː ja ni a mma 
കാർത്ത്യായനിയമ്മ	kaːr t̪t̪jaː ja ni ja mma 
കാർത്ത്യായിനി	kaːr t̪t̪jaː ji ni 
കാർത്യായനി	kaːr t̪jaː ja ni 
കാൽവിൻ	kaːl ʋin 
കാവേരി	kaː ʋeː ɾi 
കാവ്യ	kaː ʋja 
കാസിം	kaː sim 
കാളി	kaː ɭi 
കാളിക്കുട്ടി	kaː ɭi kku ʈʈi 
കാളിയമ്മ	kaː ɭi ja mma 
കിപ്	ki pə 
കിം	kim 
കിരൺ	ki ɾaɳ 
കിഷോർ	ki ʂoːr 
കിഷോർകുമാർ	ki ʂoːr ku maːr 
കീർത്തന	kiːr t̪t̪a na 
കീർത്തി	kiːr t̪t̪i 
കീർത്തിക	kiːr t̪t̪i ka 
കുഞ്ച	ku ɲt͡ʃa 
കുഞ്ചൻ	ku ɲt͡ʃan 
കുഞ്ചി	ku ɲt͡ʃi 
കുഞ്ചു	ku ɲt͡ʃu 
കുഞ്ചുപിള്ള	ku ɲt͡ʃu pi ɭɭa 
കുഞ്ഞച്ചൻ	ku ɲɲa t͡ʃt͡ʃan 
കുഞ്ഞൻ	ku ɲɲan 
കുഞ്ഞപ്പൻ	ku ɲɲa ppan 
കുഞ്ഞബ്ദുള്ള	ku ɲɲa bd̪u ɭɭa 
കുഞ്ഞമ്പു	ku ɲɲa mpu 
കുഞ്ഞമ്മ	ku ɲɲa mma 
കുഞ്ഞമ്മത്	ku ɲɲa mma t̪ə 
കുഞ്ഞമ്മദ്	ku ɲɲa mma d̪ə 
കുഞ്ഞയിശ	ku ɲɲa ji ʃa 
കുഞ്ഞലവി	ku ɲɲa la ʋi 
കുഞ്ഞഹമ്മദ്	ku ɲɲa ɦa mma d̪ə 
കുഞ്ഞാത്തു	ku ɲɲaː t̪t̪u 
കുഞ്ഞാമി	ku ɲɲaː mi 
കുഞ്ഞാമിന	ku ɲɲaː mi na 
കുഞ്ഞായിശ	ku ɲɲaː ji ʃa 
കുഞ്ഞായിഷ	ku ɲɲaː ji ʂa 
കുഞ്ഞാലൻ	ku ɲɲaː lan 
കുഞ്ഞാലി	ku ɲɲaː li 
കുഞ്ഞി	ku ɲɲi 
കുഞ്ഞികണ്ണൻ	ku ɲɲi ka ɳɳan 
കുഞ്ഞികൃഷ്ണൻ	ku ɲɲi krɨ ʂɳan 
കുഞ്ഞിക്കണാരൻ	ku ɲɲi kka ɳaː ɾan 
കുഞ്ഞിക്കണ്ണൻ	ku ɲɲi kka ɳɳan 
കുഞ്ഞിക്കാദർ	ku ɲɲi kkaː d̪ar 
കുഞ്ഞിക്കുട്ടി	ku ɲɲi kku ʈʈi 
കുഞ്ഞിക്കോയ	ku ɲɲi kkoː ja 
കുഞ്ഞിപാത്തു	ku ɲɲi paː t̪t̪u 
കുഞ്ഞിപാത്തുമ്മ	ku ɲɲi paː t̪t̪u mma 
കുഞ്ഞിപ്പാത്തു	ku ɲɲi ppaː t̪t̪u 
കുഞ്ഞിപ്പാത്തുമ്മ	ku ɲɲi ppaː t̪t̪u mma 
കുഞ്ഞിപ്പെണ്ണ്	ku ɲɲi ppe ɳɳə 
കുഞ്ഞിമരക്കാർ	ku ɲɲi ma ɾa kkaːr 
കുഞ്ഞിമാളു	ku ɲɲi maː ɭu 
കുഞ്ഞിമുഹമ്മദ്	ku ɲɲi mu ɦa mma d̪ə 
കുഞ്ഞിമൊയ്തീൻ	ku ɲɲi mo jt̪iːn 
കുഞ്ഞിമൊയ്തു	ku ɲɲi mo jt̪u 
കുഞ്ഞിമോൻ	ku ɲɲi moːn 
കുഞ്ഞിമോൾ	ku ɲɲi moːɭ 
കുഞ്ഞിരാമൻ	ku ɲɲi ɾaː man 
കുഞ്ഞിലക്ഷ്മി	ku ɲɲi la kʂmi 
കുഞ്ഞീതു	ku ɲɲiː t̪u 
കുഞ്ഞീബി	ku ɲɲiː bi 
കുഞ്ഞീമ	ku ɲɲiː ma 
കുഞ്ഞീവി	ku ɲɲiː ʋi 
കുഞ്ഞു	ku ɲɲu 
കുഞ്ഞുകുഞ്ഞമ്മ	ku ɲɲu ku ɲɲa mma 
കുഞ്ഞുകുഞ്ഞ്	ku ɲɲu ku ɲɲə 
കുഞ്ഞുകുട്ടി	ku ɲɲu ku ʈʈi 
കുഞ്ഞുണ്ണി	ku ɲɲu ɳɳi 
കുഞ്ഞുപെണ്ണ്	ku ɲɲu pe ɳɳə 
കുഞ്ഞുമുഹമ്മദ്	ku ɲɲu mu ɦa mma d̪ə 
കുഞ്ഞുമോൻ	ku ɲɲu moːn 
കുഞ്ഞുമോൾ	ku ɲɲu moːɭ 
കുഞ്ഞുലക്ഷ്മി	ku ɲɲu la kʂmi 
കുഞ്ഞൂഞ്ഞമ്മ	ku ɲɲuː ɲɲa mma 
കുഞ്ഞൂഞ്ഞ്	ku ɲɲuː ɲɲə 
കുഞ്ഞ്	ku ɲɲə 
കുട്ടൻ	ku ʈʈan 
കുട്ടപ്പൻ	ku ʈʈa ppan 
കുട്ടി	ku ʈʈi 
കുട്ടികൃഷ്ണൻ	ku ʈʈi krɨ ʂɳan 
കുട്ടിമാള	ku ʈʈi maː ɭa 
കുട്ടിമാളു	ku ʈʈi maː ɭu 
കുട്ടിയമ്മ	ku ʈʈi ja mma 
കുട്ട്യാലി	ku ʈʈjaː li 
കുനിയിൽ	ku ni jil 
കുന്തി	ku n̪t̪i 
കുന്നത്ത്	ku n̪n̪a t̪t̪ə 
കുമാരൻ	ku maː ɾan 
കുമാരി	ku maː ɾi 
കുമാർ	ku maːr 
കുമ്പ	ku mpa 
കുരിക്കൾ	ku ɾi kkaɭ 
കുരിയൻ	ku ɾi jan 
കുരിയാക്കോസ്	ku ɾi jaː kkoː sə 
കുരുക്കൾ	ku ɾu kkaɭ 
കുരുവിള	ku ɾu ʋi ɭa 
കുര്യൻ	ku ɾjan 
കുര്യാക്കോസ്	ku ɾjaː kkoː sə 
കുര്യാച്ചൻ	ku ɾjaː t͡ʃt͡ʃan 
കുൽസു	kul su 
കുസുമ	ku su ma 
കുസുമം	ku su mam 
കുറിയാക്കോസ്	ku ri jaː kkoː sə 
കുറുപ്പ്	ku ru ppə 
കുറുമ്പ	ku ru mpa 
കുറൂർ	ku ruːr 
കൃപ	krɨ pa 
കൃഷ്ണ	krɨ ʂɳa 
കൃഷ്ണകുമാരി	krɨ ʂɳa ku maː ɾi 
കൃഷ്ണകുമാർ	krɨ ʂɳa ku maːr 
കൃഷ്ണജ	krɨ ʂɳa ɟa 
കൃഷ്ണദാസൻ	krɨ ʂɳa d̪aː san 
കൃഷ്ണദാസ്	krɨ ʂɳa d̪aː sə 
കൃഷ്ണനുണ്ണി	krɨ ʂɳa nu ɳɳi 
കൃഷ്ണനെഴുത്തച്ഛൻ	krɨ ʂɳa ne ɻu t̪t̪a t͡ʃt͡ʃʰan 
കൃഷ്ണൻ	krɨ ʂɳan 
കൃഷ്ണൻകുട്ടി	krɨ ʂɳan ku ʈʈi 
കൃഷ്ണൻനായർ	krɨ ʂɳan naː jar 
കൃഷ്ണപിള്ള	krɨ ʂɳa pi ɭɭa 
കൃഷ്ണപ്രഭ	krɨ ʂɳa pra bʱa 
കൃഷ്ണപ്രസാദ്	krɨ ʂɳa pra saː d̪ə 
കൃഷ്ണപ്രിയ	krɨ ʂɳa pri ja 
കൃഷ്ണമൂർത്തി	krɨ ʂɳa muːr t̪t̪i 
കൃഷ്ണമ്മ	krɨ ʂɳa mma 
കൃഷ്ണരാജ്	krɨ ʂɳa ɾaː ɟə 
കൃഷ്ണവേണി	krɨ ʂɳa ʋeː ɳi 
കൃഷ്ണേന്ദു	krɨ ʂɳeː n̪d̪u 
കെവിൻ	ke ʋin 
കേശവൻ	keː ʃa ʋan 
കേശവമേനോൻ	keː ʃa ʋa meː noːn 
കേളപ്പൻ	keː ɭa ppan 
കേളു	keː ɭu 
കൈകേയി	kai̯ keː ji 
കൈമൾ	kai̯ maɭ 
കൈരളി	kai̯ ɾa ɭi 
കൈലാസ്	kai̯ laː sə 
കൊച്ചപ്പൻ	ko t͡ʃt͡ʃa ppan 
കൊച്ചു	ko t͡ʃt͡ʃu 
കൊച്ചുകുഞ്ഞ്	ko t͡ʃt͡ʃu ku ɲɲə 
കൊച്ചുചെറുക്കൻ	ko t͡ʃt͡ʃu t͡ʃe ru kkan 
കൊച്ചുണ്ണി	ko t͡ʃt͡ʃu ɳɳi 
കൊച്ചുത്രേസ്യ	ko t͡ʃt͡ʃu t̪reː sja 
കൊച്ചുപെണ്ണ്	ko t͡ʃt͡ʃu pe ɳɳə 
കൊച്ചുപൗലൂസ്	ko t͡ʃt͡ʃu pau̯ luː sə 
കൊച്ചുമോൻ	ko t͡ʃt͡ʃu moːn 
കൊച്ചുമോൾ	ko t͡ʃt͡ʃu moːɭ 
കൊച്ചുറാണി	ko t͡ʃt͡ʃu raː ɳi 
കൊയ്‌രാള	ko j ɾaː ɭa 
കൊറയ	ko ra ja 
കോച്ചി	koː t͡ʃt͡ʃi 
കോത	koː t̪a 
കോത്താരി	koː t̪t̪aː ɾi 
കോമള	koː ma ɭa 
കോമളം	koː ma ɭam 
കോമളവല്ലി	koː ma ɭa ʋa lli 
കോയ	koː ja 
കോയക്കുട്ടി	koː ja kku ʈʈi 
കോര	koː ɾa 
കോരൻ	koː ɾan 
കോലി	koː li 
കോശി	koː ʃi 
കോഹ്ലി	koː ɦli 
കൗമുദി	kau̯ mu d̪i 
കൗലത്ത്	kau̯ la t̪t̪ə 
കൗസല്യ	kau̯ sa lja 
കൗസല്ല്യ	kau̯ sa llja 
കൗസു	kau̯ su 
ക്യഷ്ണൻ	kja ʂɳan 
ക്രാസ്ത	kraː st̪a 
ക്രിസ്തുദാസ്	kri st̪u d̪aː sə 
ക്രിസ്റ്റഫർ	kri sṯṯa far 
ക്രിസ്റ്റി	kri sṯṯi 
ക്രിസ്റ്റിൻ	kri sṯṯin 
ക്രിസ്റ്റീന	kri sṯṯiː na 
ക്രിസ്റ്റോ	kri sṯṯoː 
ക്ലമന്റ്	kla ma nṯə 
ക്ലാര	klaː ɾa 
ക്ലാരമ്മ	klaː ɾa mma 
ക്ലീറ്റസ്	kliː ṯṯa sə 
ഖദീജ	kʰa d̪iː ɟa 
ഖദീജത്ത്	kʰa d̪iː ɟa t̪t̪ə 
ഖദീജാ	kʰa d̪iː ɟaː 
ഖദീജാബീവി	kʰa d̪iː ɟaː biː ʋi 
ഖമറുന്നീസ	kʰa ma ru n̪n̪iː sa 
ഖലീൽ	kʰa liːl 
ഖാദർ	kʰaː d̪ar 
ഖാൻ	kʰaːn 
ഖാലിദ്	kʰaː li d̪ə 
ഖൈറുന്നിസ	kʰai̯ ru n̪n̪i sa 
ഖൈറുന്നീസ	kʰai̯ ru n̪n̪iː sa 
ഗഡ്കരി	ɡa ɖka ɾi 
ഗഡ്ക്കരി	ɡa ɖkka ɾi 
ഗണപതി	ɡa ɳa pa t̪i 
ഗണേശൻ	ɡa ɳeː ʃan 
ഗണേശ്	ɡa ɳeː ʃə 
ഗണേഷ്	ɡa ɳeː ʂə 
ഗഫൂർ	ɡa fuːr 
ഗബ്രിയേൽ	ɡa bri jeːl 
ഗംഗ	ɡam ɡa 
ഗംഗാദേവി	ɡam ɡaː d̪eː ʋi 
ഗംഗാധര	ɡam ɡaː d̪ʱa ɾa 
ഗംഗാധരൻ	ɡam ɡaː d̪ʱa ɾan 
ഗലീലി	ɡa liː li 
ഗലീലിയോ	ɡa liː li joː 
ഗാന്ധാരി	ɡaː n̪d̪ʱaː ɾi 
ഗാന്ധി	ɡaː n̪d̪ʱi 
ഗാന്ധിജി	ɡaː n̪d̪ʱi ɟi 
ഗാഫർ	ɡaː far 
ഗായത്രി	ɡaː ja t̪ri 
ഗാർഗി	ɡaːr ɡi 
ഗിരി	ɡi ɾi 
ഗിരിജ	ɡi ɾi ɟa 
ഗിരിജകുമാരി	ɡi ɾi ɟa ku maː ɾi 
ഗിരിജൻ	ɡi ɾi ɟan 
ഗിരിജാ	ɡi ɾi ɟaː 
ഗിരിജാകുമാരി	ɡi ɾi ɟaː ku maː ɾi 
ഗിരിജാദേവി	ɡi ɾi ɟaː d̪eː ʋi 
ഗിരീശൻ	ɡi ɾiː ʃan 
ഗിരീഷ്	ɡi ɾiː ʂə 
ഗിരീഷ്കുമാർ	ɡi ɾiː ʂku maːr 
ഗിൽബർട്ട്	ɡil bar ʈʈə 
ഗീത	ɡiː t̪a 
ഗീതകുമാരി	ɡiː t̪a ku maː ɾi 
ഗീതമ്മ	ɡiː t̪a mma 
ഗീതാ	ɡiː t̪aː 
ഗീതാകുമാരി	ɡiː t̪aː ku maː ɾi 
ഗീതാഞ്ജലി	ɡiː t̪aː ɲɟa li 
ഗീതാദേവി	ɡiː t̪aː d̪eː ʋi 
ഗീതാമണി	ɡiː t̪aː ma ɳi 
ഗീതിക	ɡiː t̪i ka 
ഗീതു	ɡiː t̪u 
ഗീവർഗീസ്	ɡiː ʋar ɡiː sə 
ഗീവർഗ്ഗീസ്	ɡiː ʋar ɡɡiː sə 
ഗുപ്തൻ	ɡu pt̪an 
ഗുരുവായൂരപ്പൻ	ɡu ɾu ʋaː juː ɾa ppan 
ഗെയിൽ	ɡe jil 
ഗോകുൽ	ɡoː kul 
ഗോകുൽദാസ്	ɡoː kul d̪aː sə 
ഗോഖലെ	ɡoː kʰa le 
ഗോഡ്ബൊലെ	ɡoː ɖbo le 
ഗോപകുമാർ	ɡoː pa ku maːr 
ഗോപൻ	ɡoː pan 
ഗോപാല	ɡoː paː la 
ഗോപാലകൃഷ്ണ	ɡoː paː la krɨ ʂɳa 
ഗോപാലകൃഷ്ണൻ	ɡoː paː la krɨ ʂɳan 
ഗോപാലകൃഷ്ണൻനായർ	ɡoː paː la krɨ ʂɳan naː jar 
ഗോപാലകൃഷ്ണപിള്ള	ɡoː paː la krɨ ʂɳa pi ɭɭa 
ഗോപാലൻ	ɡoː paː lan 
ഗോപാലപിള്ള	ɡoː paː la pi ɭɭa 
ഗോപാൽ	ɡoː paːl 
ഗോപി	ɡoː pi 
ഗോപിക	ɡoː pi ka 
ഗോപിദാസ്	ɡoː pi d̪aː sə 
ഗോപിനാഥൻ	ɡoː pi naː t̪ʰan 
ഗോപിനാഥൻനായർ	ɡoː pi naː t̪ʰan naː jar 
ഗോപിനാഥപിള്ള	ɡoː pi naː t̪ʰa pi ɭɭa 
ഗോപിനാഥ്	ɡoː pi naː t̪ʰə 
ഗോപു	ɡoː pu 
ഗോമതി	ɡoː ma t̪i 
ഗോമതിയമ്മ	ɡoː ma t̪i ja mma 
ഗോമസ്	ɡoː ma sə 
ഗോവിന്ദൻ	ɡoː ʋi n̪d̪an 
ഗോവിന്ദൻകുട്ടി	ɡoː ʋi n̪d̪an ku ʈʈi 
ഗോവിന്ദമേനോൻ	ɡoː ʋi n̪d̪a meː noːn 
ഗോവിന്ദരാജൻ	ɡoː ʋi n̪d̪a ɾaː ɟan 
ഗോവിന്ദശ്ശാർ	ɡoː ʋi n̪d̪a ʃʃaːr 
ഗോവിന്ദ്	ɡoː ʋi n̪d̪ə 
ഗൗതം	ɡau̯ t̪am 
ഗൗരി	ɡau̯ ɾi 
ഗൗരിക്കുട്ടി	ɡau̯ ɾi kku ʈʈi 
ഗൗരിക്കുട്ടിയമ്മ	ɡau̯ ɾi kku ʈʈi ja mma 
ഗൗരിയമ്മ	ɡau̯ ɾi ja mma 
ഗ്രീഷ്മ	ɡɾiː ʂma 
ഗ്രെയ്സി	ɡɾe jsi 
ഗ്രേയ്സി	ɡɾeː jsi 
ഗ്രേസി	ɡɾeː si 
ഗ്രേസിക്കുട്ടി	ɡɾeː si kku ʈʈi 
ഗ്രേസ്	ɡɾeː sə 
ഗ്ലാഡിസ്	ɡlaː ɖi sə 
ഗ്ലോറി	ɡloː ri 
ഘോഷ്	ɡʱoː ʂə 
ചക്കി	t͡ʃa kki 
ചക്കിക്കുട്ടി	t͡ʃa kki kku ʈʈi 
ചക്രപാണി	t͡ʃa kra paː ɳi 
ചന്തു	t͡ʃa n̪t̪u 
ചന്തുക്കുട്ടി	t͡ʃa n̪t̪u kku ʈʈi 
ചന്ദ്	t͡ʃa n̪d̪ə 
ചന്ദ്ര	t͡ʃa n̪d̪ɾa 
ചന്ദ്രകുമാർ	t͡ʃa n̪d̪ɾa ku maːr 
ചന്ദ്രദാസ്	t͡ʃa n̪d̪ɾa d̪aː sə 
ചന്ദ്രൻ	t͡ʃa n̪d̪ɾan 
ചന്ദ്രപാൽ	t͡ʃa n̪d̪ɾa paːl 
ചന്ദ്രബാബു	t͡ʃa n̪d̪ɾa baː bu 
ചന്ദ്രബോസ്	t͡ʃa n̪d̪ɾa boː sə 
ചന്ദ്രമതി	t͡ʃa n̪d̪ɾa ma t̪i 
ചന്ദ്രമതിയമ്മ	t͡ʃa n̪d̪ɾa ma t̪i ja mma 
ചന്ദ്രമോഹനൻ	t͡ʃa n̪d̪ɾa moː ɦa nan 
ചന്ദ്രമോഹൻ	t͡ʃa n̪d̪ɾa moː ɦan 
ചന്ദ്രലേഖ	t͡ʃa n̪d̪ɾa leː kʰa 
ചന്ദ്രവതി	t͡ʃa n̪d̪ɾa ʋa t̪i 
ചന്ദ്രവല്ലി	t͡ʃa n̪d̪ɾa ʋa lli 
ചന്ദ്രശേഖര	t͡ʃa n̪d̪ɾa ʃeː kʰa ɾa 
ചന്ദ്രശേഖരൻ	t͡ʃa n̪d̪ɾa ʃeː kʰa ɾan 
ചന്ദ്രശേഖർ	t͡ʃa n̪d̪ɾa ʃeː kʰar 
ചന്ദ്രാവതി	t͡ʃa n̪d̪ɾaː ʋa t̪i 
ചന്ദ്രി	t͡ʃa n̪d̪ɾi 
ചന്ദ്രിക	t͡ʃa n̪d̪ɾi ka 
ചാക്കോ	t͡ʃaː kkoː 
ചാക്കോച്ചൻ	t͡ʃaː kkoː t͡ʃt͡ʃan 
ചാണ്ടി	t͡ʃaː ɳʈi 
ചാത്തൻ	t͡ʃaː t̪t̪an 
ചാത്തു	t͡ʃaː t̪t̪u 
ചാത്തുക്കുട്ടി	t͡ʃaː t̪t̪u kku ʈʈi 
ചാന്ദിനി	t͡ʃaː n̪d̪i ni 
ചാപ്ലിൻ	t͡ʃaː plin 
ചാമി	t͡ʃaː mi 
ചാർളി	t͡ʃaːr ɭi 
ചാലിൽ	t͡ʃaː lil 
ചാൾസ്	t͡ʃaːɭ sə 
ചിഞ്ചു	t͡ʃi ɲt͡ʃu 
ചിത്തിര	t͡ʃi t̪t̪i ɾa 
ചിത്ര	t͡ʃi t̪ra 
ചിത്രലേഖ	t͡ʃi t̪ra leː kʰa 
ചിദംബരൻ	t͡ʃi d̪am ba ɾan 
ചിന്താമണി	t͡ʃi n̪t̪aː ma ɳi 
ചിന്ന	t͡ʃi n̪n̪a 
ചിന്നൻ	t͡ʃi n̪n̪an 
ചിന്നപ്പൻ	t͡ʃi n̪n̪a ppan 
ചിന്നമ്മ	t͡ʃi n̪n̪a mma 
ചിന്നമ്മു	t͡ʃi n̪n̪a mmu 
ചിന്നു	t͡ʃi n̪n̪u 
ചിപ്പി	t͡ʃi ppi 
ചിരുത	t͡ʃi ɾu t̪a 
ചിരുതക്കുട്ടി	t͡ʃi ɾu t̪a kku ʈʈi 
ചിലങ്ക	t͡ʃi la ŋka 
ചീരു	t͡ʃiː ɾu 
ചെട്ടിയാർ	t͡ʃe ʈʈi jaːr 
ചെന്താമര	t͡ʃe n̪t̪aː ma ɾa 
ചെന്താമരാക്ഷൻ	t͡ʃe n̪t̪aː ma ɾaː kʂan 
ചെമ്പകരാമൻ	t͡ʃe mpa ka ɾaː man 
ചെല്ല	t͡ʃe lla 
ചെല്ലൻ	t͡ʃe llan 
ചെല്ലപ്പൻ	t͡ʃe lla ppan 
ചെല്ലമ്മ	t͡ʃe lla mma 
ചെല്ലമ്മാൾ	t͡ʃe lla mmaːɭ 
ചെറിയ	t͡ʃe ri ja 
ചെറിയാൻ	t͡ʃe ri jaːn 
ചേരൻ	t͡ʃeː ɾan 
ചൈതന്യ	t͡ʃai̯ t̪a nja 
ചോയി	t͡ʃoː ji 
ചോയിച്ചി	t͡ʃoː ji t͡ʃt͡ʃi 
ജഗദമ്മ	ɟa ɡa d̪a mma 
ജഗദീശൻ	ɟa ɡa d̪iː ʃan 
ജഗദീഷ്	ɟa ɡa d̪iː ʂə 
ജഡേജ	ɟa ɖeː ɟa 
ജനറ്റ്	ɟa na ṯṯə 
ജനാർദനൻ	ɟa naːr d̪a nan 
ജനാർദ്ദനൻ	ɟa naːr d̪d̪a nan 
ജനീഷ്	ɟa niː ʂə 
ജബ്ബാർ	ɟa bbaːr 
ജമാലുദീൻ	ɟa maː lu d̪iːn 
ജമാലുദ്ദീൻ	ɟa maː lu d̪d̪iːn 
ജമാൽ	ɟa maːl 
ജമീല	ɟa miː la 
ജമീലാ	ɟa miː laː 
ജമീലാബീവി	ɟa miː laː biː ʋi 
ജംഷാദ്	ɟam ʂaː d̪ə 
ജംഷിദ്	ɟam ʂi d̪ə 
ജംഷിയ	ɟam ʂi ja 
ജംഷീദ്	ɟam ʂiː d̪ə 
ജംഷീന	ɟam ʂiː na 
ജംഷീർ	ɟam ʂiːr 
ജംഷീല	ɟam ʂiː la 
ജംഷീറ	ɟam ʂiː ra 
ജംസീന	ɟam siː na 
ജയ	ɟa ja 
ജയകുമാരി	ɟa ja ku maː ɾi 
ജയകുമാർ	ɟa ja ku maːr 
ജയകൃഷ്ണൻ	ɟa ja krɨ ʂɳan 
ജയചന്ദ്രൻ	ɟa ja t͡ʃa n̪d̪ɾan 
ജയദേവൻ	ɟa ja d̪eː ʋan 
ജയൻ	ɟa jan 
ജയന്തി	ɟa ja n̪t̪i 
ജയപാലൻ	ɟa ja paː lan 
ജയപ്രകാശൻ	ɟa ja pra kaː ʃan 
ജയപ്രകാശ്	ɟa ja pra kaː ʃə 
ജയപ്രഭ	ɟa ja pra bʱa 
ജയപ്രസാദ്	ɟa ja pra saː d̪ə 
ജയമണി	ɟa ja ma ɳi 
ജയമോൾ	ɟa ja moːɭ 
ജയമ്മ	ɟa ja mma 
ജയരാജൻ	ɟa ja ɾaː ɟan 
ജയരാജ്	ɟa ja ɾaː ɟə 
ജയരാമൻ	ɟa ja ɾaː man 
ജയലക്ഷമി	ɟa ja la kʂa mi 
ജയലക്ഷ്മി	ɟa ja la kʂmi 
ജയലാൽ	ɟa ja laːl 
ജയശങ്കർ	ɟa ja ʃa ŋkar 
ജയശ്രി	ɟa ja ʃri 
ജയശ്രീ	ɟa ja ʃriː 
ജയറാണി	ɟa ja raː ɳi 
ജയറാം	ɟa ja raːm 
ജയാനന്ദൻ	ɟa jaː na n̪d̪an 
ജയിനമ്മ	ɟa ji na mma 
ജയിൻ	ɟa jin 
ജയിംസ്	ɟa jim sə 
ജയേഷ്	ɟa jeː ʂə 
ജയ്	ɟa jə 
ജയ്മോൻ	ɟa jmoːn 
ജയ്സൺ	ɟa jsaɳ 
ജയ്റ്റ്‌ലി	ɟa jṯṯ li 
ജലജ	ɟa la ɟa 
ജലജകുമാരി	ɟa la ɟa ku maː ɾi 
ജലാലുദീൻ	ɟa laː lu d̪iːn 
ജലാലുദ്ദീൻ	ɟa laː lu d̪d̪iːn 
ജലാൽ	ɟa laːl 
ജലീല	ɟa liː la 
ജലീൽ	ɟa liːl 
ജവഹർ	ɟa ʋa ɦar 
ജവാദ്	ɟa ʋaː d̪ə 
ജസി	ɟa si 
ജസീന	ɟa siː na 
ജസീന്ത	ɟa siː n̪t̪a 
ജസീം	ɟa siːm 
ജസീർ	ɟa siːr 
ജസീല	ɟa siː la 
ജസീൽ	ɟa siːl 
ജസീറ	ɟa siː ra 
ജസ്	ɟa sə 
ജസ്‌ന	ɟa s na 
ജസ്ന	ɟa sna 
ജസ്സി	ɟa ssi 
ജസ്റ്റിൻ	ɟa sṯṯin 
ജഹ്ഫർ	ɟa ɦfar 
ജാക്സൺ	ɟaː ksaɳ 
ജാനകി	ɟaː na ki 
ജാനകിഅമ്മ	ɟaː na ki a mma 
ജാനകിയമ്മ	ɟaː na ki ja mma 
ജാനമ്മ	ɟaː na mma 
ജാനറ്റ്	ɟaː na ṯṯə 
ജാനു	ɟaː nu 
ജാൻസി	ɟaːn si 
ജാഫർ	ɟaː far 
ജാബിർ	ɟaː bir 
ജാസിം	ɟaː sim 
ജാസിർ	ɟaː sir 
ജാസിറ	ɟaː si ra 
ജാസ്മി	ɟaː smi 
ജാസ്മിൻ	ɟaː smin 
ജിക്കു	ɟi kku 
ജിജി	ɟi ɟi 
ജിജിത്ത്	ɟi ɟi t̪t̪ə 
ജിജിന	ɟi ɟi na 
ജിജിൻ	ɟi ɟin 
ജിജിമോൻ	ɟi ɟi moːn 
ജിജിമോൾ	ɟi ɟi moːɭ 
ജിജീഷ്	ɟi ɟiː ʂə 
ജിജു	ɟi ɟu 
ജിജേഷ്	ɟi ɟeː ʂə 
ജിജൊ	ɟi ɟo 
ജിജോ	ɟi ɟoː 
ജിത	ɟi t̪a 
ജിതിൻ	ɟi t̪in 
ജിതീഷ്	ɟi t̪iː ʂə 
ജിതേഷ്	ɟi t̪eː ʂə 
ജിത്തു	ɟi t̪t̪u 
ജിത്ത്	ɟi t̪t̪ə 
ജിനി	ɟi ni 
ജിനിമോൾ	ɟi ni moːɭ 
ജിനിഷ	ɟi ni ʂa 
ജിനീഷ്	ɟi niː ʂə 
ജിനു	ɟi nu 
ജിനേഷ്	ɟi neː ʂə 
ജിനോ	ɟi noː 
ജിനോയ്	ɟi noː jə 
ജിന്ന	ɟi n̪n̪a 
ജിൻഷ	ɟin ʂa 
ജിൻസൺ	ɟin saɳ 
ജിൻസി	ɟin si 
ജിൻസ്	ɟin sə 
ജിന്റോ	ɟi nṯoː 
ജിബി	ɟi bi 
ജിബിൻ	ɟi bin 
ജിബു	ɟi bu 
ജിമ്മി	ɟi mmi 
ജിയോ	ɟi joː 
ജിലു	ɟi lu 
ജിവിൻ	ɟi ʋin 
ജിഷ	ɟi ʂa 
ജിഷാ	ɟi ʂaː 
ജിഷാദ്	ɟi ʂaː d̪ə 
ജിഷാന	ɟi ʂaː na 
ജിഷി	ɟi ʂi 
ജിഷ്ണു	ɟi ʂɳu 
ജിസ	ɟi sa 
ജിസ്	ɟi sə 
ജിസ്ന	ɟi sna 
ജിസ്മി	ɟi smi 
ജീജ	ɟiː ɟa 
ജീതു	ɟiː t̪u 
ജീന	ɟiː na 
ജീനാ	ɟiː naː 
ജീമോൻ	ɟiː moːn 
ജീവ	ɟiː ʋa 
ജീവൻ	ɟiː ʋan 
ജീഷ്മ	ɟiː ʂma 
ജുനൈദ	ɟu nai̯ d̪a 
ജുനൈദ്	ɟu nai̯ d̪ə 
ജുനൈസ്	ɟu nai̯ sə 
ജുബിൻ	ɟu bin 
ജുബൈരിയ	ɟu bai̯ ɾi ja 
ജുമാന	ɟu maː na 
ജുമൈല	ɟu mai̯ la 
ജുമൈലത്ത്	ɟu mai̯ la t̪t̪ə 
ജുവൈരിയ	ɟu ʋai̯ ɾi ja 
ജൂഡി	ɟuː ɖi 
ജൂഡ്	ɟuː ɖə 
ജൂബി	ɟuː bi 
ജൂലി	ɟuː li 
ജൂലിയ	ɟuː li ja 
ജൂലിയറ്റ്	ɟuː li ja ṯṯə 
ജെനി	ɟe ni 
ജെന്നി	ɟe n̪n̪i 
ജെൻസൺ	ɟen saɳ 
ജെൻസി	ɟen si 
ജെഫിൻ	ɟe fin 
ജെഫ്രി	ɟe fri 
ജെബിൻ	ɟe bin 
ജെയിൻ	ɟe jin 
ജെയിംസ്	ɟe jim sə 
ജെയ്ക്കബ്	ɟe jkka bə 
ജെയ്നി	ɟe jn̪i 
ജെയ്മോൻ	ɟe jmoːn 
ജെയ്സൺ	ɟe jsaɳ 
ജെയ്സൻ	ɟe jsan 
ജെയ്സി	ɟe jsi 
ജെസി	ɟe si 
ജെസീന	ɟe siː na 
ജെസ്	ɟe sə 
ജെസ്ന	ɟe sna 
ജെസ്സി	ɟe ssi 
ജെസ്റ്റിൻ	ɟe sṯṯin 
ജെറി	ɟe ri 
ജെറിൻ	ɟe rin 
ജെറോൺ	ɟe roːɳ 
ജെറോം	ɟe roːm 
ജേക്കബ്	ɟeː kka bə 
ജേക്കബ്ബ്	ɟeː kka bbə 
ജൈനമ്മ	ɟai̯ na mma 
ജൈസൽ	ɟai̯ sal 
ജോ	ɟoː 
ജോജി	ɟoː ɟi 
ജോജു	ɟoː ɟu 
ജോജോ	ɟoː ɟoː 
ജോണി	ɟoː ɳi 
ജോൺ	ɟoːɳ 
ജോൺകുട്ടി	ɟoːɳ ku ʈʈi 
ജോൺസൺ	ɟoːɳ saɳ 
ജോൺസൻ	ɟoːɳ san 
ജോൺസി	ɟoːɳ si 
ജോൺസ്	ɟoːɳ sə 
ജോതി	ɟoː t̪i 
ജോതിഷ്	ɟoː t̪i ʂə 
ജോഫി	ɟoː fi 
ജോബി	ɟoː bi 
ജോബിൻ	ɟoː bin 
ജോബിഷ്	ɟoː bi ʂə 
ജോബ്	ɟoː bə 
ജോമി	ɟoː mi 
ജോമിൻ	ɟoː min 
ജോമോൻ	ɟoː moːn 
ജോമോൾ	ɟoː moːɭ 
ജോയൽ	ɟoː jal 
ജോയി	ɟoː ji 
ജോയിക്കുട്ടി	ɟoː ji kku ʈʈi 
ജോയിസ്	ɟoː ji sə 
ജോയ്	ɟoː jə 
ജോയ്സി	ɟoː jsi 
ജോയ്സ്	ɟoː jsə 
ജോർജജ്	ɟoːr ɟa ɟə 
ജോർജിൻ	ɟoːr ɟin 
ജോർജുകുട്ടി	ɟoːr ɟu ku ʈʈi 
ജോർജ്	ɟoːr ɟə 
ജോർജ്കുട്ടി	ɟoːr ɟku ʈʈi 
ജോർജ്ജ്	ɟoːr ɟɟə 
ജോർജ്ജ്കുട്ടി	ɟoːr ɟɟku ʈʈi 
ജോഷി	ɟoː ʂi 
ജോഷിന	ɟoː ʂi na 
ജോഷ്വാ	ɟoː ʂʋaː 
ജോസഫ്	ɟoː sa fə 
ജോസി	ɟoː si 
ജോസുകുട്ടി	ɟoː su ku ʈʈi 
ജോസ്	ɟoː sə 
ജോസ്ന	ɟoː sna 
ജോസ്മി	ɟoː smi 
ജോസ്മോൻ	ɟoː smoːn 
ജോളി	ɟoː ɭi 
ജൗഹർ	ɟau̯ ɦar 
ജ്യോതി	ɟjoː t̪i 
ജ്യോതിലക്ഷ്മി	ɟjoː t̪i la kʂmi 
ജ്യോതിഷ്	ɟjoː t̪i ʂə 
ജ്യോതിസ്	ɟjoː t̪i sə 
ഝാൻസി	ɟʱaːn si 
ടാഗോർ	ʈaː ɡoːr 
ടാണ്ടൻ	ʈaː ɳʈan 
ടിങ്ക്ഹാം	ʈi ŋkɦaːm 
ടിനു	ʈi nu 
ടിന്റു	ʈi nṯu 
ടിപ്പു	ʈi ppu 
ടീന	ʈiː na 
ടെല്ലർ	ʈe llar 
ടെസി	ʈe si 
ടെസ്‌ല	ʈe s la 
ടെസ്സ	ʈe ssa 
ടെസ്സി	ʈe ssi 
ടൈറ്റസ്	ʈai̯ ṯṯa sə 
ടൊവിനോ	ʈo ʋi noː 
ടോണി	ʈoː ɳi 
ടോമി	ʈoː mi 
ടോം	ʈoːm 
ടോർവാൾഡ്സ്	ʈoːr ʋaːɭ ɖsə 
ട്ടി	ʈʈi 
ട്രംപ്	ʈram pə 
ട്രംമ്പ്	ʈram mpə 
ട്രീസ	ʈriː sa 
ട്രീസാ	ʈriː saː 
ഡയാന	ɖa jaː na 
ഡാനി	ɖaː ni 
ഡാനിയൽ	ɖaː ni jal 
ഡാനിയേൽ	ɖaː ni jeːl 
ഡാർവിൻ	ɖaːr ʋin 
ഡാലി	ɖaː li 
ഡാലിയ	ɖaː li ja 
ഡിക്രൂസ്	ɖi kruː sə 
ഡിക്സൺ	ɖi ksaɳ 
ഡിസിൽവ	ɖi sil ʋa 
ഡിസൂസ	ɖi suː sa 
ഡീന	ɖiː na 
ഡെന്നി	ɖe n̪n̪i 
ഡെന്നീസ്	ɖe n̪n̪iː sə 
ഡെൻസി	ɖen si 
ഡെയിസി	ɖe ji si 
ഡെയ്സി	ɖe jsi 
ഡേവിഡ്	ɖeː ʋi ɖə 
ഡേവിസ്	ɖeː ʋi sə 
ഡേവീസ്	ɖeː ʋiː sə 
ഡൊണാൾഡ്	ɖo ɳaːɭ ɖə 
ഡൊമിനിക്	ɖo mi ni kə 
ഡൊമിനിക്ക്	ɖo mi ni kkə 
ഡൊറോത്തി	ɖo roː t̪t̪i 
ഡോ	ɖoː 
ഡോണ	ɖoː ɳa 
ഡോണി	ɖoː ɳi 
ഡോൺ	ɖoːɳ 
ഡോമിനിക്	ɖoː mi ni kə 
ഡോളി	ɖoː ɭi 
തകഴി	t̪a ka ɻi 
തങ്ക	t̪a ŋka 
തങ്കച്ചൻ	t̪a ŋka t͡ʃt͡ʃan 
തങ്കച്ചി	t̪a ŋka t͡ʃt͡ʃi 
തങ്കൻ	t̪a ŋkan 
തങ്കപ്പൻ	t̪a ŋka ppan 
തങ്കമണി	t̪a ŋka ma ɳi 
തങ്കമണിയമ്മ	t̪a ŋka ma ɳi ja mma 
തങ്കം	t̪a ŋkam 
തങ്കമ്മ	t̪a ŋka mma 
തങ്കമ്മാൾ	t̪a ŋka mmaːɭ 
തങ്കമ്മു	t̪a ŋka mmu 
തങ്കയ്യൻ	t̪a ŋka jjan 
തങ്കരാജൻ	t̪a ŋka ɾaː ɟan 
തങ്കരാജ്	t̪a ŋka ɾaː ɟə 
തങ്കവേലു	t̪a ŋka ʋeː lu 
തങ്ങൾ	t̪a ŋŋaɭ 
തത്ത	t̪a t̪t̪a 
തനൂജ	t̪a nuː ɟa 
തൻവീർ	t̪an ʋiːr 
തൻസീർ	t̪an siːr 
തപ്സി	t̪a psi 
തമ്പാൻ	t̪a mpaːn 
തമ്പായി	t̪a mpaː ji 
തമ്പി	t̪a mpi 
തയ്യിൽ	t̪a jjil 
തരകൻ	t̪a ɾa kan 
തസ്	t̪a sə 
തസ്‌നി	t̪a s ni 
തസ്നി	t̪a sni 
തസ്നിം	t̪a snim 
തസ്നീം	t̪a sniːm 
തസ്ലീന	t̪a sliː na 
തസ്ലീമ	t̪a sliː ma 
താക്കറെ	t̪aː kka re 
താജുദീൻ	t̪aː ɟu d̪iːn 
താജുദ്ദീൻ	t̪aː ɟu d̪d̪iːn 
താജുന്നീസ	t̪aː ɟu n̪n̪iː sa 
താണുപിള്ള	t̪aː ɳu pi ɭɭa 
താന്തിയാ	t̪aː n̪t̪i jaː 
താമരാക്ഷി	t̪aː ma ɾaː kʂi 
താമി	t̪aː mi 
തായു	t̪aː ju 
താര	t̪aː ɾa 
താഹ	t̪aː ɦa 
താഹിർ	t̪aː ɦir 
താഹിറ	t̪aː ɦi ra 
തിത്തിക്കുട്ടി	t̪i t̪t̪i kku ʈʈi 
തിലകൻ	t̪i la kan 
തിലോത്തമ	t̪i loː t̪t̪a ma 
തിലോത്തമൻ	t̪i loː t̪t̪a man 
തീർത്ഥ	t̪iːr t̪t̪ʰa 
തുഷാര	t̪u ʂaː ɾa 
തുളസി	t̪u ɭa si 
തുളസീധരൻ	t̪u ɭa siː d̪ʱa ɾan 
തുളസീഭായി	t̪u ɭa siː bʱaː ji 
തെയ്യാമ്മ	t̪e jjaː mma 
തെരേസ	t̪e ɾeː sa 
തെരേസ്	t̪e ɾeː sə 
തെസ്നി	t̪e sni 
തേജസ്	t̪eː ɟa sə 
തേവൻ	t̪eː ʋan 
തൊമ്മിച്ചൻ	t̪o mmi t͡ʃt͡ʃan 
തോൺ	t̪oːɳ 
തോപ്പി	t̪oː ppi 
തോമസുകുട്ടി	t̪oː ma su ku ʈʈi 
തോമസ്	t̪oː ma sə 
തോമസ്കുട്ടി	t̪oː ma sku ʈʈi 
തോമസ്സ്	t̪oː ma ssə 
തോമാസ്	t̪oː maː sə 
തോമിറിസ്	t̪oː mi ri sə 
തോംസൺ	t̪oːm saɳ 
തൗഫീക്ക്	t̪au̯ fiː kkə 
തൗഫീഖ്	t̪au̯ fiː kʰə 
ത്യാഗരാജൻ	t̪jaː ɡa ɾaː ɟan 
ത്രേസ്യ	t̪reː sja 
ത്രേസ്യാ	t̪reː sjaː 
ത്രേസ്യാക്കുട്ടി	t̪reː sjaː kku ʈʈi 
ത്രേസ്യാമ്മ	t̪reː sjaː mma 
ദമയന്തി	d̪a ma ja n̪t̪i 
ദയാനന്ദൻ	d̪a jaː na n̪d̪an 
ദയാനന്ദ്	d̪a jaː na n̪d̪ə 
ദർശന	d̪ar ʃa na 
ദാക്ഷായണി	d̪aː kʂaː ja ɳi 
ദാദാഭായ്	d̪aː d̪aː bʱaː jə 
ദാനിയേൽ	d̪aː ni jeːl 
ദാമു	d̪aː mu 
ദാമോദരൻ	d̪aː moː d̪a ɾan 
ദാമോദരമേനോൻ	d̪aː moː d̪a ɾa meː noːn 
ദാമോധരൻ	d̪aː moː d̪ʱa ɾan 
ദാവൂദ്	d̪aː ʋuː d̪ə 
ദാസൻ	d̪aː san 
ദാസപ്പൻ	d̪aː sa ppan 
ദാസ്	d̪aː sə 
ദിജു	d̪i ɟu 
ദിനിൽ	d̪i nil 
ദിനീഷ്	d̪i niː ʂə 
ദിനു	d̪i nu 
ദിനേശൻ	d̪i neː ʃan 
ദിനേശ്	d̪i neː ʃə 
ദിനേഷ്	d̪i neː ʂə 
ദിനേഷ്കുമാർ	d̪i neː ʂku maːr 
ദിപിൻ	d̪i pin 
ദിപു	d̪i pu 
ദിയ	d̪i ja 
ദിലീപ്	d̪i liː pə 
ദിലീപ്കുമാർ	d̪i liː pku maːr 
ദിലീഷ്	d̪i liː ʂə 
ദിൽജിത്ത്	d̪il ɟi t̪t̪ə 
ദിൽന	d̪il na 
ദിൽഷ	d̪il ʂa 
ദിൽഷാദ്	d̪il ʂaː d̪ə 
ദിവാകരൻ	d̪i ʋaː ka ɾan 
ദിവാൻജി	d̪i ʋaːn ɟi 
ദിവ്യ	d̪i ʋja 
ദിവ്യമോൾ	d̪i ʋja moːɭ 
ദിവ്യാ	d̪i ʋjaː 
ദിവ്യാമോൾ	d̪i ʋjaː moːɭ 
ദീനാമ്മ	d̪iː naː mma 
ദീപ	d̪iː pa 
ദീപക്	d̪iː pa kə 
ദീപാ	d̪iː paː 
ദീപാമോൾ	d̪iː paː moːɭ 
ദീപിക	d̪iː pi ka 
ദീപു	d̪iː pu 
ദീപേഷ്	d̪iː peː ʂə 
ദീപ്തി	d̪iː pt̪i 
ദുൽഖർ	d̪ul kʰar 
ദുൽഹർ	d̪ul ɦar 
ദൃശ്യ	d̪rɨ ʃja 
ദേവകി	d̪eː ʋa ki 
ദേവകിഅമ്മ	d̪eː ʋa ki a mma 
ദേവകിയമ്മ	d̪eː ʋa ki ja mma 
ദേവദാസൻ	d̪eː ʋa d̪aː san 
ദേവദാസ്	d̪eː ʋa d̪aː sə 
ദേവൻ	d̪eː ʋan 
ദേവയാനി	d̪eː ʋa jaː ni 
ദേവരാജൻ	d̪eː ʋa ɾaː ɟan 
ദേവരാജ്	d̪eː ʋa ɾaː ɟə 
ദേവസി	d̪eː ʋa si 
ദേവസിക്കുട്ടി	d̪eː ʋa si kku ʈʈi 
ദേവസ്യ	d̪eː ʋa sja 
ദേവസ്യാ	d̪eː ʋa sjaː 
ദേവസ്സി	d̪eː ʋa ssi 
ദേവസ്സിക്കുട്ടി	d̪eː ʋa ssi kku ʈʈi 
ദേവി	d̪eː ʋi 
ദേവിക	d̪eː ʋi ka 
ദേവു	d̪eː ʋu 
ദേവ്	d̪eː ʋə 
ദേശായ്	d̪eː ʃaː jə 
ദൈനബി	d̪ai̯ na bi 
ദൈവാന	d̪ai̯ ʋaː na 
ദൈവാനി	d̪ai̯ ʋaː ni 
ദ്യുതി	d̪ju t̪i 
ദ്രാവിഡ്	d̪ɾaː ʋi ɖə 
ദ്രൗപതി	d̪ɾau̯ pa t̪i 
ധനലക്ഷ്മി	d̪ʱa na la kʂmi 
ധനീഷ്	d̪ʱa niː ʂə 
ധനേഷ്	d̪ʱa neː ʂə 
ധന്യ	d̪ʱa nja 
ധന്യാ	d̪ʱa njaː 
ധർമേന്ദ്ര	d̪ʱar meː n̪d̪ɾa 
ധർമ്മൻ	d̪ʱar mman 
ധർമ്മരാജൻ	d̪ʱar mma ɾaː ɟan 
ധർമ്മരാജ്	d̪ʱar mma ɾaː ɟə 
ധവാൻ	d̪ʱa ʋaːn 
ധീരജ്	d̪ʱiː ɾa ɟə 
ധോണി	d̪ʱoː ɳi 
ധ്യാൻചന്ദ്	d̪ʱjaːn t͡ʃa n̪d̪ə 
ന	n̪a 
നകാമുറ	n̪a kaː mu ra 
നകുലൻ	n̪a ku lan 
നജീബ	n̪a ɟiː ba 
നജീബ്	n̪a ɟiː bə 
നജീമ	n̪a ɟiː ma 
നജീം	n̪a ɟiːm 
നജുമ	n̪a ɟu ma 
നജ്മ	n̪a ɟma 
നജ്മത്ത്	n̪a ɟma t̪t̪ə 
നജ്മുദ്ദീൻ	n̪a ɟmu d̪d̪iːn 
നജ്മുന്നിസ	n̪a ɟmu n̪n̪i sa 
നജ്മുന്നീസ	n̪a ɟmu n̪n̪iː sa 
നജ്ല	n̪a ɟla 
നടരാജൻ	n̪a ʈa ɾaː ɟan 
നടേശൻ	n̪a ʈeː ʃan 
നദീർ	n̪a d̪iːr 
നദീറ	n̪a d̪iː ra 
നന്ദകുമാർ	n̪a n̪d̪a ku maːr 
നന്ദജ	n̪a n̪d̪a ɟa 
നന്ദജൻ	n̪a n̪d̪a ɟan 
നന്ദന	n̪a n̪d̪a na 
നന്ദനൻ	n̪a n̪d̪a nan 
നന്ദൻ	n̪a n̪d̪an 
നന്ദിനി	n̪a n̪d̪i ni 
നന്ദു	n̪a n̪d̪u 
നഫീസ	n̪a fiː sa 
നഫീസത്തുൽ	n̪a fiː sa t̪t̪ul 
നഫീസത്ത്	n̪a fiː sa t̪t̪ə 
നഫീസു	n̪a fiː su 
നഫീസ്സ	n̪a fiː ssa 
നബീല	n̪a biː la 
നബീൽ	n̪a biːl 
നബീസ	n̪a biː sa 
നബീസത്ത്	n̪a biː sa t̪t̪ə 
നബീസാ	n̪a biː saː 
നബീസാബീവി	n̪a biː saː biː ʋi 
നബീസു	n̪a biː su 
നബീസ്സ	n̪a biː ssa 
നമിത	n̪a mi t̪a 
നമ്പീശൻ	n̪a mpiː ʃan 
നമ്പൂതിരി	n̪a mpuː t̪i ɾi 
നമ്പൂതിരിപ്പാട്	n̪a mpuː t̪i ɾi ppaː ʈə 
നമ്പ്യാർ	n̪a mpjaːr 
നയന	n̪a ja na 
നരേന്ദ്ര	n̪a ɾeː n̪d̪ɾa 
നരേന്ദ്രൻ	n̪a ɾeː n̪d̪ɾan 
നരേന്ദ്രമോഡി	n̪a ɾeː n̪d̪ɾa moː ɖi 
നരേന്ദ്രമോദി	n̪a ɾeː n̪d̪ɾa moː d̪i 
നവനീത്	n̪a ʋa niː t̪ə 
നവറോജി	n̪a ʋa roː ɟi 
നവാസ്	n̪a ʋaː sə 
നവീന	n̪a ʋiː na 
നവീൻ	n̪a ʋiːn 
നവ്യ	n̪a ʋja 
നഷീദ	n̪a ʂiː d̪a 
നസിയ	n̪a si ja 
നസീഫ്	n̪a siː fə 
നസീബ	n̪a siː ba 
നസീബ്	n̪a siː bə 
നസീമ	n̪a siː ma 
നസീമാ	n̪a siː maː 
നസീമാബീവി	n̪a siː maː biː ʋi 
നസീം	n̪a siːm 
നസീർ	n̪a siːr 
നസീല	n̪a siː la 
നസീഹ	n̪a siː ɦa 
നസീറ	n̪a siː ra 
നസീറാബീവി	n̪a siː raː biː ʋi 
നസീറുദ്ദീൻ	n̪a siː ru d̪d̪iːn 
നസ്	n̪a sə 
നസ്രിയ	n̪a sri ja 
നസ്റിൻ	n̪a srin 
നസ്റീന	n̪a sriː na 
നഹാസ്	n̪a ɦaː sə 
നളിനാക്ഷൻ	n̪a ɭi naː kʂan 
നളിനാക്ഷി	n̪a ɭi naː kʂi 
നളിനി	n̪a ɭi ni 
നാഗമ്മ	n̪aː ɡa mma 
നാഗരാജൻ	n̪aː ɡa ɾaː ɟan 
നാഗരാജ്	n̪aː ɡa ɾaː ɟə 
നാജിയ	n̪aː ɟi ja 
നാടാർ	n̪aː ʈaːr 
നാണി	n̪aː ɳi 
നാണിക്കുട്ടി	n̪aː ɳi kku ʈʈi 
നാണു	n̪aː ɳu 
നാഥ്	n̪aː t̪ʰə 
നാദിയ	n̪aː d̪i ja 
നാദിറ	n̪aː d̪i ra 
നാൻസി	n̪aːn si 
നായക്	n̪aː ja kə 
നായനാർ	n̪aː ja naːr 
നായർ	n̪aː jar 
നായിഡു	n̪aː ji ɖu 
നായ്ക്	n̪aː jkə 
നായ്ക്ക്	n̪aː jkkə 
നാരായണ	n̪aː ɾaː ja ɳa 
നാരായണൻ	n̪aː ɾaː ja ɳan 
നാരായണൻകുട്ടി	n̪aː ɾaː ja ɳan ku ʈʈi 
നാരായണൻനായർ	n̪aː ɾaː ja ɳan naː jar 
നാരായണപിള്ള	n̪aː ɾaː ja ɳa pi ɭɭa 
നാരായണമേനോൻ	n̪aː ɾaː ja ɳa meː noːn 
നാരായണി	n̪aː ɾaː ja ɳi 
നാരായണിഅമ്മ	n̪aː ɾaː ja ɳi a mma 
നാരായണിയമ്മ	n̪aː ɾaː ja ɳi ja mma 
നാരായൺ	n̪aː ɾaː jaɳ 
നാസർ	n̪aː sar 
നാസറുദീൻ	n̪aː sa ru d̪iːn 
നാസറുദ്ദീൻ	n̪aː sa ru d̪d̪iːn 
നാസിം	n̪aː sim 
നാസിയ	n̪aː si ja 
നാസിർ	n̪aː sir 
നാസില	n̪aː si la 
നാസ്സർ	n̪aː ssar 
നികേഷ്	n̪i keː ʂə 
നിക്കോള	n̪i kkoː ɭa 
നിക്സൺ	n̪i ksaɳ 
നിഖിത	n̪i kʰi t̪a 
നിഖില	n̪i kʰi la 
നിഖിൽ	n̪i kʰil 
നിജ	n̪i ɟa 
നിജാസ്	n̪i ɟaː sə 
നിജി	n̪i ɟi 
നിജിൻ	n̪i ɟin 
നിജിൽ	n̪i ɟil 
നിജീഷ്	n̪i ɟiː ʂə 
നിജു	n̪i ɟu 
നിജേഷ്	n̪i ɟeː ʂə 
നിജോ	n̪i ɟoː 
നിത	n̪i t̪a 
നിതിൻ	n̪i t̪in 
നിതീഷ്	n̪i t̪iː ʂə 
നിത്യ	n̪i t̪ja 
നിഥിൻ	n̪i t̪ʰin 
നിധിൻ	n̪i d̪ʱin 
നിധീഷ്	n̪i d̪ʱiː ʂə 
നിനു	n̪i nu 
നിബിൻ	n̪i bin 
നിബു	n̪i bu 
നിമ	n̪i ma 
നിമി	n̪i mi 
നിമിത	n̪i mi t̪a 
നിമിഷ	n̪i mi ʂa 
നിമേഷ്	n̪i meː ʂə 
നിമ്മി	n̪i mmi 
നിമ്യ	n̪i mja 
നിയാസ്	n̪i jaː sə 
നിർമല	n̪ir ma la 
നിർമ്മല	n̪ir mma la 
നിർമ്മൽ	n̪ir mmal 
നിവിൻ	n̪i ʋin 
നിവേദിത	n̪i ʋeː d̪i t̪a 
നിവേദ്	n̪i ʋeː d̪ə 
നിവ്യ	n̪i ʋja 
നിശാന്ത്	n̪i ʃaː n̪t̪ə 
നിഷ	n̪i ʂa 
നിഷമോൾ	n̪i ʂa moːɭ 
നിഷാ	n̪i ʂaː 
നിഷാദ്	n̪i ʂaː d̪ə 
നിഷാന	n̪i ʂaː na 
നിഷാന്ത്	n̪i ʂaː n̪t̪ə 
നിഷാമോൾ	n̪i ʂaː moːɭ 
നിഷി	n̪i ʂi 
നിഷിത	n̪i ʂi t̪a 
നിഷിദ	n̪i ʂi d̪a 
നിസ	n̪i sa 
നിസാമുദീൻ	n̪i saː mu d̪iːn 
നിസാമുദ്ദീൻ	n̪i saː mu d̪d̪iːn 
നിസാമുദ്ധീൻ	n̪i saː mu d̪d̪ʱiːn 
നിസാം	n̪i saːm 
നിസാർ	n̪i saːr 
നിസാറുദ്ദീൻ	n̪i saː ru d̪d̪iːn 
നിസ്സാം	n̪i ssaːm 
നിസ്സാർ	n̪i ssaːr 
നിഹാല	n̪i ɦaː la 
നിഹാൽ	n̪i ɦaːl 
നിഹാസ്	n̪i ɦaː sə 
നീത	n̪iː t̪a 
നീതു	n̪iː t̪u 
നീതുമോൾ	n̪iː t̪u moːɭ 
നീന	n̪iː na 
നീനു	n̪iː nu 
നീമ	n̪iː ma 
നീരജ	n̪iː ɾa ɟa 
നീരജ്	n̪iː ɾa ɟə 
നീലകണ്ഠൻ	n̪iː la ka ɳʈʰan 
നീലി	n̪iː li 
നീലിമ	n̪iː li ma 
നുജുമുദ്ദീൻ	n̪u ɟu mu d̪d̪iːn 
നുസൈബ	n̪u sai̯ ba 
നുസ്രത്ത്	n̪u sra t̪t̪ə 
നുസ്റത്ത്	n̪u sra t̪t̪ə 
നൂർജഹാൻ	n̪uːr ɟa ɦaːn 
നൂർമുഹമ്മദ്	n̪uːr mu ɦa mma d̪ə 
നൂറ	n̪uː ra 
നൂറുദ്ദീൻ	n̪uː ru d̪d̪iːn 
നെജീബ്	n̪e ɟiː bə 
നെഫീസ	n̪e fiː sa 
നെബീസ	n̪e biː sa 
നെയ്മർ	n̪e jmar 
നെരുദ	n̪e ɾu d̪a 
നെൽസൺ	n̪el saɳ 
നെൽസൻ	n̪el san 
നെസീമ	n̪e siː ma 
നെഹ്രു	n̪e ɦru 
നെഹ്‌റു	n̪e ɦ ru 
നേഹ	n̪eː ɦa 
നൈന	n̪ai̯ na 
നൈനാൻ	n̪ai̯ naːn 
നൈസി	n̪ai̯ si 
നൊബേൽ	n̪o beːl 
നോബി	n̪oː bi 
നോബിൾ	n̪oː biɭ 
നോയൽ	n̪oː jal 
നൗഫൽ	n̪au̯ fal 
നൗഫിയ	n̪au̯ fi ja 
നൗഷാദലി	n̪au̯ ʂaː d̪a li 
നൗഷാദ്	n̪au̯ ʂaː d̪ə 
നൗഷിദ	n̪au̯ ʂi d̪a 
ന്യൂട്ടൺ	njuː ʈʈaɳ 
പങ്കജം	pa ŋka ɟam 
പങ്കജവല്ലി	pa ŋka ɟa ʋa lli 
പങ്കജാക്ഷൻ	pa ŋka ɟaː kʂan 
പങ്കജാക്ഷി	pa ŋka ɟaː kʂi 
പങ്കജാക്ഷിയമ്മ	pa ŋka ɟaː kʂi ja mma 
പഞ്ചമി	pa ɲt͡ʃa mi 
പട്ടേൽ	pa ʈʈeːl 
പണിക്കർ	pa ɳi kkar 
പണ്ഡിറ്റ്	pa ɳɖi ṯṯə 
പത്മ	pa t̪ma 
പത്മകുമാരി	pa t̪ma ku maː ɾi 
പത്മകുമാർ	pa t̪ma ku maːr 
പത്മഗിരീശൻ	pa t̪ma ɡi ɾiː ʃan 
പത്മജ	pa t̪ma ɟa 
പത്മനാഭ	pa t̪ma naː bʱa 
പത്മനാഭൻ	pa t̪ma naː bʱan 
പത്മനാഭപിള്ള	pa t̪ma naː bʱa pi ɭɭa 
പത്മരാജൻ	pa t̪ma ɾaː ɟan 
പത്മാക്ഷി	pa t̪maː kʂi 
പത്മാവതി	pa t̪maː ʋa t̪i 
പത്മാവതിയമ്മ	pa t̪maː ʋa t̪i ja mma 
പത്മിനി	pa t̪mi ni 
പത്മിനിയമ്മ	pa t̪mi ni ja mma 
പത്രോസ്	pa t̪roː sə 
പയസ്	pa ja sə 
പയ്യപ്പിള്ളി	pa jja ppi ɭɭi 
പരമശിവൻ	pa ɾa ma ʃi ʋan 
പരമേശ്വരൻ	pa ɾa meː ʃʋa ɾan 
പരമേശ്വരി	pa ɾa meː ʃʋa ɾi 
പരീത്	pa ɾiː t̪ə 
പർവീൻ	par ʋiːn 
പവിത്ര	pa ʋi t̪ra 
പവിത്രൻ	pa ʋi t̪ran 
പാഞ്ചാലി	paː ɲt͡ʃaː li 
പാണ്ഡേ	paː ɳɖeː 
പാത്തു	paː t̪t̪u 
പാത്തുക്കുട്ടി	paː t̪t̪u kku ʈʈi 
പാത്തുട്ടി	paː t̪t̪u ʈʈi 
പാത്തുണ്ണി	paː t̪t̪u ɳɳi 
പാത്തുമോൾ	paː t̪t̪u moːɭ 
പാത്തുമ്മ	paː t̪t̪u mma 
പാത്തുമ്മകുട്ടി	paː t̪t̪u mma ku ʈʈi 
പാത്തുമ്മക്കുട്ടി	paː t̪t̪u mma kku ʈʈi 
പാത്തുമ്മാബീവി	paː t̪t̪u mmaː biː ʋi 
പാത്തുമ്മു	paː t̪t̪u mmu 
പാത്തൂട്ടി	paː t̪t̪uː ʈʈi 
പാത്രിയർക്കീസ്	paː t̪ri jar kkiː sə 
പാപ്പ	paː ppa 
പാപ്പച്ചൻ	paː ppa t͡ʃt͡ʃan 
പാപ്പൻ	paː ppan 
പാപ്പാത്തി	paː ppaː t̪t̪i 
പാപ്പി	paː ppi 
പാപ്പു	paː ppu 
പാർവതി	paːr ʋa t̪i 
പാർവ്വതി	paːr ʋʋa t̪i 
പാർവ്വതിയമ്മ	paːr ʋʋa t̪i ja mma 
പാലിക	paː li ka 
പാറു	paː ru 
പാറുകുട്ടി	paː ru ku ʈʈi 
പാറുക്കുട്ടി	paː ru kku ʈʈi 
പാറുക്കുട്ടിയമ്മ	paː ru kku ʈʈi ja mma 
പികെ	pi ke 
പിക്കറ്റി	pi kka ṯṯi 
പിങ്കി	pi ŋki 
പിച്ചായ്	pi t͡ʃt͡ʃaː jə 
പിപി	pi pi 
പിളള	pi ɭa ɭa 
പിള്ള	pi ɭɭa 
പീതാംബരൻ	piː t̪aːm ba ɾan 
പീറ്റർ	piː ṯṯar 
പുന്നൂസ്	pu n̪n̪uː sə 
പുരുഷൻ	pu ɾu ʂan 
പുരുഷു	pu ɾu ʂu 
പുരുഷോത്തമൻ	pu ɾu ʂoː t̪t̪a man 
പുരുഷോത്തം	pu ɾu ʂoː t̪t̪am 
പുഷ്കരൻ	pu ʂka ɾan 
പുഷ്ക്കരൻ	pu ʂkka ɾan 
പുഷ്പ	pu ʂpa 
പുഷ്പകുമാരി	pu ʂpa ku maː ɾi 
പുഷ്പജ	pu ʂpa ɟa 
പുഷ്പൻ	pu ʂpan 
പുഷ്പം	pu ʂpam 
പുഷ്പമ്മ	pu ʂpa mma 
പുഷ്പരാജൻ	pu ʂpa ɾaː ɟan 
പുഷ്പരാജ്	pu ʂpa ɾaː ɟə 
പുഷ്പലത	pu ʂpa la t̪a 
പുഷ്പവല്ലി	pu ʂpa ʋa lli 
പുഷ്പാകരൻ	pu ʂpaː ka ɾan 
പുഷ്പാംഗദൻ	pu ʂpaːm ɡa d̪an 
പുഷ്പാവതി	pu ʂpaː ʋa t̪i 
പൂജ	puː ɟa 
പൂജാരി	puː ɟaː ɾi 
പൂർണിമ	puːr ɳi ma 
പൂർണ്ണിമ	puːr ɳɳi ma 
പെട്ട	pe ʈʈa 
പെണ്ണമ്മ	pe ɳɳa mma 
പെരുമാൾ	pe ɾu maːɭ 
പെരെര	pe ɾe ɾa 
പെരേര	pe ɾeː ɾa 
പൈ	pai̯ 
പൈലി	pai̯ li 
പൊക്കൻ	po kkan 
പൊക്കി	po kki 
പൊടിയൻ	po ʈi jan 
പൊടിയമ്മ	po ʈi ja mma 
പൊന്നച്ചൻ	po n̪n̪a t͡ʃt͡ʃan 
പൊന്നൻ	po n̪n̪an 
പൊന്നപ്പൻ	po n̪n̪a ppan 
പൊന്നമ്മ	po n̪n̪a mma 
പൊന്നി	po n̪n̪i 
പൊന്നു	po n̪n̪u 
പൊറിഞ്ചു	po ri ɲt͡ʃu 
പോക്കർ	poː kkar 
പോത്തൻ	poː t̪t̪an 
പോളി	poː ɭi 
പോൾ	poːɭ 
പോൾസൺ	poːɭ saɳ 
പോറ്റി	poː ṯṯi 
പൗലോ	pau̯ loː 
പൗലോസ്	pau̯ loː sə 
പൗളി	pau̯ ɭi 
പൗളിൻ	pau̯ ɭin 
പ്രകർഷ	pra kar ʂa 
പ്രകാശൻ	pra kaː ʃan 
പ്രകാശിനി	pra kaː ʃi ni 
പ്രകാശ്	pra kaː ʃə 
പ്രജിത	pra ɟi t̪a 
പ്രജിത്ത്	pra ɟi t̪t̪ə 
പ്രജിന	pra ɟi na 
പ്രജില	pra ɟi la 
പ്രജിഷ	pra ɟi ʂa 
പ്രജീഷ്	pra ɟiː ʂə 
പ്രജോഷ്	pra ɟoː ʂə 
പ്രണവ്	pra ɳa ʋə 
പ്രതാപൻ	pra t̪aː pan 
പ്രതാപ്	pra t̪aː pə 
പ്രതിഭ	pra t̪i bʱa 
പ്രതീപ്	pra t̪iː pə 
പ്രതീഷ്	pra t̪iː ʂə 
പ്രത്യുഷ	pra t̪ju ʂa 
പ്രദീപൻ	pra d̪iː pan 
പ്രദീപ്	pra d̪iː pə 
പ്രദീപ്കുമാർ	pra d̪iː pku maːr 
പ്രദീഷ്	pra d̪iː ʂə 
പ്രബിത	pra bi t̪a 
പ്രബിൻ	pra bin 
പ്രബീഷ്	pra biː ʂə 
പ്രഭ	pra bʱa 
പ്രഭാകരൻ	pra bʱaː ka ɾan 
പ്രഭാകർ	pra bʱaː kar 
പ്രഭാത്	pra bʱaː t̪ə 
പ്രഭാവതി	pra bʱaː ʋa t̪i 
പ്രഭു	pra bʱu 
പ്രമിത	pra mi t̪a 
പ്രമീള	pra miː ɭa 
പ്രമോദ്	pra moː d̪ə 
പ്രമോദ്കുമാർ	pra moː d̪ku maːr 
പ്രവിത	pra ʋi t̪a 
പ്രവീണ	pra ʋiː ɳa 
പ്രവീൺ	pra ʋiːɳ 
പ്രവീൺകുമാർ	pra ʋiːɳ ku maːr 
പ്രവീഷ്	pra ʋiː ʂə 
പ്രശാന്തൻ	pra ʃaː n̪t̪an 
പ്രശാന്തി	pra ʃaː n̪t̪i 
പ്രശാന്ത്	pra ʃaː n̪t̪ə 
പ്രശാന്ത്കുമാർ	pra ʃaː n̪t̪ku maːr 
പ്രശോഭ	pra ʃoː bʱa 
പ്രശോഭ്	pra ʃoː bʱə 
പ്രസന്ന	pra sa nna 
പ്രസന്നകുമാരി	pra sa nna ku maː ɾi 
പ്രസന്നകുമാർ	pra sa nna ku maːr 
പ്രസന്നൻ	pra sa nnan 
പ്രസാദ്	pra saː d̪ə 
പ്രസീജ	pra siː ɟa 
പ്രസീത	pra siː t̪a 
പ്രസീദ	pra siː d̪a 
പ്രസീന	pra siː na 
പ്രസൂൺ	pra suːɳ 
പ്രിജി	pri ɟi 
പ്രിജിത്	pri ɟi t̪ə 
പ്രിൻസി	prin si 
പ്രിൻസ്	prin sə 
പ്രിയ	pri ja 
പ്രിയങ്ക	pri ja ŋka 
പ്രിയങ്കാഗന്ധി	pri ja ŋkaː ɡa n̪d̪ʱi 
പ്രിയദർശിനി	pri ja d̪ar ʃi ni 
പ്രിയമോൾ	pri ja moːɭ 
പ്രിയംവദ	pri jam ʋa d̪a 
പ്രിയാ	pri jaː 
പ്രിയേഷ്	pri jeː ʂə 
പ്രീജ	priː ɟa 
പ്രീത	priː t̪a 
പ്രീതാ	priː t̪aː 
പ്രീതി	priː t̪i 
പ്രീന	priː na 
പ്രീയ	priː ja 
പ്രേമ	preː ma 
പ്രേമകുമാരി	preː ma ku maː ɾi 
പ്രേമകുമാർ	preː ma ku maːr 
പ്രേമചന്ദ്രൻ	preː ma t͡ʃa n̪d̪ɾan 
പ്രേമജ	preː ma ɟa 
പ്രേമൻ	preː man 
പ്രേമരാജൻ	preː ma ɾaː ɟan 
പ്രേമലത	preː ma la t̪a 
പ്രേമവല്ലി	preː ma ʋa lli 
പ്രേമാവതി	preː maː ʋa t̪i 
പ്രേമി	preː mi 
പ്രേം	preːm 
പ്രേംകുമാർ	preːm ku maːr 
പ്രേംജിത്ത്	preːm ɟi t̪t̪ə 
ഫയാദ്	fa jaː d̪ə 
ഫയാസ്	fa jaː sə 
ഫരീദ	fa ɾiː d̪a 
ഫർസാന	far saː na 
ഫർസീന	far siː na 
ഫർഹത്ത്	far ɦa t̪t̪ə 
ഫർഹാദ്	far ɦaː d̪ə 
ഫർഹാന	far ɦaː na 
ഫർഹാൻ	far ɦaːn 
ഫവാസ്	fa ʋaː sə 
ഫസലു	fa sa lu 
ഫസലുദ്ദീൻ	fa sa lu d̪d̪iːn 
ഫസലുറഹ്മാൻ	fa sa lu ra ɦmaːn 
ഫസൽ	fa sal 
ഫസീന	fa siː na 
ഫസീല	fa siː la 
ഫസ്	fa sə 
ഫസ്ന	fa sna 
ഫഹദ്	fa ɦa d̪ə 
ഫഹാദ്	fa ɦaː d̪ə 
ഫാ	faː 
ഫാത്തിബി	faː t̪t̪i bi 
ഫാത്തിമ	faː t̪t̪i ma 
ഫാത്തിമകുട്ടി	faː t̪t̪i ma ku ʈʈi 
ഫാത്തിമക്കുട്ടി	faː t̪t̪i ma kku ʈʈi 
ഫാത്തിമത്	faː t̪t̪i ma t̪ə 
ഫാത്തിമത്തു	faː t̪t̪i ma t̪t̪u 
ഫാത്തിമത്തുൽ	faː t̪t̪i ma t̪t̪ul 
ഫാത്തിമത്ത്	faː t̪t̪i ma t̪t̪ə 
ഫാത്തിമബീവി	faː t̪t̪i ma biː ʋi 
ഫാത്തിമസുഹറ	faː t̪t̪i ma su ɦa ra 
ഫാത്തിമസുഹ്റ	faː t̪t̪i ma su ɦra 
ഫാത്തിമാ	faː t̪t̪i maː 
ഫാത്തിമാബി	faː t̪t̪i maː bi 
ഫാത്തിമാബീവി	faː t̪t̪i maː biː ʋi 
ഫാത്തിമ്മ	faː t̪t̪i mma 
ഫാദർ	faː d̪ar 
ഫായിസ	faː ji sa 
ഫായിസ്	faː ji sə 
ഫാരിഷ	faː ɾi ʂa 
ഫാരിസ	faː ɾi sa 
ഫാരിസ്	faː ɾi sə 
ഫാസില	faː si la 
ഫാസിൽ	faː sil 
ഫാറൂക്ക്	faː ruː kkə 
ഫാറൂഖ്	faː ruː kʰə 
ഫിദ	fi d̪a 
ഫിർദൗസ്	fir d̪au̯ sə 
ഫിലിപ്പോസ്	fi li ppoː sə 
ഫിലിപ്പ്	fi li ppə 
ഫിലോ	fi loː 
ഫിലോമിന	fi loː mi na 
ഫിഷർ	fi ʂar 
ഫിറോസ്	fi roː sə 
ഫിറോസ്ഖാൻ	fi roː skʰaːn 
ഫൂക്കോ	fuː kkoː 
ഫൂലെ	fuː le 
ഫെബി	fe bi 
ഫെബിന	fe bi na 
ഫെബിൻ	fe bin 
ഫെമി	fe mi 
ഫെമിന	fe mi na 
ഫെർണാണ്ടസ്	fer ɳaː ɳʈa sə 
ഫെലിക്സ്	fe li ksə 
ഫേബ	feː ba 
ഫൈസൽ	fai̯ sal 
ഫൈറൂസ	fai̯ ruː sa 
ഫൈറൂസ്	fai̯ ruː sə 
ഫൗണ്ടേഷൻ	fau̯ ɳʈeː ʂan 
ഫൗസിയ	fau̯ si ja 
ഫ്രഡറിക്	fra ɖa ri kə 
ഫ്രാങ്കോ	fraː ŋkoː 
ഫ്രാങ്ക്ളിൻ	fraː ŋkɭin 
ഫ്രാൻസിസ്	fraːn si sə 
ഫ്രാൻസീസ്	fraːn siː sə 
ഫ്രാൻസെസ്	fraːn se sə 
ഫ്രെഡി	fre ɖi 
ഫ്ളോറി	fɭoː ri 
ബക്കർ	ba kkar 
ബച്ചൻ	ba t͡ʃt͡ʃan 
ബഞ്ചമിൻ	ba ɲt͡ʃa min 
ബട്നാഗർ	ba ʈn̪aː ɡar 
ബദറുദീൻ	ba d̪a ru d̪iːn 
ബദറുദ്ദീൻ	ba d̪a ru d̪d̪iːn 
ബദറുന്നീസ	ba d̪a ru n̪n̪iː sa 
ബദ്രായൺ	ba d̪ɾaː jaɳ 
ബന്നി	ba n̪n̪i 
ബബിത	ba bi t̪a 
ബബീഷ്	ba biː ʂə 
ബൽക്കീസ്	bal kkiː sə 
ബഷീർ	ba ʂiːr 
ബഷീർകുട്ടി	ba ʂiːr ku ʈʈi 
ബഷീറ	ba ʂiː ra 
ബസന്റ്	ba sa nṯə 
ബൾക്കീസ്	baɭ kkiː sə 
ബാദുഷ	baː d̪u ʂa 
ബാനർജി	baː nar ɟi 
ബാനു	baː nu 
ബാബു	baː bu 
ബാബുക്കുട്ടൻ	baː bu kku ʈʈan 
ബാബുരാജൻ	baː bu ɾaː ɟan 
ബാബുരാജ്	baː bu ɾaː ɟə 
ബായി	baː ji 
ബാർഡീൻ	baːr ɖiːn 
ബാല	baː la 
ബാലകൃഷ്ണ	baː la krɨ ʂɳa 
ബാലകൃഷ്ണൻ	baː la krɨ ʂɳan 
ബാലകൃഷ്ണപിള്ള	baː la krɨ ʂɳa pi ɭɭa 
ബാലഗോപാലൻ	baː la ɡoː paː lan 
ബാലചന്ദ്രൻ	baː la t͡ʃa n̪d̪ɾan 
ബാലൻ	baː lan 
ബാലശങ്കർ	baː la ʃa ŋkar 
ബാലസുബ്രഹ്മണ്യൻ	baː la su bra ɦma ɳjan 
ബാലാമണി	baː laː ma ɳi 
ബാലി	baː li 
ബാലു	baː lu 
ബാല്‍	baːl 
ബാല്‍താക്കറെ	baːl t̪aː kka re 
ബാവ	baː ʋa 
ബാസിത്	baː si t̪ə 
ബാസിത്ത്	baː si t̪t̪ə 
ബാസിൽ	baː sil 
ബാഹുലേയൻ	baː ɦu leː jan 
ബിജി	bi ɟi 
ബിജിത	bi ɟi t̪a 
ബിജിത്ത്	bi ɟi t̪t̪ə 
ബിജിന	bi ɟi na 
ബിജിൻ	bi ɟin 
ബിജിമോൾ	bi ɟi moːɭ 
ബിജില	bi ɟi la 
ബിജീഷ്	bi ɟiː ʂə 
ബിജു	bi ɟu 
ബിജുകുമാർ	bi ɟu ku maːr 
ബിജുമോൻ	bi ɟu moːn 
ബിജേഷ്	bi ɟeː ʂə 
ബിജോ	bi ɟoː 
ബിജോയി	bi ɟoː ji 
ബിജോയ്	bi ɟoː jə 
ബിനി	bi ni 
ബിനിത	bi ni t̪a 
ബിനിമോൾ	bi ni moːɭ 
ബിനിൽ	bi nil 
ബിനിഷ	bi ni ʂa 
ബിനീഷ്	bi niː ʂə 
ബിനു	bi nu 
ബിനുകുമാർ	bi nu ku maːr 
ബിനുമോൻ	bi nu moːn 
ബിനുമോൾ	bi nu moːɭ 
ബിനേഷ്	bi neː ʂə 
ബിനോ	bi noː 
ബിനോജ്	bi noː ɟə 
ബിനോയി	bi noː ji 
ബിനോയ്	bi noː jə 
ബിൻ	bin 
ബിന്ദു	bi n̪d̪u 
ബിന്ദുകുമാരി	bi n̪d̪u ku maː ɾi 
ബിന്ദുമോൾ	bi n̪d̪u moːɭ 
ബിന്ധ്യ	bi n̪d̪ʱja 
ബിന്നി	bi n̪n̪i 
ബിൻസി	bin si 
ബിപിൻ	bi pin 
ബിബി	bi bi 
ബിബിത	bi bi t̪a 
ബിബിൻ	bi bin 
ബിമൽ	bi mal 
ബിയ്യക്കുട്ടി	bi jja kku ʈʈi 
ബിയ്യാത്തു	bi jjaː t̪t̪u 
ബിയ്യുമ്മ	bi jju mma 
ബിലാൽ	bi laːl 
ബിവി	bi ʋi 
ബിസ്മി	bi smi 
ബിഹാരി	bi ɦaː ɾi 
ബീക്കുട്ടി	biː kku ʈʈi 
ബീഗം	biː ɡam 
ബീന	biː na 
ബീനാ	biː naː 
ബീനാകുമാരി	biː naː ku maː ɾi 
ബീനാമോൾ	biː naː moːɭ 
ബീപാത്തു	biː paː t̪t̪u 
ബീപാത്തുമ്മ	biː paː t̪t̪u mma 
ബീഫാത്തിമ	biː faː t̪t̪i ma 
ബീഫാത്തിമ്മ	biː faː t̪t̪i mma 
ബീഫാത്തു	biː faː t̪t̪u 
ബീഫാത്തുമ്മ	biː faː t̪t̪u mma 
ബീബി	biː bi 
ബീമ	biː ma 
ബീരാൻ	biː ɾaːn 
ബീരാൻകുട്ടി	biː ɾaːn ku ʈʈi 
ബീവാത്തു	biː ʋaː t̪t̪u 
ബീവാത്തുമ്മ	biː ʋaː t̪t̪u mma 
ബീവി	biː ʋi 
ബീവിക്കുട്ടി	biː ʋi kku ʈʈi 
ബുഷറ	bu ʂa ra 
ബുഷ്റ	bu ʂra 
ബെഞ്ചമിൻ	be ɲt͡ʃa min 
ബെതെ	be t̪e 
ബെൻ	ben 
ബെന്നി	be n̪n̪i 
ബെൻസൺ	ben saɳ 
ബെൻസി	ben si 
ബെറ്റി	be ṯṯi 
ബെറ്റ്സി	be ṯṯsi 
ബേക്കർ	beː kkar 
ബേബി	beː bi 
ബേബിക്കുട്ടി	beː bi kku ʈʈi 
ബേസിൽ	beː sil 
ബൈജു	bai̯ ɟu 
ബോണി	boː ɳi 
ബോബൻ	boː ban 
ബോബി	boː bi 
ബോസ്	boː sə 
ബ്രാറ്റെയിൻ	braː ṯṯe jin 
ബ്രിജിത്ത്	bri ɟi t̪t̪ə 
ബ്രിജിറ്റ്	bri ɟi ṯṯə 
ബ്ലസ്സി	bla ssi 
ബ്ലെസ്സി	ble ssi 
ബ്ലോസം	bloː sam 
ഭഗത്	bʱa ɡa t̪ə 
ഭഗവതി	bʱa ɡa ʋa t̪i 
ഭട്ട്	bʱa ʈʈə 
ഭദ്രൻ	bʱa d̪ɾan 
ഭരതൻ	bʱa ɾa t̪an 
ഭരത്	bʱa ɾa t̪ə 
ഭവാനി	bʱa ʋaː ni 
ഭവാനിയമ്മ	bʱa ʋaː ni ja mma 
ഭവ്യ	bʱa ʋja 
ഭാഗീരഥി	bʱaː ɡiː ɾa t̪ʰi 
ഭാഗ്യ	bʱaː ɡja 
ഭാഗ്യം	bʱaː ɡjam 
ഭാഗ്യലക്ഷ്മി	bʱaː ɡja la kʂmi 
ഭാനു	bʱaː nu 
ഭാനുമതി	bʱaː nu ma t̪i 
ഭാനുമതിയമ്മ	bʱaː nu ma t̪i ja mma 
ഭാമ	bʱaː ma 
ഭാമിനി	bʱaː mi ni 
ഭായി	bʱaː ji 
ഭായ്	bʱaː jə 
ഭാരതി	bʱaː ɾa t̪i 
ഭാരതിയമ്മ	bʱaː ɾa t̪i ja mma 
ഭാർഗവൻ	bʱaːr ɡa ʋan 
ഭാർഗവി	bʱaːr ɡa ʋi 
ഭാർഗവിയമ്മ	bʱaːr ɡa ʋi ja mma 
ഭാർഗ്ഗവൻ	bʱaːr ɡɡa ʋan 
ഭാർഗ്ഗവി	bʱaːr ɡɡa ʋi 
ഭാർഗ്ഗവിയമ്മ	bʱaːr ɡɡa ʋi ja mma 
ഭാവന	bʱaː ʋa na 
ഭാസി	bʱaː si 
ഭാസുര	bʱaː su ɾa 
ഭാസ്കരൻ	bʱaː ska ɾan 
ഭാസ്കർ	bʱaː skar 
ഭാസ്ക്കരൻ	bʱaː skka ɾan 
ഭാസ്ക്കർ	bʱaː skkar 
ഭിക്കാജി	bʱi kkaː ɟi 
ഭുവനചന്ദ്രൻ	bʱu ʋa na t͡ʃa n̪d̪ɾan 
ഭുവനേന്ദ്രൻ	bʱu ʋa neː n̪d̪ɾan 
ഭുവനേശ്വരി	bʱu ʋa neː ʃʋa ɾi 
ഭൈമി	bʱai̯ mi 
മ	ma 
മക്കാർ	ma kkaːr 
മങ്ക	ma ŋka 
മജീദ്	ma ɟiː d̪ə 
മഞ്ചു	ma ɲt͡ʃu 
മഞ്ചുഷ	ma ɲt͡ʃu ʂa 
മഞ്ജരി	ma ɲɟa ɾi 
മഞ്ജിമ	ma ɲɟi ma 
മഞ്ജു	ma ɲɟu 
മഞ്ജുമോൾ	ma ɲɟu moːɭ 
മഞ്ജുഷ	ma ɲɟu ʂa 
മഞ്ജുള	ma ɲɟu ɭa 
മണി	ma ɳi 
മണികണ്ടൻ	ma ɳi ka ɳʈan 
മണികണ്ഠൻ	ma ɳi ka ɳʈʰan 
മണിക്കുട്ടൻ	ma ɳi kku ʈʈan 
മണിയൻ	ma ɳi jan 
മണിയപ്പൻ	ma ɳi ja ppan 
മണിയമ്മ	ma ɳi ja mma 
മണിലാൽ	ma ɳi laːl 
മണ്ഡൽ	ma ɳɖal 
മത്തായി	ma t̪t̪aː ji 
മത്ത്	ma t̪t̪ə 
മദനൻ	ma d̪a nan 
മദൻ	ma d̪an 
മധു	ma d̪ʱu 
മധുകുമാർ	ma d̪ʱu ku maːr 
മധുസൂദനൻ	ma d̪ʱu suː d̪a nan 
മധുസൂധനൻ	ma d̪ʱu suː d̪ʱa nan 
മനാഫ്	ma naː fə 
മനീഷ	ma niː ʂa 
മനീഷ്	ma niː ʂə 
മനു	ma nu 
മനേഷ്	ma neː ʂə 
മനോജൻ	ma noː ɟan 
മനോജ്	ma noː ɟə 
മനോജ്കുമാർ	ma noː ɟku maːr 
മനോഹരൻ	ma noː ɦa ɾan 
മനോഹർ	ma noː ɦar 
മന്ദാകിനി	ma n̪d̪aː ki ni 
മന്ദി	ma n̪d̪i 
മൻമോഹൻ	man moː ɦan 
മൻസൂർ	man suːr 
മമത	ma ma t̪a 
മംഗൽ	mam ɡal 
മമ്മത്	ma mma t̪ə 
മമ്മദ്	ma mma d̪ə 
മമ്മി	ma mmi 
മമ്മു	ma mmu 
മമ്മൂട്ടി	ma mmuː ʈʈi 
മയൂർ	ma juːr 
മരക്കാർ	ma ɾa kkaːr 
മരിയ	ma ɾi ja 
മർക്കോസ്	mar kkoː sə 
മല്ലിക	ma lli ka 
മസൂദ്	ma suː d̪ə 
മഹമൂദ്	ma ɦa muː d̪ə 
മഹമ്മൂദ്	ma ɦa mmuː d̪ə 
മഹൽ	ma ɦal 
മഹറൂഫ്	ma ɦa ruː fə 
മഹാത്മാ	ma ɦaː t̪maː 
മഹാദേവൻ	ma ɦaː d̪eː ʋan 
മഹാദേവ്	ma ɦaː d̪eː ʋə 
മഹാലക്ഷ്മി	ma ɦaː la kʂmi 
മഹിജ	ma ɦi ɟa 
മഹിമ	ma ɦi ma 
മഹിളാമണി	ma ɦi ɭaː ma ɳi 
മഹേന്ദ്രൻ	ma ɦeː n̪d̪ɾan 
മഹേശൻ	ma ɦeː ʃan 
മഹേശ്വരൻ	ma ɦeː ʃʋa ɾan 
മഹേശ്വരി	ma ɦeː ʃʋa ɾi 
മഹേഷ്	ma ɦeː ʂə 
മഹേഷ്കുമാർ	ma ɦeː ʂku maːr 
മഹ്റൂഫ്	ma ɦruː fə 
മറിയ	ma ri ja 
മറിയകുട്ടി	ma ri ja ku ʈʈi 
മറിയക്കുട്ടി	ma ri ja kku ʈʈi 
മറിയം	ma ri jam 
മറിയംബി	ma ri jam bi 
മറിയംബീവി	ma ri jam biː ʋi 
മറിയമ്മ	ma ri ja mma 
മറിയാമു	ma ri jaː mu 
മറിയാമ്മ	ma ri jaː mma 
മറിയു	ma ri ju 
മറിയുമ്മ	ma ri ju mma 
മാക്സിൻ	maː ksin 
മാഗി	maː ɡi 
മാജിത	maː ɟi t̪a 
മാജിദ	maː ɟi d̪a 
മാണി	maː ɳi 
മാണിക്കൻ	maː ɳi kkan 
മാണിക്കം	maː ɳi kkam 
മാണിക്യൻ	maː ɳi kjan 
മാണിക്യം	maː ɳi kjam 
മാത	maː t̪a 
മാതു	maː t̪u 
മാത്തൻ	maː t̪t̪an 
മാത്തുക്കുട്ടി	maː t̪t̪u kku ʈʈi 
മാത്യു	maː t̪ju 
മാത്യുസ്	maː t̪ju sə 
മാത്യൂ	maː t̪juː 
മാത്യൂസ്	maː t̪juː sə 
മാധവനുണ്ണി	maː d̪ʱa ʋa nu ɳɳi 
മാധവൻ	maː d̪ʱa ʋan 
മാധവി	maː d̪ʱa ʋi 
മാധവിഅമ്മ	maː d̪ʱa ʋi a mma 
മാധവിക്കുട്ടി	maː d̪ʱa ʋi kku ʈʈi 
മാധവിയമ്മ	maː d̪ʱa ʋi ja mma 
മാധുരി	maː d̪ʱu ɾi 
മാനസി	maː na si 
മാനുവൽ	maː nu ʋal 
മാൻ	maːn 
മാമച്ചൻ	maː ma t͡ʃt͡ʃan 
മാമി	maː mi 
മാമ്മൻ	maː mman 
മായ	maː ja 
മായങ്ക്	maː ja ŋkə 
മായാ	maː jaː 
മായാദേവി	maː jaː d̪eː ʋi 
മാരി	maː ɾi 
മാരിമുത്തു	maː ɾi mu t̪t̪u 
മാരിയത്ത്	maː ɾi ja t̪t̪ə 
മാരിയപ്പൻ	maː ɾi ja ppan 
മാരിയമ്മ	maː ɾi ja mma 
മാരിയമ്മാൾ	maː ɾi ja mmaːɭ 
മാർക്കോവ്	maːr kkoː ʋə 
മാർക്കോസ്	maːr kkoː sə 
മാർക്സ്	maːr ksə 
മാർഗരറ്റ്	maːr ɡa ɾa ṯṯə 
മാർഗ്രറ്റ്	maːr ɡɾa ṯṯə 
മാർട്ടിൻ	maːr ʈʈin 
മാർത്ത	maːr t̪t̪a 
മാലതി	maː la t̪i 
മാലിനി	maː li ni 
മാസ്റ്റർ	maː sṯṯar 
മാഹിൻ	maː ɦin 
മാഹീൻ	maː ɦiːn 
മാളവിക	maː ɭa ʋi ka 
മാളവ്യ	maː ɭa ʋja 
മാളു	maː ɭu 
മാളുക്കുട്ടി	maː ɭu kku ʈʈi 
മിഥുന	mi t̪ʰu na 
മിഥുൻ	mi t̪ʰun 
മിനി	mi ni 
മിനികുമാരി	mi ni ku maː ɾi 
മിനിമോൾ	mi ni moːɭ 
മിനു	mi nu 
മിന്നു	mi nnu 
മിയ	mi ja 
മിർഷാദ്	mir ʂaː d̪ə 
മിലൻ	mi lan 
മിലാദ്	mi laː d̪ə 
മിഷ	mi ʂa 
മിസിരിയ	mi si ɾi ja 
മിസ്രിയ	mi sri ja 
മീന	miː na 
മീനാകുമാരി	miː naː ku maː ɾi 
മീനാക്ഷി	miː naː kʂi 
മീനാക്ഷിയമ്മ	miː naː kʂi ja mma 
മീനു	miː nu 
മീര	miː ɾa 
മീരാ	miː ɾaː 
മീരാൻ	miː ɾaːn 
മുകുന്ദൻ	mu ku n̪d̪an 
മുകുള്‍	mu kuɭ 
മുകേഷ്	mu keː ʂə 
മുജീബ്	mu ɟiː bə 
മുജീബ്റഹ്മാൻ	mu ɟiː bra ɦmaːn 
മുണ്ടി	mu ɳʈi 
മുത്തലിബ്	mu t̪t̪a li bə 
മുത്തു	mu t̪t̪u 
മുത്തുബീവി	mu t̪t̪u biː ʋi 
മുത്തുലക്ഷ്മി	mu t̪t̪u la kʂmi 
മുത്തുസ്വാമി	mu t̪t̪u sʋaː mi 
മുനാഫ്	mu naː fə 
മുനിയാണ്ടി	mu ni jaː ɳʈi 
മുനീഫ്	mu niː fə 
മുനീർ	mu niːr 
മുനീറ	mu niː ra 
മുഫീദ	mu fiː d̪a 
മുഫീദ്	mu fiː d̪ə 
മുബശ്ശിറ	mu ba ʃʃi ra 
മുബഷിർ	mu ba ʂir 
മുബഷിറ	mu ba ʂi ra 
മുബഷീർ	mu ba ʂiːr 
മുബാറക്	mu baː ra kə 
മുബാറക്ക്	mu baː ra kkə 
മുബീന	mu biː na 
മുംതാജ്	mum t̪aː ɟə 
മുംതാസ്	mum t̪aː sə 
മുരളി	mu ɾa ɭi 
മുരളിധരൻ	mu ɾa ɭi d̪ʱa ɾan 
മുരളീകൃഷ്ണൻ	mu ɾa ɭiː krɨ ʂɳan 
മുരളീധരൻ	mu ɾa ɭiː d̪ʱa ɾan 
മുരളീധരൻപിള്ള	mu ɾa ɭiː d̪ʱa ɾan pi ɭɭa 
മുരുകൻ	mu ɾu kan 
മുരുകേശൻ	mu ɾu keː ʃan 
മുർഷിദ	mur ʂi d̪a 
മുർഷിദ്	mur ʂi d̪ə 
മുസമ്മിൽ	mu sa mmil 
മുസ്തഫ	mu st̪a fa 
മുസ്‌ലിയാർ	mu s li jaːr 
മുസ്ല്യാർ	mu sljaːr 
മുഹമമദ്	mu ɦa ma ma d̪ə 
മുഹമ്മത്	mu ɦa mma t̪ə 
മുഹമ്മദലി	mu ɦa mma d̪a li 
മുഹമ്മദാലി	mu ɦa mma d̪aː li 
മുഹമ്മദുകുട്ടി	mu ɦa mma d̪u ku ʈʈi 
മുഹമ്മദുണ്ണി	mu ɦa mma d̪u ɳɳi 
മുഹമ്മദ്	mu ɦa mma d̪ə 
മുഹമ്മദ്അലി	mu ɦa mma d̪ə a li 
മുഹമ്മദ്കുഞ്ഞി	mu ɦa mma d̪ku ɲɲi 
മുഹമ്മദ്കുഞ്ഞ്	mu ɦa mma d̪ku ɲɲə 
മുഹമ്മദ്കുട്ടി	mu ɦa mma d̪ku ʈʈi 
മുഹമ്മദ്കോയ	mu ɦa mma d̪koː ja 
മുഹമ്മദ്ബഷീർ	mu ɦa mma d̪ba ʂiːr 
മുഹമ്മദ്മുസ്തഫ	mu ɦa mma d̪mu st̪a fa 
മുഹമ്മദ്ഷാഫി	mu ɦa mma d̪ʂaː fi 
മുഹമ്മദ്ഹനീഫ	mu ɦa mma d̪ɦa niː fa 
മുഹമ്മദ്റാഫി	mu ɦa mma d̪raː fi 
മുഹസിന	mu ɦa si na 
മുഹസിൻ	mu ɦa sin 
മുഹ്സിന	mu ɦsi na 
മുഹ്സിൻ	mu ɦsin 
മുഹ്സീന	mu ɦsiː na 
മൂർത്തി	muːr t̪t̪i 
മൂല്യ	muː lja 
മൂസ	muː sa 
മൂസക്കുട്ടി	muː sa kku ʈʈi 
മൂസ്സ	muː ssa 
മൃദുല	mrɨ d̪u la 
മൃദുൽ	mrɨ d̪ul 
മെന്റസ്	me nṯa sə 
മെർലിൻ	mer lin 
മെർളിൻ	mer ɭin 
മെൽബിൻ	mel bin 
മെൽവിൻ	mel ʋin 
മെഹബൂബ്	me ɦa buː bə 
മെഹറുന്നീസ	me ɦa ru n̪n̪iː sa 
മെറിൻ	me rin 
മെറീന	me riː na 
മെറ്റിൽഡ	me ṯṯil ɖa 
മേഗി	meː ɡi 
മേഘ	meː ɡʱa 
മേഘനാഥ്	meː ɡʱa naː t̪ʰə 
മേഘല	meː ɡʱa la 
മേഘ്ന	meː ɡʱna 
മേജോ	meː ɟoː 
മേനക	meː na ka 
മേനോൻ	meː noːn 
മേബിൾ	meː biɭ 
മേരി	meː ɾi 
മേരികുട്ടി	meː ɾi ku ʈʈi 
മേരിക്കുട്ടി	meː ɾi kku ʈʈi 
മേഴ്സി	meː ɻsi 
മൈക്കിൾ	mai̯ kkiɭ 
മൈതീൻ	mai̯ t̪iːn 
മൈഥിലി	mai̯ t̪ʰi li 
മൈമുന	mai̯ mu na 
മൈമൂന	mai̯ muː na 
മൈമൂനത്ത്	mai̯ muː na t̪t̪ə 
മൊയ്തി	mo jt̪i 
മൊയ്തീൻ	mo jt̪iːn 
മൊയ്തീൻകുഞ്ഞി	mo jt̪iːn ku ɲɲi 
മൊയ്തീൻകുട്ടി	mo jt̪iːn ku ʈʈi 
മൊയ്തീൻകോയ	mo jt̪iːn koː ja 
മൊയ്തു	mo jt̪u 
മൊയ്തുട്ടി	mo jt̪u ʈʈi 
മൊയ്തുണ്ണി	mo jt̪u ɳɳi 
മൊയ്ദീൻ	mo jd̪iːn 
മൊഹമ്മദ്	mo ɦa mma d̪ə 
മോഡി	moː ɖi 
മോനച്ചൻ	moː na t͡ʃt͡ʃan 
മോനി	moː ni 
മോനിക്ക	moː ni kka 
മോനിഷ	moː ni ʂa 
മോൻ	moːn 
മോൻസി	moːn si 
മോബിൻ	moː bin 
മോസ്ബർ	moː sbar 
മോഹന	moː ɦa na 
മോഹനകുമാരി	moː ɦa na ku maː ɾi 
മോഹനകുമാർ	moː ɦa na ku maːr 
മോഹനചന്ദ്രൻ	moː ɦa na t͡ʃa n̪d̪ɾan 
മോഹനദാസൻ	moː ɦa na d̪aː san 
മോഹനദാസ്	moː ɦa na d̪aː sə 
മോഹനൻ	moː ɦa nan 
മോഹനൻപിള്ള	moː ɦa nan pi ɭɭa 
മോഹൻ	moː ɦan 
മോഹൻകുമാർ	moː ɦan ku maːr 
മോഹൻദാസ്	moː ɦan d̪aː sə 
മോഹൻലാൽ	moː ɦan laːl 
മോഹിനി	moː ɦi ni 
മോളമ്മ	moː ɭa mma 
മോളി	moː ɭi 
മോളിക്കുട്ടി	moː ɭi kku ʈʈi 
മോൾ	moːɭ 
മൗര്യ	mau̯ ɾja 
മൗലവി	mau̯ la ʋi 
മൗലാനാ	mau̯ laː naː 
യദു	ja d̪u 
യദുകൃഷ്ണൻ	ja d̪u krɨ ʂɳan 
യമുന	ja mu na 
യം	jam 
യശോദ	ja ʃoː d̪a 
യശോധരൻ	ja ʃoː d̪ʱa ɾan 
യഹിയ	ja ɦi ja 
യാക്കൂബ്	jaː kkuː bə 
യാക്കോബ്	jaː kkoː bə 
യാദവ്	jaː d̪a ʋə 
യാസർ	jaː sar 
യാസിൻ	jaː sin 
യാസിർ	jaː sir 
യാസീൻ	jaː siːn 
യാസ്മിൻ	jaː smin 
യാഹു	jaː ɦu 
യുവരാജ്	ju ʋa ɾaː ɟə 
യൂ	juː 
യൂനസ്	juː na sə 
യൂനുസ്	juː nu sə 
യൂസഫ്	juː sa fə 
യൂസുഫ്	juː su fə 
യെച്ചൂരി	je t͡ʃt͡ʃuː ɾi 
യേശുദാസൻ	jeː ʃu d̪aː san 
യേശുദാസ്	jeː ʃu d̪aː sə 
യോഹന്നാൻ	joː ɦa n̪n̪aːn 
രഘു	ɾa ɡʱu 
രഘുനാഥൻ	ɾa ɡʱu naː t̪ʰan 
രഘുനാഥ്	ɾa ɡʱu naː t̪ʰə 
രഘുവരൻ	ɾa ɡʱu ʋa ɾan 
രചന	ɾa t͡ʃa na 
രജനശ്രീ	ɾa ɟa na ʃriː 
രജനി	ɾa ɟa ni 
രജനിമോൾ	ɾa ɟa ni moːɭ 
രജനീഷ്	ɾa ɟa niː ʂə 
രജി	ɾa ɟi 
രജികുമാർ	ɾa ɟi ku maːr 
രജിത	ɾa ɟi t̪a 
രജിത്	ɾa ɟi t̪ə 
രജിത്ത്	ɾa ɟi t̪t̪ə 
രജിന	ɾa ɟi na 
രജിനി	ɾa ɟi ni 
രജിൻ	ɾa ɟin 
രജിമോൻ	ɾa ɟi moːn 
രജിമോൾ	ɾa ɟi moːɭ 
രജില	ɾa ɟi la 
രജിഷ	ɾa ɟi ʂa 
രജീഷ്	ɾa ɟiː ʂə 
രഞ്ചൻ	ɾa ɲt͡ʃan 
രഞ്ചിത്ത്	ɾa ɲt͡ʃi t̪t̪ə 
രഞ്ചു	ɾa ɲt͡ʃu 
രഞ്ജൻ	ɾa ɲɟan 
രഞ്ജി	ɾa ɲɟi 
രഞ്ജിത	ɾa ɲɟi t̪a 
രഞ്ജിത്	ɾa ɲɟi t̪ə 
രഞ്ജിത്ത്	ɾa ɲɟi t̪t̪ə 
രഞ്ജിനി	ɾa ɲɟi ni 
രഞ്ജു	ɾa ɲɟu 
രഞ്ജുഷ	ɾa ɲɟu ʂa 
രൺജിത്	ɾaɳ ɟi t̪ə 
രതി	ɾa t̪i 
രതിക	ɾa t̪i ka 
രതീദേവി	ɾa t̪iː d̪eː ʋi 
രതീശൻ	ɾa t̪iː ʃan 
രതീഷ്	ɾa t̪iː ʂə 
രതീഷ്കുമാർ	ɾa t̪iː ʂku maːr 
രത്ന	ɾa t̪n̪a 
രത്നകുമാരി	ɾa t̪n̪a ku maː ɾi 
രത്നകുമാർ	ɾa t̪n̪a ku maːr 
രത്നമണി	ɾa t̪n̪a ma ɳi 
രത്നമയീദേവി	ɾa t̪n̪a ma jiː d̪eː ʋi 
രത്നം	ɾa t̪n̪am 
രത്നമ്മ	ɾa t̪n̪a mma 
രത്നവല്ലി	ɾa t̪n̪a ʋa lli 
രത്നാകരൻ	ɾa t̪n̪aː ka ɾan 
രത്നാവതി	ɾa t̪n̪aː ʋa t̪i 
രനീഷ്	ɾa niː ʂə 
രമ	ɾa ma 
രമണൻ	ɾa ma ɳan 
രമണി	ɾa ma ɳi 
രമണിയമ്മ	ɾa ma ɳi ja mma 
രമാ	ɾa maː 
രമാദേവി	ɾa maː d̪eː ʋi 
രമാഭായി	ɾa maː bʱaː ji 
രമാവതി	ɾa maː ʋa t̪i 
രമാവൈദ്യനാഥൻ	ɾa maː ʋai̯ d̪ja naː t̪ʰan 
രമിത	ɾa mi t̪a 
രമൃ	ɾa mrɨ 
രമേശൻ	ɾa meː ʃan 
രമേശ്	ɾa meː ʃə 
രമേഷ്	ɾa meː ʂə 
രമേഷ്കുമാർ	ɾa meː ʂku maːr 
രംഭ	ɾam bʱa 
രമ്യ	ɾa mja 
രമ്യമോൾ	ɾa mja moːɭ 
രമ്യാ	ɾa mjaː 
രമ്യാമോൾ	ɾa mjaː moːɭ 
രവി	ɾa ʋi 
രവികുമാർ	ɾa ʋi ku maːr 
രവിചന്ദ്രൻ	ɾa ʋi t͡ʃa n̪d̪ɾan 
രവീന്ദ്ര	ɾa ʋiː n̪d̪ɾa 
രവീന്ദ്രനാഥൻ	ɾa ʋiː n̪d̪ɾa naː t̪ʰan 
രവീന്ദ്രനാഥ്	ɾa ʋiː n̪d̪ɾa naː t̪ʰə 
രവീന്ദ്രൻ	ɾa ʋiː n̪d̪ɾan 
രവീന്ദ്രൻനായർ	ɾa ʋiː n̪d̪ɾan naː jar 
രവീന്ദ്രൻപിള്ള	ɾa ʋiː n̪d̪ɾan pi ɭɭa 
രശ്മി	ɾa ʃmi 
രഷ്മി	ɾa ʂmi 
രസിത	ɾa si t̪a 
രസ്ന	ɾa sna 
രഹന	ɾa ɦa na 
രഹ്ന	ɾa ɦn̪a 
രാകേഷ്	ɾaː keː ʂə 
രാഖി	ɾaː kʰi 
രാഗി	ɾaː ɡi 
രാഗിണി	ɾaː ɡi ɳi 
രാഗേഷ്	ɾaː ɡeː ʂə 
രാഗ്സാഗർ	ɾaː ɡsaː ɡar 
രാഘവൻ	ɾaː ɡʱa ʋan 
രാജ	ɾaː ɟa 
രാജകുമാരൻ	ɾaː ɟa ku maː ɾan 
രാജകുമാരി	ɾaː ɟa ku maː ɾi 
രാജഗോപാലൻ	ɾaː ɟa ɡoː paː lan 
രാജഗോപാലാചാരി	ɾaː ɟa ɡoː paː laː t͡ʃaː ɾi 
രാജഗോപാൽ	ɾaː ɟa ɡoː paːl 
രാജൻ	ɾaː ɟan 
രാജപ്പൻ	ɾaː ɟa ppan 
രാജമണി	ɾaː ɟa ma ɳi 
രാജം	ɾaː ɟam 
രാജമ്മ	ɾaː ɟa mma 
രാജമ്മാൾ	ɾaː ɟa mmaːɭ 
രാജയ്യൻ	ɾaː ɟa jjan 
രാജലക്ഷ്മി	ɾaː ɟa la kʂmi 
രാജശേഖരൻ	ɾaː ɟa ʃeː kʰa ɾan 
രാജശ്രീ	ɾaː ɟa ʃriː 
രാജാ	ɾaː ɟaː 
രാജാമണി	ɾaː ɟaː ma ɳi 
രാജി	ɾaː ɟi 
രാജിനി	ɾaː ɟi ni 
രാജിമോൾ	ɾaː ɟi moːɭ 
രാജീവൻ	ɾaː ɟiː ʋan 
രാജീവ്	ɾaː ɟiː ʋə 
രാജീവ്കുമാർ	ɾaː ɟiː ʋku maːr 
രാജു	ɾaː ɟu 
രാജൂ	ɾaː ɟuː 
രാജേന്ദ്ര	ɾaː ɟeː n̪d̪ɾa 
രാജേന്ദ്രൻ	ɾaː ɟeː n̪d̪ɾan 
രാജേന്ദ്രൻപിള്ള	ɾaː ɟeː n̪d̪ɾan pi ɭɭa 
രാജേന്ദ്രപ്രസാദ്	ɾaː ɟeː n̪d̪ɾa pra saː d̪ə 
രാജേശ്വരി	ɾaː ɟeː ʃʋa ɾi 
രാജേഷ്	ɾaː ɟeː ʂə 
രാജേഷ്കുമാർ	ɾaː ɟeː ʂku maːr 
രാജ്	ɾaː ɟə 
രാജ്കുമാർ	ɾaː ɟku maːr 
രാജ്മോഹൻ	ɾaː ɟmoː ɦan 
രാധ	ɾaː d̪ʱa 
രാധകൃഷ്ണൻ	ɾaː d̪ʱa krɨ ʂɳan 
രാധമ്മ	ɾaː d̪ʱa mma 
രാധാ	ɾaː d̪ʱaː 
രാധാകൃഷ്ണ	ɾaː d̪ʱaː krɨ ʂɳa 
രാധാകൃഷ്ണൻ	ɾaː d̪ʱaː krɨ ʂɳan 
രാധാകൃഷ്ണൻനായർ	ɾaː d̪ʱaː krɨ ʂɳan naː jar 
രാധാകൃഷ്ണപിള്ള	ɾaː d̪ʱaː krɨ ʂɳa pi ɭɭa 
രാധാദേവി	ɾaː d̪ʱaː d̪eː ʋi 
രാധാമണി	ɾaː d̪ʱaː ma ɳi 
രാധാമണിയമ്മ	ɾaː d̪ʱaː ma ɳi ja mma 
രാധിക	ɾaː d̪ʱi ka 
രാമ	ɾaː ma 
രാമകൃഷ്ണ	ɾaː ma krɨ ʂɳa 
രാമകൃഷ്ണൻ	ɾaː ma krɨ ʂɳan 
രാമകൃഷ്ണപിള്ള	ɾaː ma krɨ ʂɳa pi ɭɭa 
രാമചന്ദ്ര	ɾaː ma t͡ʃa n̪d̪ɾa 
രാമചന്ദ്രൻ	ɾaː ma t͡ʃa n̪d̪ɾan 
രാമചന്ദ്രൻനായർ	ɾaː ma t͡ʃa n̪d̪ɾan naː jar 
രാമചന്ദ്രൻപിള്ള	ɾaː ma t͡ʃa n̪d̪ɾan pi ɭɭa 
രാമദാസൻ	ɾaː ma d̪aː san 
രാമദാസ്	ɾaː ma d̪aː sə 
രാമനാഥൻ	ɾaː ma naː t̪ʰan 
രാമനുണ്ണി	ɾaː ma nu ɳɳi 
രാമൻ	ɾaː man 
രാമൻകുട്ടി	ɾaː man ku ʈʈi 
രാമശ്ശാര്	ɾaː ma ʃʃaː ɾə 
രാമശ്ശാർ	ɾaː ma ʃʃaːr 
രാമസ്വാമി	ɾaː ma sʋaː mi 
രാമാനന്ദ്	ɾaː maː na n̪d̪ə 
രാമു	ɾaː mu 
രാംകുമാർ	ɾaːm ku maːr 
രാംദാസ്	ɾaːm d̪aː sə 
രാവണൻ	ɾaː ʋa ɳan 
രാഹുൽ	ɾaː ɦul 
രാഹുൽഗാന്ധി	ɾaː ɦul ɡaː n̪d̪ʱi 
രുഗ്മണി	ɾu ɡma ɳi 
രുഗ്മിണി	ɾu ɡmi ɳi 
രുഗ്മിണിയമ്മ	ɾu ɡmi ɳi ja mma 
രൂപ	ɾuː pa 
രൂപേഷ്	ɾuː peː ʂə 
രെഹ്ന	ɾe ɦn̪a 
രേഖ	ɾeː kʰa 
രേഖാ	ɾeː kʰaː 
രേണു	ɾeː ɳu 
രേണുക	ɾeː ɳu ka 
രേണുകാദേവി	ɾeː ɳu kaː d̪eː ʋi 
രേവതി	ɾeː ʋa t̪i 
രേവമ്മ	ɾeː ʋa mma 
രേഷ്മ	ɾeː ʂma 
രേഷ്മാ	ɾeː ʂmaː 
രോഷ്ന	ɾoː ʂn̪a 
രോഷ്നി	ɾoː ʂn̪i 
രോഹിണി	ɾoː ɦi ɳi 
രോഹിത്	ɾoː ɦi t̪ə 
രോഹിത്ത്	ɾoː ɦi t̪t̪ə 
ല	la 
ലക്ഷമി	la kʂa mi 
ലക്ഷ്മണൻ	la kʂma ɳan 
ലക്ഷ്മി	la kʂmi 
ലക്ഷ്മിഅമ്മ	la kʂmi a mma 
ലക്ഷ്മികുട്ടി	la kʂmi ku ʈʈi 
ലക്ഷ്മികുട്ടിയമ്മ	la kʂmi ku ʈʈi ja mma 
ലക്ഷ്മിക്കുട്ടി	la kʂmi kku ʈʈi 
ലക്ഷ്മിക്കുട്ടിയമ്മ	la kʂmi kku ʈʈi ja mma 
ലക്ഷ്മിയമ്മ	la kʂmi ja mma 
ലജ്പത്	la ɟpa t̪ə 
ലത	la t̪a 
ലതകുമാരി	la t̪a ku maː ɾi 
ലതാ	la t̪aː 
ലതാകുമാരി	la t̪aː ku maː ɾi 
ലതിക	la t̪i ka 
ലതീഷ്	la t̪iː ʂə 
ലത്തീഫ	la t̪t̪iː fa 
ലത്തീഫാബീവി	la t̪t̪iː faː biː ʋi 
ലത്തീഫ്	la t̪t̪iː fə 
ലബീബ്	la biː bə 
ലം	lam 
ലയ	la ja 
ലസിത	la si t̪a 
ലളിത	la ɭi t̪a 
ലളിതകുമാരി	la ɭi t̪a ku maː ɾi 
ലളിതമ്മ	la ɭi t̪a mma 
ലളിതാഭായി	la ɭi t̪aː bʱaː ji 
ലളിതാംബിക	la ɭi t̪aːm bi ka 
ലാൻഡ്	laːn ɖə 
ലാലൻ	laː lan 
ലാലാ	laː laː 
ലാലി	laː li 
ലാലു	laː lu 
ലാൽ	laːl 
ലാവണ്യ	laː ʋa ɳja 
ലാസർ	laː sar 
ലിജ	li ɟa 
ലിജി	li ɟi 
ലിജിത	li ɟi t̪a 
ലിജിന	li ɟi na 
ലിജിൻ	li ɟin 
ലിജിമോൾ	li ɟi moːɭ 
ലിജീഷ്	li ɟiː ʂə 
ലിജു	li ɟu 
ലിജേഷ്	li ɟeː ʂə 
ലിജൊ	li ɟo 
ലിജോ	li ɟoː 
ലിഡിയ	li ɖi ja 
ലിനസ്	li na sə 
ലിനി	li ni 
ലിനീഷ്	li niː ʂə 
ലിനു	li nu 
ലിൻ	lin 
ലിൻഡ	lin ɖa 
ലിൻസി	lin si 
ലിന്റ	li nṯa 
ലിന്റാ	li nṯaː 
ലിന്റോ	li nṯoː 
ലിബി	li bi 
ലിബിൻ	li bin 
ലിമ	li ma 
ലിയ	li ja 
ലിയോ	li joː 
ലില്ലി	li lli 
ലില്ലിക്കുട്ടി	li lli kku ʈʈi 
ലിഷ	li ʂa 
ലിസ	li sa 
ലിസമ്മ	li sa mma 
ലിസി	li si 
ലിസ്സി	li ssi 
ലിറ്റി	li ṯṯi 
ലീന	liː na 
ലീനാ	liː naː 
ലീമ	liː ma 
ലീല	liː la 
ലീലമ്മ	liː la mma 
ലീലാ	liː laː 
ലീലാകുമാരി	liː laː ku maː ɾi 
ലീലാഭായി	liː laː bʱaː ji 
ലീലാമണി	liː laː ma ɳi 
ലീലാമണിയമ്മ	liː laː ma ɳi ja mma 
ലീലാമ്മ	liː laː mma 
ലീലാവതി	liː laː ʋa t̪i 
ലുബ്ന	lu bn̪a 
ലൂക്കോസ്	luː kkoː sə 
ലൂയിസ്	luː ji sə 
ലൂസി	luː si 
ലെനിൻ	le nin 
ലേഖ	leː kʰa 
ലൈജു	lai̯ ɟu 
ലൈല	lai̯ la 
ലൈലാ	lai̯ laː 
ലൈലാബി	lai̯ laː bi 
ലൈലാബീവി	lai̯ laː biː ʋi 
ലൈസ	lai̯ sa 
ലൈസമ്മ	lai̯ sa mma 
ലൈസാമ്മ	lai̯ saː mma 
ലോനപ്പൻ	loː na ppan 
ലോപ്പസ്	loː ppa sə 
ലോല	loː la 
ലോലൻ	loː lan 
ലോഹിതാക്ഷൻ	loː ɦi t̪aː kʂan 
ലോറൻസ്	loː ran sə 
ലൗലി	lau̯ li 
വക്കം	ʋa kkam 
വത്സ	ʋa t̪sa 
വത്സൻ	ʋa t̪san 
വത്സമ്മ	ʋa t̪sa mma 
വത്സല	ʋa t̪sa la 
വത്സലകുമാരി	ʋa t̪sa la ku maː ɾi 
വത്സലൻ	ʋa t̪sa lan 
വനജ	ʋa na ɟa 
വനജകുമാരി	ʋa na ɟa ku maː ɾi 
വനജാക്ഷി	ʋa na ɟaː kʂi 
വനിത	ʋa ni t̪a 
വന്ദന	ʋa n̪d̪a na 
വയാൻ	ʋa jaːn 
വരുൺ	ʋa ɾuɳ 
വർക്കി	ʋar kki 
വര്ഗീസ്	ʋa ɾɡiː sə 
വർഗീസ്	ʋar ɡiː sə 
വർഗ്ഗീസ്	ʋar ɡɡiː sə 
വർണ	ʋar ɳa 
വർമ	ʋar ma 
വർമ്മ	ʋar mma 
വർഷ	ʋar ʂa 
വല്ലി	ʋa lli 
വൽസ	ʋal sa 
വൽസൻ	ʋal san 
വൽസമ്മ	ʋal sa mma 
വൽസല	ʋal sa la 
വൽസലകുമാരി	ʋal sa la ku maː ɾi 
വസന്ത	ʋa sa n̪t̪a 
വസന്തകുമാരി	ʋa sa n̪t̪a ku maː ɾi 
വസന്തകുമാർ	ʋa sa n̪t̪a ku maːr 
വസന്തൻ	ʋa sa n̪t̪an 
വസന്തി	ʋa sa n̪t̪i 
വസുമതി	ʋa su ma t̪i 
വഹാബ്	ʋa ɦaː bə 
വഹീദ	ʋa ɦiː d̪a 
വളപ്പിൽ	ʋa ɭa ppil 
വള്ളി	ʋa ɭɭi 
വള്ളിക്കുട്ടി	ʋa ɭɭi kku ʈʈi 
വള്ളിയമ്മ	ʋa ɭɭi ja mma 
വള്ളിയമ്മാൾ	ʋa ɭɭi ja mmaːɭ 
വറീത്	ʋa riː t̪ə 
വറുഗീസ്	ʋa ru ɡiː sə 
വാഞ്ചിനാഥൻ	ʋaː ɲt͡ʃi naː t̪ʰan 
വാണി	ʋaː ɳi 
വാന	ʋaː na 
വാൻ	ʋaːn 
വാമദേവൻ	ʋaː ma d̪eː ʋan 
വാരസ്യാർ	ʋaː ɾa sjaːr 
വാരിയൻ	ʋaː ɾi jan 
വാരിയർ	ʋaː ɾi jar 
വാര്യർ	ʋaː ɾjar 
വാസന്തി	ʋaː sa n̪t̪i 
വാസവൻ	ʋaː sa ʋan 
വാസു	ʋaː su 
വാസുദേവൻ	ʋaː su d̪eː ʋan 
വാസുദേവ്	ʋaː su d̪eː ʋə 
വാഹിദ	ʋaː ɦi d̪a 
വാഹിദ്	ʋaː ɦi d̪ə 
വാൾട്ടർ	ʋaːɭ ʈʈar 
വികാസ്	ʋi kaː sə 
വിക്ടർ	ʋi kʈar 
വിക്ടോറിയ	ʋi kʈoː ri ja 
വിക്രമൻ	ʋi kra man 
വിക്രം	ʋi kram 
വിഘ്നേഷ്	ʋi ɡʱneː ʂə 
വിചിത്ര	ʋi t͡ʃi t̪ra 
വിജയ	ʋi ɟa ja 
വിജയകുമാരൻ	ʋi ɟa ja ku maː ɾan 
വിജയകുമാരി	ʋi ɟa ja ku maː ɾi 
വിജയകുമാർ	ʋi ɟa ja ku maːr 
വിജയകൃഷ്ണൻ	ʋi ɟa ja krɨ ʂɳan 
വിജയചന്ദ്രൻ	ʋi ɟa ja t͡ʃa n̪d̪ɾan 
വിജയൻ	ʋi ɟa jan 
വിജയൻപിള്ള	ʋi ɟa jan pi ɭɭa 
വിജയപ്പൻ	ʋi ɟa ja ppan 
വിജയപ്രിയ	ʋi ɟa ja pri ja 
വിജയം	ʋi ɟa jam 
വിജയമ്മ	ʋi ɟa ja mma 
വിജയരാഘവൻ	ʋi ɟa ja ɾaː ɡʱa ʋan 
വിജയരാജൻ	ʋi ɟa ja ɾaː ɟan 
വിജയരാജ്	ʋi ɟa ja ɾaː ɟə 
വിജയലക്ഷമി	ʋi ɟa ja la kʂa mi 
വിജയലക്ഷ്മി	ʋi ɟa ja la kʂmi 
വിജയശ്രീ	ʋi ɟa ja ʃriː 
വിജയ്	ʋi ɟa jə 
വിജി	ʋi ɟi 
വിജിത	ʋi ɟi t̪a 
വിജിത്	ʋi ɟi t̪ə 
വിജിത്ത്	ʋi ɟi t̪t̪ə 
വിജിന	ʋi ɟi na 
വിജിൻ	ʋi ɟin 
വിജിമോൾ	ʋi ɟi moːɭ 
വിജില	ʋi ɟi la 
വിജിൽ	ʋi ɟil 
വിജിഷ	ʋi ɟi ʂa 
വിജീഷ്	ʋi ɟiː ʂə 
വിജു	ʋi ɟu 
വിജേഷ്	ʋi ɟeː ʂə 
വിത്സൻ	ʋi t̪san 
വിദ്യ	ʋi d̪ja 
വിദ്യാ	ʋi d̪jaː 
വിദ്യാധരൻ	ʋi d̪jaː d̪ʱa ɾan 
വിധു	ʋi d̪ʱu 
വിനയ	ʋi na ja 
വിനയകുമാർ	ʋi na ja ku maːr 
വിനയൻ	ʋi na jan 
വിനയ്	ʋi na jə 
വിനായക്	ʋi naː ja kə 
വിനി	ʋi ni 
വിനിത	ʋi ni t̪a 
വിനിൽ	ʋi nil 
വിനിഷ	ʋi ni ʂa 
വിനീത	ʋi niː t̪a 
വിനീത്	ʋi niː t̪ə 
വിനീഷ	ʋi niː ʂa 
വിനീഷ്	ʋi niː ʂə 
വിനു	ʋi nu 
വിനുകുമാർ	ʋi nu ku maːr 
വിനേഷ്	ʋi neː ʂə 
വിനോജ്	ʋi noː ɟə 
വിനോദൻ	ʋi noː d̪an 
വിനോദിനി	ʋi noː d̪i ni 
വിനോദ്	ʋi noː d̪ə 
വിനോദ്കുമാർ	ʋi noː d̪ku maːr 
വിനോയ്	ʋi noː jə 
വിൻ	ʋin 
വിന്നി	ʋi n̪n̪i 
വിൻസന്റ്	ʋin sa nṯə 
വിൻസി	ʋin si 
വിൻസെന്റ്	ʋin se nṯə 
വിപി	ʋi pi 
വിപിന	ʋi pi na 
വിപിൻ	ʋi pin 
വിപിൻകുമാർ	ʋi pin ku maːr 
വിപിൻദാസ്	ʋi pin d̪aː sə 
വിബിത	ʋi bi t̪a 
വിബിൻ	ʋi bin 
വിബീഷ്	ʋi biː ʂə 
വിഭീഷണൻ	ʋi bʱiː ʂa ɳan 
വിമല	ʋi ma la 
വിമലകുമാരി	ʋi ma la ku maː ɾi 
വിമൽ	ʋi mal 
വിമൽകുമാർ	ʋi mal ku maːr 
വിരാട്	ʋi ɾaː ʈə 
വിരോണി	ʋi ɾoː ɳi 
വിലാസിനി	ʋi laː si ni 
വിലാസിനിയമ്മ	ʋi laː si ni ja mma 
വിൽഫ്രഡ്	ʋil fra ɖə 
വില്യം	ʋi ljam 
വില്ല്യം	ʋi lljam 
വില്ല്യംസ്	ʋi lljam sə 
വിൽസൺ	ʋil saɳ 
വിൽസൻ	ʋil san 
വിവേകാനന്ദൻ	ʋi ʋeː kaː na n̪d̪an 
വിവേക്	ʋi ʋeː kə 
വിശാഖ്	ʋi ʃaː kʰə 
വിശാലാക്ഷി	ʋi ʃaː laː kʂi 
വിശാൽ	ʋi ʃaːl 
വിശ്വനാഥ	ʋi ʃʋa naː t̪ʰa 
വിശ്വനാഥൻ	ʋi ʃʋa naː t̪ʰan 
വിശ്വനാഥ്	ʋi ʃʋa naː t̪ʰə 
വിശ്വൻ	ʋi ʃʋan 
വിശ്വം	ʋi ʃʋam 
വിശ്വംഭരൻ	ʋi ʃʋam bʱa ɾan 
വിഷ്‌ണു	ʋi ʂ ɳu 
വിഷ്ണു	ʋi ʂɳu 
വിഷ്ണുജ	ʋi ʂɳu ɟa 
വിഷ്ണുദാസ്	ʋi ʂɳu d̪aː sə 
വിഷ്ണുപ്രസാദ്	ʋi ʂɳu pra saː d̪ə 
വിഷ്ണുപ്രിയ	ʋi ʂɳu pri ja 
വിഷ്ണുരാജ്	ʋi ʂɳu ɾaː ɟə 
വിസ്മയ	ʋi sma ja 
വീട്ടിൽ	ʋiː ʈʈil 
വീണ	ʋiː ɳa 
വീണാ	ʋiː ɳaː 
വീരാൻ	ʋiː ɾaːn 
വീരാൻകുട്ടി	ʋiː ɾaːn ku ʈʈi 
വൃന്ദ	ʋrɨ n̪d̪a 
വെങ്കിട്ടരാമൻ	ʋe ŋki ʈʈa ɾaː man 
വെള്ള	ʋe ɭɭa 
വെള്ളക്കുട്ടി	ʋe ɭɭa kku ʈʈi 
വെള്ളച്ചി	ʋe ɭɭa t͡ʃt͡ʃi 
വെള്ളൻ	ʋe ɭɭan 
വെറോനിക്ക	ʋe roː ni kka 
വേണു	ʋeː ɳu 
വേണുഗോപാലൻ	ʋeː ɳu ɡoː paː lan 
വേണുഗോപാൽ	ʋeː ɳu ɡoː paːl 
വേലപ്പൻ	ʋeː la ppan 
വേലായുധൻ	ʋeː laː ju d̪ʱan 
വേലു	ʋeː lu 
വേലുക്കുട്ടി	ʋeː lu kku ʈʈi 
വേശു	ʋeː ʃu 
വൈഗ	ʋai̯ ɡa 
വൈശാഖൻ	ʋai̯ ʃaː kʰan 
വൈശാഖ്	ʋai̯ ʃaː kʰə 
വൈഷ്ണവി	ʋai̯ ʂɳa ʋi 
വൈഷ്ണവ്	ʋai̯ ʂɳa ʋə 
വോൺ	ʋoːɳ 
വ്യാസ്	ʋjaː sə 
ശകുന്തള	ʃa ku n̪t̪a ɭa 
ശക്തിവേൽ	ʃa kt̪i ʋeːl 
ശങ്കര	ʃa ŋka ɾa 
ശങ്കരനാരായണൻ	ʃa ŋka ɾa naː ɾaː ja ɳan 
ശങ്കരൻ	ʃa ŋka ɾan 
ശങ്കരൻകുട്ടി	ʃa ŋka ɾan ku ʈʈi 
ശങ്കരി	ʃa ŋka ɾi 
ശങ്കർ	ʃa ŋkar 
ശങ്കുണ്ണി	ʃa ŋku ɳɳi 
ശഫീഖ്	ʃa fiː kʰə 
ശബരി	ʃa ba ɾi 
ശബരീഷ്	ʃa ba ɾiː ʂə 
ശബാന	ʃa baː na 
ശബീർ	ʃa biːr 
ശബ്ന	ʃa bn̪a 
ശമുവേൽ	ʃa mu ʋeːl 
ശംഭു	ʃam bʱu 
ശംസുദ്ദീൻ	ʃam su d̪d̪iːn 
ശരണൃ	ʃa ɾa ɳrɨ 
ശരൺ	ʃa ɾaɳ 
ശരണ്യ	ʃa ɾa ɳja 
ശരണ്യാ	ʃa ɾa ɳjaː 
ശരത്	ʃa ɾa t̪ə 
ശരത്കുമാർ	ʃa ɾa t̪ku maːr 
ശരത്ചന്ദ്രൻ	ʃa ɾa t̪t͡ʃa n̪d̪ɾan 
ശരത്ത്	ʃa ɾa t̪t̪ə 
ശരവണൻ	ʃa ɾa ʋa ɳan 
ശരീഫ	ʃa ɾiː fa 
ശരീഫ്	ʃa ɾiː fə 
ശർമ	ʃar ma 
ശർമിഷ്ഠ	ʃar mi ʂʈʰa 
ശർമ്മ	ʃar mma 
ശശാങ്കൻ	ʃa ʃaː ŋkan 
ശശി	ʃa ʃi 
ശശികല	ʃa ʃi ka la 
ശശികുമാർ	ʃa ʃi ku maːr 
ശശിധരൻ	ʃa ʃi d̪ʱa ɾan 
ശശിധരൻനായർ	ʃa ʃi d̪ʱa ɾan naː jar 
ശശിധരൻപിള്ള	ʃa ʃi d̪ʱa ɾan pi ɭɭa 
ശശിനാസ്	ʃa ʃi naː sə 
ശശീധരൻ	ʃa ʃiː d̪ʱa ɾan 
ശശീന്ദ്രൻ	ʃa ʃiː n̪d̪ɾan 
ശറഫുദ്ദീൻ	ʃa ra fu d̪d̪iːn 
ശാന്ത	ʃaː n̪t̪a 
ശാന്തകുമാരി	ʃaː n̪t̪a ku maː ɾi 
ശാന്തകുമാരിയമ്മ	ʃaː n̪t̪a ku maː ɾi ja mma 
ശാന്തകുമാർ	ʃaː n̪t̪a ku maːr 
ശാന്തമ്മ	ʃaː n̪t̪a mma 
ശാന്തി	ʃaː n̪t̪i 
ശാന്തിനി	ʃaː n̪t̪i ni 
ശാഫി	ʃaː fi 
ശാമുവൽ	ʃaː mu ʋal 
ശാമുവേൽ	ʃaː mu ʋeːl 
ശാരദ	ʃaː ɾa d̪a 
ശാരദാമ്മ	ʃaː ɾa d̪aː mma 
ശാരി	ʃaː ɾi 
ശാരിക	ʃaː ɾi ka 
ശാലി	ʃaː li 
ശാലിനി	ʃaː li ni 
ശാലു	ʃaː lu 
ശാഹിദ	ʃaː ɦi d̪a 
ശിഖ	ʃi kʰa 
ശില്പ	ʃi lpa 
ശിൽപ	ʃil pa 
ശിവ	ʃi ʋa 
ശിവകാമി	ʃi ʋa kaː mi 
ശിവകുമാർ	ʃi ʋa ku maːr 
ശിവദാസൻ	ʃi ʋa d̪aː san 
ശിവദാസ്	ʃi ʋa d̪aː sə 
ശിവൻ	ʃi ʋan 
ശിവൻകുട്ടി	ʃi ʋan ku ʈʈi 
ശിവപ്രകാശ്	ʃi ʋa pra kaː ʃə 
ശിവപ്രസാദ്	ʃi ʋa pra saː d̪ə 
ശിവപ്രിയ	ʃi ʋa pri ja 
ശിവരാജൻ	ʃi ʋa ɾaː ɟan 
ശിവരാജ്	ʃi ʋa ɾaː ɟə 
ശിവരാമൻ	ʃi ʋa ɾaː man 
ശിവശങ്കരൻ	ʃi ʋa ʃa ŋka ɾan 
ശിവശങ്കരപിള്ള	ʃi ʋa ʃa ŋka ɾa pi ɭɭa 
ശിവശങ്കരപ്പിള്ള	ʃi ʋa ʃa ŋka ɾa ppi ɭɭa 
ശിവശങ്കർ	ʃi ʋa ʃa ŋkar 
ശിവാനന്ദൻ	ʃi ʋaː na n̪d̪an 
ശിശിര	ʃi ʃi ɾa 
ശിശുപാലൻ	ʃi ʃu paː lan 
ശിഹാബുദ്ദീൻ	ʃi ɦaː bu d̪d̪iːn 
ശിഹാബുദ്ധീൻ	ʃi ɦaː bu d̪d̪ʱiːn 
ശിഹാബ്	ʃi ɦaː bə 
ശീതൾ	ʃiː t̪aɭ 
ശുക്ല	ʃu kla 
ശുഭ	ʃu bʱa 
ശുഹൈബ്	ʃu ɦai̯ bə 
ശെമ്മാശൻ	ʃe mmaː ʃan 
ശെൽവൻ	ʃel ʋan 
ശെൽവം	ʃel ʋam 
ശെൽവരാജ്	ʃel ʋa ɾaː ɟə 
ശെൽവി	ʃel ʋi 
ശേഖരൻ	ʃeː kʰa ɾan 
ശേഖർ	ʃeː kʰar 
ശൈലജ	ʃai̯ la ɟa 
ശൈലേഷ്	ʃai̯ leː ʂə 
ശോണിമ	ʃoː ɳi ma 
ശോഭ	ʃoː bʱa 
ശോഭന	ʃoː bʱa na 
ശോഭനകുമാരി	ʃoː bʱa na ku maː ɾi 
ശോഭി	ʃoː bʱi 
ശോഭിത	ʃoː bʱi t̪a 
ശോശാമ്മ	ʃoː ʃaː mma 
ശ്യാമ	ʃjaː ma 
ശ്യാമള	ʃjaː ma ɭa 
ശ്യാമളകുമാരി	ʃjaː ma ɭa ku maː ɾi 
ശ്യാമളാദേവി	ʃjaː ma ɭaː d̪eː ʋi 
ശ്യാമിലി	ʃjaː mi li 
ശ്യാം	ʃjaːm 
ശ്യാംകുമാർ	ʃjaːm ku maːr 
ശ്യാംജിത്ത്	ʃjaːm ɟi t̪t̪ə 
ശ്യാംലാൽ	ʃjaːm laːl 
ശ്രാവൺ	ʃraː ʋaɳ 
ശ്രീ	ʃriː 
ശ്രീകണ്ഠൻ	ʃriː ka ɳʈʰan 
ശ്രീകല	ʃriː ka la 
ശ്രീകാന്ത്	ʃriː kaː n̪t̪ə 
ശ്രീകുമാരൻ	ʃriː ku maː ɾan 
ശ്രീകുമാരി	ʃriː ku maː ɾi 
ശ്രീകുമാർ	ʃriː ku maːr 
ശ്രീക്കുട്ടൻ	ʃriː kku ʈʈan 
ശ്രീക്കുട്ടി	ʃriː kku ʈʈi 
ശ്രീചിത്രൻ	ʃriː t͡ʃi t̪ran 
ശ്രീജ	ʃriː ɟa 
ശ്രീജയ	ʃriː ɟa ja 
ശ്രീജാ	ʃriː ɟaː 
ശ്രീജാമോൾ	ʃriː ɟaː moːɭ 
ശ്രീജി	ʃriː ɟi 
ശ്രീജിത	ʃriː ɟi t̪a 
ശ്രീജിത്	ʃriː ɟi t̪ə 
ശ്രീജിത്ത്	ʃriː ɟi t̪t̪ə 
ശ്രീജിഷ	ʃriː ɟi ʂa 
ശ്രീജു	ʃriː ɟu 
ശ്രീജേഷ്	ʃriː ɟeː ʂə 
ശ്രീതു	ʃriː t̪u 
ശ്രീദേവി	ʃriː d̪eː ʋi 
ശ്രീദേവിയമ്മ	ʃriː d̪eː ʋi ja mma 
ശ്രീധരൻ	ʃriː d̪ʱa ɾan 
ശ്രീധർ	ʃriː d̪ʱar 
ശ്രീന	ʃriː na 
ശ്രീനന്ദ	ʃriː na n̪d̪a 
ശ്രീനാഥ്	ʃriː naː t̪ʰə 
ശ്രീനി	ʃriː ni 
ശ്രീനിവാസൻ	ʃriː ni ʋaː san 
ശ്രീനിവാസ്	ʃriː ni ʋaː sə 
ശ്രീപ്രിയ	ʃriː pri ja 
ശ്രീമതി	ʃriː ma t̪i 
ശ്രീമാധവ്	ʃriː maː d̪ʱa ʋə 
ശ്രീമോൻ	ʃriː moːn 
ശ്രീമോൾ	ʃriː moːɭ 
ശ്രീരഞ്ജിനി	ʃriː ɾa ɲɟi ni 
ശ്രീരാഗ്	ʃriː ɾaː ɡə 
ശ്രീരാജ്	ʃriː ɾaː ɟə 
ശ്രീരാമകൃഷ്ണൻ	ʃriː ɾaː ma krɨ ʂɳan 
ശ്രീരാമചന്ദ്രൻ	ʃriː ɾaː ma t͡ʃa n̪d̪ɾan 
ശ്രീരാമൻ	ʃriː ɾaː man 
ശ്രീരാം	ʃriː ɾaːm 
ശ്രീരേഖ	ʃriː ɾeː kʰa 
ശ്രീല	ʃriː la 
ശ്രീലക്ഷമി	ʃriː la kʂa mi 
ശ്രീലക്ഷ്മി	ʃriː la kʂmi 
ശ്രീലത	ʃriː la t̪a 
ശ്രീലാൽ	ʃriː laːl 
ശ്രീലേഖ	ʃriː leː kʰa 
ശ്രീലേഷ്	ʃriː leː ʂə 
ശ്രീവത്സൻ	ʃriː ʋa t̪san 
ശ്രീവിദ്യ	ʃriː ʋi d̪ja 
ശ്രീഷ	ʃriː ʂa 
ശ്രീഷ്മ	ʃriː ʂma 
ശ്രീഹരി	ʃriː ɦa ɾi 
ശ്രുതി	ʃru t̪i 
ശ്രുതിമോൾ	ʃru t̪i moːɭ 
ശ്രേയ	ʃreː ja 
ശ്രേയസ്	ʃreː ja sə 
ശ്വേത	ʃʋeː t̪a 
ഷക്കീന	ʂa kkiː na 
ഷക്കീർ	ʂa kkiːr 
ഷക്കീല	ʂa kkiː la 
ഷജിന	ʂa ɟi na 
ഷജില	ʂa ɟi la 
ഷജീന	ʂa ɟiː na 
ഷജീർ	ʂa ɟiːr 
ഷജീല	ʂa ɟiː la 
ഷൺമുഖൻ	ʂaɳ mu kʰan 
ഷനിൽ	ʂa nil 
ഷനൂജ	ʂa nuː ɟa 
ഷനോജ്	ʂa noː ɟə 
ഷഫീക്	ʂa fiː kə 
ഷഫീക്ക്	ʂa fiː kkə 
ഷഫീഖ്	ʂa fiː kʰə 
ഷഫീന	ʂa fiː na 
ഷഫീർ	ʂa fiːr 
ഷഫ്ന	ʂa fn̪a 
ഷബാന	ʂa baː na 
ഷബിന	ʂa bi na 
ഷബിൻ	ʂa bin 
ഷബീന	ʂa biː na 
ഷബീബ	ʂa biː ba 
ഷബീബ്	ʂa biː bə 
ഷബീർ	ʂa biːr 
ഷബീറലി	ʂa biː ra li 
ഷബ്ന	ʂa bn̪a 
ഷമീന	ʂa miː na 
ഷമീമ	ʂa miː ma 
ഷമീം	ʂa miːm 
ഷമീർ	ʂa miːr 
ഷമീല	ʂa miː la 
ഷമീൽ	ʂa miːl 
ഷമീറ	ʂa miː ra 
ഷംന	ʂam na 
ഷംനാദ്	ʂam naː d̪ə 
ഷംനാസ്	ʂam naː sə 
ഷമ്മി	ʂa mmi 
ഷംല	ʂam la 
ഷംഷാദ്	ʂam ʂaː d̪ə 
ഷംസാദ്	ʂam saː d̪ə 
ഷംസിയ	ʂam si ja 
ഷംസീന	ʂam siː na 
ഷംസീർ	ʂam siːr 
ഷംസീറ	ʂam siː ra 
ഷംസു	ʂam su 
ഷംസുദീൻ	ʂam su d̪iːn 
ഷംസുദ്ദീൻ	ʂam su d̪d̪iːn 
ഷംസുദ്ധീൻ	ʂam su d̪d̪ʱiːn 
ഷരീഫ	ʂa ɾiː fa 
ഷരീഫാബീവി	ʂa ɾiː faː biː ʋi 
ഷരീഫ്	ʂa ɾiː fə 
ഷർമിന	ʂar mi na 
ഷർമിള	ʂar mi ɭa 
ഷർമ്മിള	ʂar mmi ɭa 
ഷഹന	ʂa ɦa na 
ഷഹനാസ്	ʂa ɦa naː sə 
ഷഹബാസ്	ʂa ɦa baː sə 
ഷഹർബാനു	ʂa ɦar baː nu 
ഷഹർബാൻ	ʂa ɦar baːn 
ഷഹല	ʂa ɦa la 
ഷഹാന	ʂa ɦaː na 
ഷഹീദ	ʂa ɦiː d̪a 
ഷഹീദ്	ʂa ɦiː d̪ə 
ഷഹീന	ʂa ɦiː na 
ഷഹീൻ	ʂa ɦiːn 
ഷഹീർ	ʂa ɦiːr 
ഷഹീറ	ʂa ɦiː ra 
ഷഹുബാനത്ത്	ʂa ɦu baː na t̪t̪ə 
ഷഹ്	ʂa ɦə 
ഷഹ്ന	ʂa ɦn̪a 
ഷറഫുദീൻ	ʂa ra fu d̪iːn 
ഷറഫുദ്ദീൻ	ʂa ra fu d̪d̪iːn 
ഷറഫുദ്ധീൻ	ʂa ra fu d̪d̪ʱiːn 
ഷറഫുന്നീസ	ʂa ra fu n̪n̪iː sa 
ഷറിൻ	ʂa rin 
ഷറീന	ʂa riː na 
ഷാ	ʂaː 
ഷാക്കിർ	ʂaː kkir 
ഷാക്കിറ	ʂaː kki ra 
ഷാജൻ	ʂaː ɟan 
ഷാജഹാൻ	ʂaː ɟa ɦaːn 
ഷാജി	ʂaː ɟi 
ഷാജികുമാർ	ʂaː ɟi ku maːr 
ഷാജിത	ʂaː ɟi t̪a 
ഷാജിദ	ʂaː ɟi d̪a 
ഷാജിമോൻ	ʂaː ɟi moːn 
ഷാജു	ʂaː ɟu 
ഷാദിയ	ʂaː d̪i ja 
ഷാന	ʂaː na 
ഷാനവാസ്	ʂaː na ʋaː sə 
ഷാനി	ʂaː ni 
ഷാനിദ	ʂaː ni d̪a 
ഷാനിദ്	ʂaː ni d̪ə 
ഷാനിഫ	ʂaː ni fa 
ഷാനിബ	ʂaː ni ba 
ഷാനിമോൾ	ʂaː ni moːɭ 
ഷാനു	ʂaː nu 
ഷാൻ	ʂaːn 
ഷാന്റി	ʂaː nṯi 
ഷാഫി	ʂaː fi 
ഷാബു	ʂaː bu 
ഷാമില	ʂaː mi la 
ഷാമിൽ	ʂaː mil 
ഷാരോൺ	ʂaː ɾoːɳ 
ഷാലറ്റ്	ʂaː la ṯṯə 
ഷാലി	ʂaː li 
ഷാലിമ	ʂaː li ma 
ഷാലു	ʂaː lu 
ഷാഹിത	ʂaː ɦi t̪a 
ഷാഹിദ	ʂaː ɦi d̪a 
ഷാഹിദാബീവി	ʂaː ɦi d̪aː biː ʋi 
ഷാഹിദ്	ʂaː ɦi d̪ə 
ഷാഹിന	ʂaː ɦi na 
ഷാഹിൻ	ʂaː ɦin 
ഷാഹിർ	ʂaː ɦir 
ഷാഹിറ	ʂaː ɦi ra 
ഷാഹുൽ	ʂaː ɦul 
ഷാഹുൽഹമീദ്	ʂaː ɦul ɦa miː d̪ə 
ഷിജ	ʂi ɟa 
ഷിജി	ʂi ɟi 
ഷിജിത	ʂi ɟi t̪a 
ഷിജിത്ത്	ʂi ɟi t̪t̪ə 
ഷിജിന	ʂi ɟi na 
ഷിജിൻ	ʂi ɟin 
ഷിജിമോൾ	ʂi ɟi moːɭ 
ഷിജില	ʂi ɟi la 
ഷിജിൽ	ʂi ɟil 
ഷിജു	ʂi ɟu 
ഷിജുമോൻ	ʂi ɟu moːn 
ഷിജോ	ʂi ɟoː 
ഷിനാസ്	ʂi naː sə 
ഷിനി	ʂi ni 
ഷിനിൽ	ʂi nil 
ഷിനു	ʂi nu 
ഷിനോ	ʂi noː 
ഷിനോജ്	ʂi noː ɟə 
ഷിനോദ്	ʂi noː d̪ə 
ഷിനോയ്	ʂi noː jə 
ഷിൻസി	ʂin si 
ഷിന്റോ	ʂi nṯoː 
ഷിഫ	ʂi fa 
ഷിഫാന	ʂi faː na 
ഷിഫാനത്ത്	ʂi faː na t̪t̪ə 
ഷിഫ്ന	ʂi fn̪a 
ഷിബി	ʂi bi 
ഷിബിന	ʂi bi na 
ഷിബിൻ	ʂi bin 
ഷിബില	ʂi bi la 
ഷിബിലി	ʂi bi li 
ഷിബിൽ	ʂi bil 
ഷിബു	ʂi bu 
ഷിബുകുമാർ	ʂi bu ku maːr 
ഷിമ	ʂi ma 
ഷിമി	ʂi mi 
ഷിംന	ʂim na 
ഷിയാസ്	ʂi jaː sə 
ഷിൽന	ʂil na 
ഷിഹാബുദീൻ	ʂi ɦaː bu d̪iːn 
ഷിഹാബുദ്ദീൻ	ʂi ɦaː bu d̪d̪iːn 
ഷിഹാബുദ്ധീൻ	ʂi ɦaː bu d̪d̪ʱiːn 
ഷിഹാബ്	ʂi ɦaː bə 
ഷിഹാസ്	ʂi ɦaː sə 
ഷിറിൻ	ʂi rin 
ഷീജ	ʂiː ɟa 
ഷീജാ	ʂiː ɟaː 
ഷീജാമോൾ	ʂiː ɟaː moːɭ 
ഷീന	ʂiː na 
ഷീനാ	ʂiː naː 
ഷീബ	ʂiː ba 
ഷീബാ	ʂiː baː 
ഷീമ	ʂiː ma 
ഷീല	ʂiː la 
ഷീലാ	ʂiː laː 
ഷീലാകുമാരി	ʂiː laː ku maː ɾi 
ഷുക്കൂർ	ʂu kkuːr 
ഷുഹൈബ്	ʂu ɦai̯ bə 
ഷൂജി	ʂuː ɟi 
ഷെട്ടി	ʂe ʈʈi 
ഷെഫിൻ	ʂe fin 
ഷെഫീക്ക്	ʂe fiː kkə 
ഷെഫീഖ്	ʂe fiː kʰə 
ഷെഫീന	ʂe fiː na 
ഷെഫീർ	ʂe fiːr 
ഷെബിൻ	ʂe bin 
ഷെബീർ	ʂe biːr 
ഷെമി	ʂe mi 
ഷെമീന	ʂe miː na 
ഷെമീമ	ʂe miː ma 
ഷെമീർ	ʂe miːr 
ഷെമീറ	ʂe miː ra 
ഷെയ്ക്ക്	ʂe jkkə 
ഷെരീഫ	ʂe ɾiː fa 
ഷെരീഫാബീവി	ʂe ɾiː faː biː ʋi 
ഷെരീഫ്	ʂe ɾiː fə 
ഷെർമാൻ	ʂer maːn 
ഷെർലി	ʂer li 
ഷെർളി	ʂer ɭi 
ഷെല്ലി	ʂe lli 
ഷെഹീർ	ʂe ɦiːr 
ഷെറി	ʂe ri 
ഷെറിൻ	ʂe rin 
ഷെറീന	ʂe riː na 
ഷെറീഫ	ʂe riː fa 
ഷെറീഫ്	ʂe riː fə 
ഷേണായി	ʂeː ɳaː ji 
ഷേണായ്	ʂeː ɳaː jə 
ഷേരു	ʂeː ɾu 
ഷേർലി	ʂeːr li 
ഷേർളി	ʂeːr ɭi 
ഷൈജ	ʂai̯ ɟa 
ഷൈജൻ	ʂai̯ ɟan 
ഷൈജി	ʂai̯ ɟi 
ഷൈജു	ʂai̯ ɟu 
ഷൈന	ʂai̯ na 
ഷൈനി	ʂai̯ ni 
ഷൈനിമോൾ	ʂai̯ ni moːɭ 
ഷൈനു	ʂai̯ nu 
ഷൈൻ	ʂai̯n 
ഷൈബ	ʂai̯ ba 
ഷൈബി	ʂai̯ bi 
ഷൈബു	ʂai̯ bu 
ഷൈമ	ʂai̯ ma 
ഷൈമോൾ	ʂai̯ moːɭ 
ഷൈല	ʂai̯ la 
ഷൈലജ	ʂai̯ la ɟa 
ഷൈലാ	ʂai̯ laː 
ഷൈലാബീവി	ʂai̯ laː biː ʋi 
ഷൈലേഷ്	ʂai̯ leː ʂə 
ഷോബി	ʂoː bi 
ഷോളി	ʂoː ɭi 
ഷൗക്കത്തലി	ʂau̯ kka t̪t̪a li 
ഷൗക്കത്ത്	ʂau̯ kka t̪t̪ə 
സക്കരിയ	sa kka ɾi ja 
സക്കറിയ	sa kka ri ja 
സക്കീന	sa kkiː na 
സക്കീർ	sa kkiːr 
സക്കീർഹുസൈൻ	sa kkiːr ɦu sai̯n 
സഖറിയ	sa kʰa ri ja 
സഗീർ	sa ɡiːr 
സച്ചിദാനന്ദൻ	sa t͡ʃt͡ʃi d̪aː na n̪d̪an 
സച്ചിൻ	sa t͡ʃt͡ʃin 
സച്ചു	sa t͡ʃt͡ʃu 
സജന	sa ɟa na 
സജൻ	sa ɟan 
സജയൻ	sa ɟa jan 
സജാദ്	sa ɟaː d̪ə 
സജി	sa ɟi 
സജികുമാർ	sa ɟi ku maːr 
സജിത	sa ɟi t̪a 
സജിതകുമാരി	sa ɟi t̪a ku maː ɾi 
സജിത്	sa ɟi t̪ə 
സജിത്കുമാർ	sa ɟi t̪ku maːr 
സജിത്ത്	sa ɟi t̪t̪ə 
സജിന	sa ɟi na 
സജിനി	sa ɟi ni 
സജിൻ	sa ɟin 
സജിമോൻ	sa ɟi moːn 
സജിമോൾ	sa ɟi moːɭ 
സജില	sa ɟi la 
സജിൽ	sa ɟil 
സജീന	sa ɟiː na 
സജീർ	sa ɟiːr 
സജീല	sa ɟiː la 
സജീവൻ	sa ɟiː ʋan 
സജീവ്	sa ɟiː ʋə 
സജീവ്കുമാർ	sa ɟiː ʋku maːr 
സജീഷ്	sa ɟiː ʂə 
സജീറ	sa ɟiː ra 
സജു	sa ɟu 
സജേഷ്	sa ɟeː ʂə 
സജ്ജാദ്	sa ɟɟaː d̪ə 
സജ്‌ന	sa ɟ na 
സജ്ന	sa ɟn̪a 
സഞ്ചു	sa ɲt͡ʃu 
സഞ്ജയ്	sa ɲɟa jə 
സഞ്ജീവ്	sa ɲɟiː ʋə 
സഞ്ജു	sa ɲɟu 
സണ്ണി	sa ɳɳi 
സതി	sa t̪i 
സതികുമാരി	sa t̪i ku maː ɾi 
സതികുമാർ	sa t̪i ku maːr 
സതിദേവി	sa t̪i d̪eː ʋi 
സതിയമ്മ	sa t̪i ja mma 
സതീദേവി	sa t̪iː d̪eː ʋi 
സതീശൻ	sa t̪iː ʃan 
സതീശ്	sa t̪iː ʃə 
സതീഷ്	sa t̪iː ʂə 
സതീഷ്കുമാർ	sa t̪iː ʂku maːr 
സതീഷ്ബാബു	sa t̪iː ʂbaː bu 
സത്താർ	sa t̪t̪aːr 
സത്ത്	sa t̪t̪ə 
സത്യ	sa t̪ja 
സത്യജിത്	sa t̪ja ɟi t̪ə 
സത്യദാസ്	sa t̪ja d̪aː sə 
സത്യദേവൻ	sa t̪ja d̪eː ʋan 
സത്യനാഥൻ	sa t̪ja naː t̪ʰan 
സത്യനാരായണൻ	sa t̪ja naː ɾaː ja ɳan 
സത്യനേശൻ	sa t̪ja neː ʃan 
സത്യൻ	sa t̪jan 
സത്യപാലൻ	sa t̪ja paː lan 
സത്യഭാമ	sa t̪ja bʱaː ma 
സത്യവതി	sa t̪ja ʋa t̪i 
സത്യശീലൻ	sa t̪ja ʃiː lan 
സദാനന്ദൻ	sa d̪aː na n̪d̪an 
സദാശിവൻ	sa d̪aː ʃi ʋan 
സന	sa na 
സനൽ	sa nal 
സനൽകുമാർ	sa nal ku maːr 
സനിത	sa ni t̪a 
സനില	sa ni la 
സനിൽ	sa nil 
സനിൽകുമാർ	sa nil ku maːr 
സനിഷ	sa ni ʂa 
സനീഷ്	sa niː ʂə 
സനു	sa nu 
സനുഷ	sa nu ʂa 
സനൂജ	sa nuː ɟa 
സനൂജ്	sa nuː ɟə 
സനൂപ്	sa nuː pə 
സനേഷ്	sa neː ʂə 
സനോജ്	sa noː ɟə 
സന്തോഷ്	sa n̪t̪oː ʂə 
സന്തോഷ്കുമാർ	sa n̪t̪oː ʂku maːr 
സന്ദീപ്	sa n̪d̪iː pə 
സന്ധ്യ	sa n̪d̪ʱja 
സന്ധ്യാ	sa n̪d̪ʱjaː 
സന്ധ്യാമോൾ	sa n̪d̪ʱjaː moːɭ 
സപ്ന	sa pna 
സഫ	sa fa 
സഫിയ	sa fi ja 
സഫിയത്ത്	sa fi ja t̪t̪ə 
സഫിയാബീവി	sa fi jaː biː ʋi 
സഫീദ	sa fiː d̪a 
സഫീന	sa fiː na 
സഫീർ	sa fiːr 
സഫീല	sa fiː la 
സഫീറ	sa fiː ra 
സഫൂറ	sa fuː ra 
സഫ്	sa fə 
സഫ്ന	sa fn̪a 
സഫ്‌വാൻ	sa f ʋaːn 
സഫ്വാൻ	sa fʋaːn 
സബാന	sa baː na 
സബി	sa bi 
സബിത	sa bi t̪a 
സബിന	sa bi na 
സബിൻ	sa bin 
സബീന	sa biː na 
സബീർ	sa biːr 
സബീല	sa biː la 
സബീഷ്	sa biː ʂə 
സബൂറ	sa buː ra 
സബ്ന	sa bn̪a 
സമദ്	sa ma d̪ə 
സമീന	sa miː na 
സമീമ	sa miː ma 
സമീർ	sa miːr 
സമീറ	sa miː ra 
സംഗീത	sam ɡiː t̪a 
സംഗീത്	sam ɡiː t̪ə 
സംഘമിത്ര	sam ɡʱa mi t̪ra 
സയന	sa ja na 
സയ്യിദ്	sa jji d̪ə 
സരസ	sa ɾa sa 
സരസൻ	sa ɾa san 
സരസമ്മ	sa ɾa sa mma 
സരസു	sa ɾa su 
സരസ്വതി	sa ɾa sʋa t̪i 
സരസ്വതിഅമ്മ	sa ɾa sʋa t̪i a mma 
സരസ്വതിയമ്മ	sa ɾa sʋa t̪i ja mma 
സരസ്സമ്മ	sa ɾa ssa mma 
സരള	sa ɾa ɭa 
സരളമ്മ	sa ɾa ɭa mma 
സരളാദേവി	sa ɾa ɭaː d̪eː ʋi 
സരിഗ	sa ɾi ɡa 
സരിത	sa ɾi t̪a 
സരിൻ	sa ɾin 
സരീഷ്	sa ɾiː ʂə 
സരുൺ	sa ɾuɳ 
സരോജ	sa ɾoː ɟa 
സരോജനി	sa ɾoː ɟa ni 
സരോജനിയമ്മ	sa ɾoː ɟa ni ja mma 
സരോജം	sa ɾoː ɟam 
സരോജിനി	sa ɾoː ɟi ni 
സരോജിനിഅമ്മ	sa ɾoː ɟi ni a mma 
സരോജിനിയമ്മ	sa ɾoː ɟi ni ja mma 
സരോജ്	sa ɾoː ɟə 
സലാം	sa laːm 
സലാഹുദീൻ	sa laː ɦu d̪iːn 
സലാഹുദ്ദീൻ	sa laː ɦu d̪d̪iːn 
സലി	sa li 
സലിം	sa lim 
സലിംകുമാർ	sa lim ku maːr 
സലില	sa li la 
സലീന	sa liː na 
സലീമ	sa liː ma 
സലീം	sa liːm 
സലീല	sa liː la 
സലീഷ്	sa liː ʂə 
സലോമി	sa loː mi 
സൽ	sal 
സൽമ	sal ma 
സൽമത്ത്	sal ma t̪t̪ə 
സൽമാനുൽ	sal maː nul 
സൽമാൻ	sal maːn 
സൽമാബി	sal maː bi 
സവാദ്	sa ʋaː d̪ə 
സവിത	sa ʋi t̪a 
സഹദേവൻ	sa ɦa d̪eː ʋan 
സഹദ്	sa ɦa d̪ə 
സഹല	sa ɦa la 
സഹൽ	sa ɦal 
സഹാന	sa ɦaː na 
സഹീദ	sa ɦiː d̪a 
സഹീദ്	sa ɦiː d̪ə 
സഹീർ	sa ɦiːr 
സഹീർഷാ	sa ɦiːr ʂaː 
സഹീറ	sa ɦiː ra 
സഹ്	sa ɦə 
സഹ്ല	sa ɦla 
സറഫുദ്ദീൻ	sa ra fu d̪d̪iːn 
സറഫുന്നീസ	sa ra fu n̪n̪iː sa 
സറീന	sa riː na 
സാഗരിക	saː ɡa ɾi ka 
സാഗർ	saː ɡar 
സാജൻ	saː ɟan 
സാജി	saː ɟi 
സാജിത	saː ɟi t̪a 
സാജിദ	saː ɟi d̪a 
സാജിദ്	saː ɟi d̪ə 
സാജിർ	saː ɟir 
സാജിറ	saː ɟi ra 
സാജു	saː ɟu 
സാത്യകി	saː t̪ja ki 
സാദത്ത്	saː d̪a t̪t̪ə 
സാദിക്	saː d̪i kə 
സാദിക്ക്	saː d̪i kkə 
സാദിഖലി	saː d̪i kʰa li 
സാദിഖ്	saː d̪i kʰə 
സാദിയ	saː d̪i ja 
സാനി	saː ni 
സാനു	saː nu 
സാൻഡേഴ്സ്	saːn ɖeː ɻsə 
സാന്ദ്ര	saː n̪d̪ɾa 
സാബിത്ത്	saː bi t̪t̪ə 
സാബിർ	saː bir 
സാബിറ	saː bi ra 
സാബു	saː bu 
സാമുവൽ	saː mu ʋal 
സാമുവേൽ	saː mu ʋeːl 
സാം	saːm 
സാംകുട്ടി	saːm ku ʈʈi 
സാംബശിവൻ	saːm ba ʃi ʋan 
സാംസൺ	saːm saɳ 
സായി	saː ji 
സായൂജ്	saː juː ɟə 
സാരംഗ്	saː ɾam ɡə 
സാരാഭായി	saː ɾaː bʱaː ji 
സാലമ്മ	saː la mma 
സാലി	saː li 
സാലിം	saː lim 
സാലിഹ	saː li ɦa 
സാലിഹ്	saː li ɦə 
സാലു	saː lu 
സാൽവെ	saːl ʋe 
സാവിത്രി	saː ʋi t̪ri 
സാവിത്രിയമ്മ	saː ʋi t̪ri ja mma 
സാവിയോ	saː ʋi joː 
സാഹ	saː ɦa 
സാഹിദ	saː ɦi d̪a 
സാഹിന	saː ɦi na 
സാഹിബ്	saː ɦi bə 
സാഹിർ	saː ɦir 
സാഹിറ	saː ɦi ra 
സാറ	saː ra 
സാറാ	saː raː 
സാറാക്കുട്ടി	saː raː kku ʈʈi 
സാറാബി	saː raː bi 
സാറാമ്മ	saː raː mma 
സാറു	saː ru 
സിങ്	si ŋə 
സിജ	si ɟa 
സിജി	si ɟi 
സിജിൻ	si ɟin 
സിജിമോൾ	si ɟi moːɭ 
സിജു	si ɟu 
സിജോ	si ɟoː 
സിഞ്ചു	si ɲt͡ʃu 
സിതാര	si t̪aː ɾa 
സിത്താര	si t̪t̪aː ɾa 
സിദ്ദിക്ക്	si d̪d̪i kkə 
സിദ്ദിഖ്	si d̪d̪i kʰə 
സിദ്ദീഖ്	si d̪d̪iː kʰə 
സിദ്ധാർത്ഥൻ	si d̪d̪ʱaːr t̪t̪ʰan 
സിദ്ധാർത്ഥ്	si d̪d̪ʱaːr t̪t̪ʰə 
സിദ്ധിക്ക്	si d̪d̪ʱi kkə 
സിദ്ധിഖ്	si d̪d̪ʱi kʰə 
സിദ്ധീഖ്	si d̪d̪ʱiː kʰə 
സിനാൻ	si naːn 
സിനി	si ni 
സിനിമോൾ	si ni moːɭ 
സിനീഷ്	si niː ʂə 
സിനു	si nu 
സിനോജ്	si noː ɟə 
സിന്ദു	si n̪d̪u 
സിന്ധു	si n̪d̪ʱu 
സിന്ധുകുമാരി	si n̪d̪ʱu ku maː ɾi 
സിന്ധുമോൾ	si n̪d̪ʱu moːɭ 
സിൻസി	sin si 
സിന്റോ	si nṯoː 
സിബൽ	si bal 
സിബി	si bi 
സിബിച്ചൻ	si bi t͡ʃt͡ʃan 
സിബിൻ	si bin 
സിബു	si bu 
സിമി	si mi 
സിംഗ്	sim ɡə 
സിംഘാള്‍	sim ɡʱaːɭ 
സിമ്മി	si mmi 
സിംല	sim la 
സിയാദ്	si jaː d̪ə 
സിയൂസ്	si juː sə 
സിൽജ	sil ɟa 
സിൽവി	sil ʋi 
സിവിക്	si ʋi kə 
സിസി	si si 
സിസിലി	si si li 
സിസ്റ്റർ	si sṯṯar 
സിറാജുദീൻ	si raː ɟu d̪iːn 
സിറാജുദ്ദീൻ	si raː ɟu d̪d̪iːn 
സിറാജുദ്ധീൻ	si raː ɟu d̪d̪ʱiːn 
സിറാജ്	si raː ɟə 
സിറിയക്	si ri ja kə 
സിറിയക്ക്	si ri ja kkə 
സിറിൽ	si ril 
സിറിൾ	si riɭ 
സീജ	siː ɟa 
സീത	siː t̪a 
സീതമ്മ	siː t̪a mma 
സീതാകുമാരി	siː t̪aː ku maː ɾi 
സീതാരാമൻ	siː t̪aː ɾaː man 
സീതാലക്ഷ്മി	siː t̪aː la kʂmi 
സീതാറാം	siː t̪aː raːm 
സീതി	siː t̪i 
സീന	siː na 
സീനത്ത്	siː na t̪t̪ə 
സീനാ	siː naː 
സീമ	siː ma 
സീമന്തിനി	siː ma n̪t̪i ni 
സുകന്യ	su ka nja 
സുകു	su ku 
സുകുമാരൻ	su ku maː ɾan 
സുകുമാരൻനായർ	su ku maː ɾan naː jar 
സുകുമാരപിള്ള	su ku maː ɾa pi ɭɭa 
സുകുമാരി	su ku maː ɾi 
സുകുമാരിയമ്മ	su ku maː ɾi ja mma 
സുകുമാർ	su ku maːr 
സുകേഷ്	su keː ʂə 
സുഖദ	su kʰa d̪a 
സുഗത	su ɡa t̪a 
സുഗതകുമാരി	su ɡa t̪a ku maː ɾi 
സുഗതൻ	su ɡa t̪an 
സുഗന്ധി	su ɡa n̪d̪ʱi 
സുഗുണ	su ɡu ɳa 
സുഗുണൻ	su ɡu ɳan 
സുഗേഷ്	su ɡeː ʂə 
സുഗ്രീവൻ	su ɡɾiː ʋan 
സുചിത്ര	su t͡ʃi t̪ra 
സുജ	su ɟa 
സുജന	su ɟa na 
സുജയ	su ɟa ja 
സുജയൻ	su ɟa jan 
സുജയ്	su ɟa jə 
സുജാ	su ɟaː 
സുജാത	su ɟaː t̪a 
സുജി	su ɟi 
സുജിത	su ɟi t̪a 
സുജിത്	su ɟi t̪ə 
സുജിത്ത്	su ɟi t̪t̪ə 
സുജിന	su ɟi na 
സുജിൻ	su ɟin 
സുജിഷ	su ɟi ʂa 
സുജീഷ്	su ɟiː ʂə 
സുജേഷ്	su ɟeː ʂə 
സുദർശനൻ	su d̪ar ʃa nan 
സുദർശൻ	su d̪ar ʃan 
സുദീപ്	su d̪iː pə 
സുദേവൻ	su d̪eː ʋan 
സുധ	su d̪ʱa 
സുധൻ	su d̪ʱan 
സുധർമ്മ	su d̪ʱar mma 
സുധർമ്മിണി	su d̪ʱar mmi ɳi 
സുധാ	su d̪ʱaː 
സുധാകരൻ	su d̪ʱaː ka ɾan 
സുധാകുമാരി	su d̪ʱaː ku maː ɾi 
സുധാദേവി	su d̪ʱaː d̪eː ʋi 
സുധാമണി	su d̪ʱaː ma ɳi 
സുധി	su d̪ʱi 
സുധിൻ	su d̪ʱin 
സുധീന്ദ്രൻ	su d̪ʱiː n̪d̪ɾan 
സുധീപ്	su d̪ʱiː pə 
സുധീരൻ	su d̪ʱiː ɾan 
സുധീർ	su d̪ʱiːr 
സുധീഷ്	su d̪ʱiː ʂə 
സുധീഷ്കുമാർ	su d̪ʱiː ʂku maːr 
സുനന്ദ	su na n̪d̪a 
സുനി	su ni 
സുനിജ	su ni ɟa 
സുനിത	su ni t̪a 
സുനിതകുമാരി	su ni t̪a ku maː ɾi 
സുനിമോൾ	su ni moːɭ 
സുനില	su ni la 
സുനിൽ	su nil 
സുനിൽകുമാർ	su nil ku maːr 
സുനിഷ	su ni ʂa 
സുനീത	su niː t̪a 
സുനീർ	su niːr 
സുനീഷ്	su niː ʂə 
സുനീറ	su niː ra 
സുനു	su nu 
സുനേഷ്	su neː ʂə 
സുനൈന	su nai̯ na 
സുനോജ്	su noː ɟə 
സുന്ദര	su n̪d̪a ɾa 
സുന്ദരൻ	su n̪d̪a ɾan 
സുന്ദരം	su n̪d̪a ɾam 
സുന്ദരി	su n̪d̪a ɾi 
സുന്ദരേശൻ	su n̪d̪a ɾeː ʃan 
സുന്ദർ	su n̪d̪ar 
സുപ്രഭ	su pra bʱa 
സുപ്രിയ	su pri ja 
സുഫൈറ	su fai̯ ra 
സുബാഷ്	su baː ʂə 
സുബി	su bi 
സുബിത	su bi t̪a 
സുബിന	su bi na 
സുബിൻ	su bin 
സുബിഷ	su bi ʂa 
സുബീന	su biː na 
സുബീഷ്	su biː ʂə 
സുബൈദ	su bai̯ d̪a 
സുബൈദാ	su bai̯ d̪aː 
സുബൈദാബീവി	su bai̯ d̪aː biː ʋi 
സുബൈർ	su bai̯r 
സുബ്ബലക്ഷ്മി	su bba la kʂmi 
സുബ്രൻ	su bran 
സുബ്രമണ്യൻ	su bra ma ɳjan 
സുബ്രഹ്മണ്യൻ	su bra ɦma ɳjan 
സുബ്രഹ്മണ്യം	su bra ɦma ɳjam 
സുഭദ്ര	su bʱa d̪ɾa 
സുഭദ്രയമ്മ	su bʱa d̪ɾa ja mma 
സുഭദ്രാമ്മ	su bʱa d̪ɾaː mma 
സുഭാഷിണി	su bʱaː ʂi ɳi 
സുഭാഷ്	su bʱaː ʂə 
സുഭാഷ്ചന്ദ്രബോസ്	su bʱaː ʂt͡ʃa n̪d̪ɾa boː sə 
സുമ	su ma 
സുമതി	su ma t̪i 
സുമതിക്കുട്ടിയമ്മ	su ma t̪i kku ʈʈi ja mma 
സുമതിയമ്മ	su ma t̪i ja mma 
സുമന	su ma na 
സുമൻ	su man 
സുമം	su mam 
സുമംഗല	su mam ɡa la 
സുമയ്യ	su ma jja 
സുമയ്യത്ത്	su ma jja t̪t̪ə 
സുമലത	su ma la t̪a 
സുമാദേവി	su maː d̪eː ʋi 
സുമി	su mi 
സുമിത	su mi t̪a 
സുമിത്ത്	su mi t̪t̪ə 
സുമിത്ര	su mi t̪ra 
സുമിന	su mi na 
സുമിൽ	su mil 
സുമിഷ	su mi ʂa 
സുമേശ്	su meː ʃə 
സുമേഷ്	su meː ʂə 
സുമോദ്	su moː d̪ə 
സുരജ	su ɾa ɟa 
സുരഭി	su ɾa bʱi 
സുരയ്യ	su ɾa jja 
സുരാജ്	su ɾaː ɟə 
സുരേഖ	su ɾeː kʰa 
സുരേന്ദ്രനാഥ്	su ɾeː n̪d̪ɾa naː t̪ʰə 
സുരേന്ദ്രൻ	su ɾeː n̪d̪ɾan 
സുരേശൻ	su ɾeː ʃan 
സുരേഷ്	su ɾeː ʂə 
സുരേഷ്കുമാർ	su ɾeː ʂku maːr 
സുരേഷ്ബാബു	su ɾeː ʂbaː bu 
സുർജിത്ത്	sur ɟi t̪t̪ə 
സുലജ	su la ɟa 
സുലത	su la t̪a 
സുലഭ	su la bʱa 
സുലേഖ	su leː kʰa 
സുലൈഖ	su lai̯ kʰa 
സുലൈഖാബീവി	su lai̯ kʰaː biː ʋi 
സുലൈമാൻ	su lai̯ maːn 
സുലോചന	su loː t͡ʃa na 
സുൽത്താന	sul t̪t̪aː na 
സുൽത്താൻ	sul t̪t̪aːn 
സുൽഫത്ത്	sul fa t̪t̪ə 
സുൽഫി	sul fi 
സുൽഫിക്കർ	sul fi kkar 
സുവർണ്ണ	su ʋar ɳɳa 
സുശീല	su ʃiː la 
സുശീലൻ	su ʃiː lan 
സുശീൽ	su ʃiːl 
സുഷ	su ʂa 
സുഷമ	su ʂa ma 
സുഷിൻ	su ʂin 
സുസുകി	su su ki 
സുസ്മിത	su smi t̪a 
സുഹറ	su ɦa ra 
സുഹറാബി	su ɦa raː bi 
സുഹറാബീവി	su ɦa raː biː ʋi 
സുഹാന	su ɦaː na 
സുഹാസിനി	su ɦaː si ni 
സുഹൈബ്	su ɦai̯ bə 
സുഹൈർ	su ɦai̯r 
സുഹൈല	su ɦai̯ la 
സുഹൈൽ	su ɦai̯l 
സുഹൈറ	su ɦai̯ ra 
സുഹ്റ	su ɦra 
സുഹ്റാബി	su ɦraː bi 
സുറുമി	su ru mi 
സൂപ്പി	suː ppi 
സൂരജ്	suː ɾa ɟə 
സൂര്യ	suː ɾja 
സൂര്യൻ	suː ɾjan 
സൂസൻ	suː san 
സൂസന്ന	suː sa nna 
സൂസമ്മ	suː sa mma 
സൂസി	suː si 
സെക്കീന	se kkiː na 
സെഫിയ	se fi ja 
സെബാസ്ററ്യൻ	se baː sra rjan 
സെബാസ്റ്റിൻ	se baː sṯṯin 
സെബാസ്റ്റൃൻ	se baː sṯṯrɨn 
സെബാസ്റ്റ്യൻ	se baː sṯṯjan 
സെബി	se bi 
സെബിൻ	se bin 
സെബീന	se biː na 
സെമീന	se miː na 
സെമീർ	se miːr 
സെമീറ	se miː ra 
സെയ്തലവി	se jt̪a la ʋi 
സെയ്താലി	se jt̪aː li 
സെയ്തു	se jt̪u 
സെയ്തുമുഹമ്മദ്	se jt̪u mu ɦa mma d̪ə 
സെയ്ത്	se jt̪ə 
സെയ്ദ്	se jd̪ə 
സെലിൻ	se lin 
സെലീന	se liː na 
സെൽമ	sel ma 
സെൽമത്ത്	sel ma t̪t̪ə 
സെൽവൻ	sel ʋan 
സെൽവം	sel ʋam 
സെൽവരാജ്	sel ʋa ɾaː ɟə 
സെൽവി	sel ʋi 
സെറിൻ	se rin 
സെറീന	se riː na 
സേതു	seː t̪u 
സേതുമാധവൻ	seː t̪u maː d̪ʱa ʋan 
സേതുലക്ഷ്മി	seː t̪u la kʂmi 
സേവ്യർ	seː ʋjar 
സേവ്യാർ	seː ʋjaːr 
സൈജു	sai̯ ɟu 
സൈതലവി	sai̯ t̪a la ʋi 
സൈതാലി	sai̯ t̪aː li 
സൈദലവി	sai̯ d̪a la ʋi 
സൈദ്	sai̯ d̪ə 
സൈന	sai̯ na 
സൈനബ	sai̯ na ba 
സൈനബാ	sai̯ na baː 
സൈനബാബീവി	sai̯ na baː biː ʋi 
സൈനബി	sai̯ na bi 
സൈനുദീൻ	sai̯ nu d̪iːn 
സൈനുദ്ദീൻ	sai̯ nu d̪d̪iːn 
സൈനുദ്ധീൻ	sai̯ nu d̪d̪ʱiːn 
സൈനുൽ	sai̯ nul 
സൈഫുദ്ദീൻ	sai̯ fu d̪d̪iːn 
സൈഫുന്നിസ	sai̯ fu n̪n̪i sa 
സൈഫുന്നീസ	sai̯ fu n̪n̪iː sa 
സൈബു	sai̯ bu 
സൈബുന്നിസ	sai̯ bu n̪n̪i sa 
സൈബുന്നീസ	sai̯ bu n̪n̪iː sa 
സൈമൺ	sai̯ maɳ 
സൈറ	sai̯ ra 
സൈറസ്	sai̯ ra sə 
സൈറാബാനു	sai̯ raː baː nu 
സൊമ്മർഫെൽഡ്	so mmar fel ɖə 
സോജ	soː ɟa 
സോജൻ	soː ɟan 
സോജി	soː ɟi 
സോണി	soː ɳi 
സോണിടാഗന്ധി	soː ɳi ʈaː ɡa n̪d̪ʱi 
സോണിയ	soː ɳi ja 
സോന	soː na 
സോനു	soː nu 
സോഫി	soː fi 
സോഫിയ	soː fi ja 
സോബി	soː bi 
സോബിൻ	soː bin 
സോമനാഥൻ	soː ma naː t̪ʰan 
സോമൻ	soː man 
സോമരാജൻ	soː ma ɾaː ɟan 
സോമലത	soː ma la t̪a 
സോമവല്ലി	soː ma ʋa lli 
സോമശേഖരൻ	soː ma ʃeː kʰa ɾan 
സോമസുന്ദരൻ	soː ma su n̪d̪a ɾan 
സോമി	soː mi 
സോമിനി	soː mi ni 
സോയ	soː ja 
സോളമൻ	soː ɭa man 
സോളി	soː ɭi 
സൗജത്ത്	sau̯ ɟa t̪t̪ə 
സൗദ	sau̯ d̪a 
സൗദത്ത്	sau̯ d̪a t̪t̪ə 
സൗദാബി	sau̯ d̪aː bi 
സൗദാബീവി	sau̯ d̪aː biː ʋi 
സൗദാമിനി	sau̯ d̪aː mi ni 
സൗബിൻ	sau̯ bin 
സൗമിനി	sau̯ mi ni 
സൗമ്യ	sau̯ mja 
സൗമ്യമോൾ	sau̯ mja moːɭ 
സൗമ്യാ	sau̯ mjaː 
സൗറ	sau̯ ra 
സ്കറിയ	ska ri ja 
സ്ക്കറിയ	skka ri ja 
സ്നേഹ	sneː ɦa 
സ്നേഹലത	sneː ɦa la t̪a 
സ്മിത	smi t̪a 
സ്മിതാ	smi t̪aː 
സ്മിത്ത്	smi t̪t̪ə 
സ്മൃതി	smrɨ t̪i 
സ്വദേശാഭിമാനി	sʋa d̪eː ʃaː bʱi maː ni 
സ്വപ്ന	sʋa pna 
സ്വപ്നപ്രഭ	sʋa pna pra bʱa 
സ്വയംപ്രഭ	sʋa jam pra bʱa 
സ്വരാജ്	sʋa ɾaː ɟə 
സ്വരൂപ്	sʋa ɾuː pə 
സ്വർണ്ണമ്മ	sʋar ɳɳa mma 
സ്വർണ്ണലത	sʋar ɳɳa la t̪a 
സ്വാതി	sʋaː t̪i 
സ്വാമി	sʋaː mi 
സ്വാമിനാഥൻ	sʋaː mi naː t̪ʰan 
സ്വാലിഹ്	sʋaː li ɦə 
സ്റ്റാൻലി	sṯṯaːn li 
സ്റ്റാലിൻ	sṯṯaː lin 
സ്റ്റാൾമാൻ	sṯṯaːɭ maːn 
സ്റ്റീഫൻ	sṯṯiː fan 
സ്റ്റെഫാൻ	sṯṯe faːn 
സ്റ്റെഫി	sṯṯe fi 
സ്റ്റെഫിൻ	sṯṯe fin 
സ്റ്റെല്ല	sṯṯe lla 
ഹക്കിം	ɦa kkim 
ഹക്കീം	ɦa kkiːm 
ഹഖ്	ɦa kʰə 
ഹഡ്സൺ	ɦa ɖsaɳ 
ഹണി	ɦa ɳi 
ഹനാൻ	ɦa naːn 
ഹനീഫ	ɦa niː fa 
ഹനീഫ്	ɦa niː fə 
ഹനീഷ്	ɦa niː ʂə 
ഹന്ന	ɦa n̪n̪a 
ഹന്നത്ത്	ɦa n̪n̪a t̪t̪ə 
ഹഫ്	ɦa fə 
ഹഫ്സ	ɦa fsa 
ഹഫ്സത്ത്	ɦa fsa t̪t̪ə 
ഹബീബ	ɦa biː ba 
ഹബീബ്	ɦa biː bə 
ഹമീദ്	ɦa miː d̪ə 
ഹംസ	ɦam sa 
ഹംസക്കുട്ടി	ɦam sa kku ʈʈi 
ഹംസക്കോയ	ɦam sa kkoː ja 
ഹംസത്ത്	ɦam sa t̪t̪ə 
ഹയറുന്നിസ	ɦa ja ru n̪n̪i sa 
ഹരി	ɦa ɾi 
ഹരികുമാർ	ɦa ɾi ku maːr 
ഹരികൃഷ്ണൻ	ɦa ɾi krɨ ʂɳan 
ഹരിത	ɦa ɾi t̪a 
ഹരിദാസൻ	ɦa ɾi d̪aː san 
ഹരിദാസ്	ɦa ɾi d̪aː sə 
ഹരിനാഥ്	ɦa ɾi naː t̪ʰə 
ഹരിനാരായണൻ	ɦa ɾi naː ɾaː ja ɳan 
ഹരിപ്രസാദ്	ɦa ɾi pra saː d̪ə 
ഹരിപ്രിയ	ɦa ɾi pri ja 
ഹരിലാൽ	ɦa ɾi laːl 
ഹരിശങ്കർ	ɦa ɾi ʃa ŋkar 
ഹരിഹരൻ	ɦa ɾi ɦa ɾan 
ഹരീന്ദ്രനാഥ്	ɦa ɾiː n̪d̪ɾa naː t̪ʰə 
ഹരീന്ദ്രൻ	ɦa ɾiː n̪d̪ɾan 
ഹരീഷ്	ɦa ɾiː ʂə 
ഹരീഷ്കുമാർ	ɦa ɾiː ʂku maːr 
ഹർഷ	ɦar ʂa 
ഹർഷൻ	ɦar ʂan 
ഹർഷാദ്	ɦar ʂaː d̪ə 
ഹലീമ	ɦa liː ma 
ഹസനത്ത്	ɦa sa na t̪t̪ə 
ഹസൻ	ɦa san 
ഹസീന	ɦa siː na 
ഹസീബ	ɦa siː ba 
ഹസീബ്	ɦa siː bə 
ഹസൈനാർ	ɦa sai̯ naːr 
ഹസ്ന	ɦa sna 
ഹസ്നത്ത്	ɦa sna t̪t̪ə 
ഹസ്രത്ത്	ɦa sra t̪t̪ə 
ഹസ്സൻ	ɦa ssan 
ഹസ്സൻകുട്ടി	ɦa ssan ku ʈʈi 
ഹാജറ	ɦaː ɟa ra 
ഹാജറുമ്മ	ɦaː ɟa ru mma 
ഹാജി	ɦaː ɟi 
ഹാജിറ	ɦaː ɟi ra 
ഹാൻസ്	ɦaːn sə 
ഹാഫിസ്	ɦaː fi sə 
ഹാരി	ɦaː ɾi 
ഹാരിഫ	ɦaː ɾi fa 
ഹാരിഷ്	ɦaː ɾi ʂə 
ഹാരിസ്	ɦaː ɾi sə 
ഹാരീസ്	ɦaː ɾiː sə 
ഹാഷിം	ɦaː ʂim 
ഹാഷിർ	ɦaː ʂir 
ഹാറൂൺ	ɦaː ruːɳ 
ഹിത	ɦi t̪a 
ഹിബ	ɦi ba 
ഹിമ	ɦi ma 
ഹിരൺ	ɦi ɾaɳ 
ഹിഷാം	ɦi ʂaːm 
ഹിസാന	ɦi saː na 
ഹുസൈൻ	ɦu sai̯n 
ഹുസ്ന	ɦu sna 
ഹുസ്സൈൻ	ɦu ssai̯n 
ഹൃദ്യ	ɦrɨ d̪ja 
ഹെഗ്ഡേ	ɦe ɡɖeː 
ഹെൻട്രി	ɦen ʈri 
ഹെൻറി	ɦen ri 
ഹെൻറിച്ച്	ɦen ri t͡ʃt͡ʃə 
ഹെർട്സ്	ɦer ʈsə 
ഹെലൻ	ɦe lan 
ഹെറോഡോട്ടസ്	ɦe roː ɖoː ʈʈa sə 
ഹേമ	ɦeː ma 
ഹേമന്ത്	ɦeː ma n̪t̪ə 
ഹേമലത	ɦeː ma la t̪a 
ഹൈദർ	ɦai̯ d̪ar 
ഹൈദ്രു	ɦai̯ d̪ɾu 
ഹൈദ്രോസ്	ɦai̯ d̪ɾoː sə 
ഹൈന	ɦai̯ na 
ഹൈമവതി	ɦai̯ ma ʋa t̪i 
ഹൈമാവതി	ɦai̯ maː ʋa t̪i 
ഹൈവേ	ɦai̯ ʋeː 
ഹൈറുന്നിസ	ɦai̯ ru n̪n̪i sa 
ഹൈറുന്നീസ	ɦai̯ ru n̪n̪iː sa 
റജി	ra ɟi 
റജിന	ra ɟi na 
റജിമോൻ	ra ɟi moːn 
റജില	ra ɟi la 
റജീന	ra ɟiː na 
റജുല	ra ɟu la 
റജ്ന	ra ɟn̪a 
റനീഷ്	ra niː ʂə 
റപ്പായി	ra ppaː ji 
റഫീക്	ra fiː kə 
റഫീക്ക	ra fiː kka 
റഫീക്ക്	ra fiː kkə 
റഫീഖ്	ra fiː kʰə 
റഫീന	ra fiː na 
റബേക്ക	ra beː kka 
റമീസ	ra miː sa 
റമീസ്	ra miː sə 
റമ്പാൻ	ra mpaːn 
റംല	ram la 
റംലത്ത്	ram la t̪t̪ə 
റംലാ	ram laː 
റംലാബീവി	ram laː biː ʋi 
റംഷാദ്	ram ʂaː d̪ə 
റംഷീദ്	ram ʂiː d̪ə 
റംഷീന	ram ʂiː na 
റംസി	ram si 
റംസിയ	ram si ja 
റംസീന	ram siː na 
റയീസ്	ra jiː sə 
റഷാദ്	ra ʂaː d̪ə 
റഷീദ	ra ʂiː d̪a 
റഷീദാ	ra ʂiː d̪aː 
റഷീദാബീവി	ra ʂiː d̪aː biː ʋi 
റഷീദ്	ra ʂiː d̪ə 
റഷീന	ra ʂiː na 
റസൽ	ra sal 
റസാക്	ra saː kə 
റസാക്ക്	ra saː kkə 
റസാഖ്	ra saː kʰə 
റസിയ	ra si ja 
റസിയാബി	ra si jaː bi 
റസീന	ra siː na 
റഹിമാൻ	ra ɦi maːn 
റഹിം	ra ɦim 
റഹിയാനത്ത്	ra ɦi jaː na t̪t̪ə 
റഹീന	ra ɦiː na 
റഹീമ	ra ɦiː ma 
റഹീം	ra ɦiːm 
റഹീസ്	ra ɦiː sə 
റഹുമത്ത്	ra ɦu ma t̪t̪ə 
റഹുമാൻ	ra ɦu maːn 
റഹൂഫ്	ra ɦuː fə 
റഹ്	ra ɦə 
റഹ്മത്തുന്നീസ	ra ɦma t̪t̪u n̪n̪iː sa 
റഹ്മത്തുള്ള	ra ɦma t̪t̪u ɭɭa 
റഹ്മത്ത്	ra ɦma t̪t̪ə 
റഹ്‌മാൻ	ra ɦ maːn 
റഹ്മാൻ	ra ɦmaːn 
റാണി	raː ɳi 
റാനാഡേ	raː naː ɖeː 
റാഫി	raː fi 
റാഫിയ	raː fi ja 
റാഫേൽ	raː feːl 
റാബി	raː bi 
റാബിയ	raː bi ja 
റാം	raːm 
റായ്	raː jə 
റായ്ചൗധരി	raː jt͡ʃau̯ d̪ʱa ɾi 
റാവു	raː ʋu 
റാവുത്തർ	raː ʋu t̪t̪ar 
റാഷിദ	raː ʂi d̪a 
റാഷിദ്	raː ʂi d̪ə 
റാഷ്	raː ʂə 
റാസി	raː si 
റാസിക്ക്	raː si kkə 
റാസിഖ്	raː si kʰə 
റാഹില	raː ɦi la 
റാഹേലമ്മ	raː ɦeː la mma 
റാഹേൽ	raː ɦeːl 
റിങ്കു	ri ŋku 
റിച്ചാർഡ്	ri t͡ʃt͡ʃaːr ɖə 
റിച്ചാർഡ്സൺ	ri t͡ʃt͡ʃaːr ɖsaɳ 
റിജാസ്	ri ɟaː sə 
റിജി	ri ɟi 
റിജിൻ	ri ɟin 
റിജു	ri ɟu 
റിജേഷ്	ri ɟeː ʂə 
റിജോ	ri ɟoː 
റിജോയ്	ri ɟoː jə 
റിനി	ri ni 
റിനീഷ്	ri niː ʂə 
റിനു	ri nu 
റിൻഷ	rin ʂa 
റിൻഷാദ്	rin ʂaː d̪ə 
റിൻസി	rin si 
റിന്റു	ri nṯu 
റിന്റോ	ri nṯoː 
റിയ	ri ja 
റിയാസുദ്ദീൻ	ri jaː su d̪d̪iːn 
റിയാസ്	ri jaː sə 
റിഷാദ്	ri ʂaː d̪ə 
റിഷാന	ri ʂaː na 
റിസാന	ri saː na 
റിസ്	ri sə 
റിസ്വാന	ri sʋaː na 
റിസ്‌വാൻ	ri s ʋaːn 
റിസ്വാൻ	ri sʋaːn 
റീജ	riː ɟa 
റീത്ത	riː t̪t̪a 
റീത്താമ്മ	riː t̪t̪aː mma 
റീന	riː na 
റീനാ	riː naː 
റീനു	riː nu 
റീബ	riː ba 
റീമ	riː ma 
റീഷ്മ	riː ʂma 
റുക്കിയ	ru kki ja 
റുക്കിയാബീവി	ru kki jaː biː ʋi 
റുക്സാന	ru ksaː na 
റുഖിയ	ru kʰi ja 
റുഖിയ്യ	ru kʰi jja 
റുഡോൾഫ്	ru ɖoːɭ fə 
റുബീന	ru biː na 
റൂബി	ruː bi 
റൂസ്‌വെൽറ്റ്	ruː s ʋel ṯṯə 
റെജി	re ɟi 
റെജിമോൻ	re ɟi moːn 
റെജിമോൾ	re ɟi moːɭ 
റെജീന	re ɟiː na 
റെനി	re ni 
റെനീഷ്	re niː ʂə 
റെന്നി	re n̪n̪i 
റെൻസി	ren si 
റെയ്ച്ചൽ	re jt͡ʃt͡ʃal 
റെയ്ന	re jn̪a 
റെഹന	re ɦa na 
റേച്ചൽ	reː t͡ʃt͡ʃal 
റൈ	rai̯ 
റൈഹാന	rai̯ ɦaː na 
റൈഹാനത്ത്	rai̯ ɦaː na t̪t̪ə 
റോക്കി	roː kki 
റോജ	roː ɟa 
റോജി	roː ɟi 
റോണി	roː ɳi 
റോബർട്ട്	roː bar ʈʈə 
റോബി	roː bi 
റോബിൻ	roː bin 
റോബിൻസൺ	roː bin saɳ 
റോബിൻസ്	roː bin sə 
റോയി	roː ji 
റോയ്	roː jə 
റോയ്സൺ	roː jsaɳ 
റോഷൻ	roː ʂan 
റോഷിൻ	roː ʂin 
റോഷ്ന	roː ʂn̪a 
റോഷ്നി	roː ʂn̪i 
റോസ	roː sa 
റോസക്കുട്ടി	roː sa kku ʈʈi 
റോസമ്മ	roː sa mma 
റോസി	roː si 
റോസിലി	roː si li 
റോസ്	roː sə 
റോസ്ബെൽ	roː sbel 
റോസ്മി	roː smi 
റോസ്മേരി	roː smeː ɾi 
റോസ്ലി	roː sli 
റൗഫ്	rau̯ fə 
റ്റിജോ	ṯṯi ɟoː 
റ്റിനു	ṯṯi nu 
റ്റിൻസി	ṯṯin si 
റ്റിന്റു	ṯṯi nṯu 
റ്റീന	ṯṯiː na 
റ്റെസി	ṯṯe si 
റ്റൈറ്റസ്	ṯṯai̯ ṯṯa sə 
റ്റോണി	ṯṯoː ɳi 
റ്റോമി	ṯṯoː mi 
റ്റോം	ṯṯoːm 
