അതു	a t̪ u 
അതു്	a t̪ ə 
അത്	a t̪ ə 
അദ്ദേഹം	a d̪ d̪ eː ɦ a m 
അയാൾ	a j aː ɭ 
അവ	a ʋ a 
അവൻ	a ʋ a n 
അവർ	a ʋ a r 
അവൾ	a ʋ a ɭ 
അവറ്റ	a ʋ a ṯ ṯ a 
ഇതു	i t̪ u 
ഇതു്	i t̪ ə 
ഇത്	i t̪ ə 
ഇദ്ദേഹം	i d̪ d̪ eː ɦ a m 
ഇവ	i ʋ a 
ഇവൻ	i ʋ a n 
ഇവർ	i ʋ a r 
ഇവൾ	i ʋ a ɭ 
ഇവറ്റ	i ʋ a ṯ ṯ a 
എന്നിവ	e n̪ n̪ i ʋ a 
എല്ലാവരും	e l l aː ʋ a ɾ u m 
ഏവർ	eː ʋ a r 
ഓൻ	oː n 
ഓർ	oː r 
ഓൾ	oː ɭ 
ചിലത്	t͡ʃ i l a t̪ ə 
ചിലർ	t͡ʃ i l a r 
ചിലവ	t͡ʃ i l a ʋ a 
ഞാൻ	ɲ aː n 
തങ്ങൾ	t̪ a ŋ ŋ a ɭ 
തൻ	t̪ a n 
താങ്കൾ	t̪ aː ŋ k a ɭ 
താൻ	t̪ aː n 
നാം	n̪ aː m 
നിൻ	n̪ i n 
നീ	n̪ iː 
നോം	n̪ oː m 
മുതലായവ	m u t̪ a l aː j a ʋ a 
അൽകാടെൽ	a l k aː ʈ e l 
ആൻഡ്രോയ്ഡ്	aː n ɖ r oː j ɖ ə 
ആപ്പിൾ	aː p p i ɭ 
ആമസോൺ	aː m a s oː ɳ 
ഇൻഫ്ലിബ്നെറ്റ്	i n f l i b n̪ e ṯ ṯ ə 
ഈഡിസ്	iː ɖ i s ə 
ഈബേ	iː b eː 
ഉബുണ്ടു	u b u ɳ ʈ u 
എയർടെൽ	e j a r ʈ e l 
എയർസെൽ	e j a r s e l 
ഏഷ്യാനെറ്റ്	eː ʂ j aː n e ṯ ṯ ə 
ഏസർ	eː s a r 
ഐട്യൂൺസ്	ai̯ ʈ j uː ɳ s ə 
ഒപ്പോ	o p p oː 
കമ്പനി	k a m p a n i 
കിങ്സ്	k i ŋ s ə 
കിൻഡിൽ	k i n ɖ i l 
കുന്നിൽ	k u n̪ n̪ i l 
കൊറോണ	k o r oː ɳ a 
കോവിഡ്	k oː ʋ i ɖ ə 
ഖുർആൻ	kʰ u r aː n 
ഗുനിയ	ɡ u n i j a 
ഗൂഗിൾ	ɡ uː ɡ i ɭ 
ഗോദ്റെജ്	ɡ oː d̪ r e ɟ ə 
ചിക്കുൻ	t͡ʃ i k k u n 
ജാവാസ്ക്രിപ്റ്റ്	ɟ aː ʋ aː s k r i p ṯ ṯ ə 
ജിയോ	ɟ i j oː 
ടെന്നിസ്	ʈ e n̪ n̪ i s ə 
ടെസ്‌ല	ʈ e s l a 
ടൈംസ്	ʈ ai̯ m s ə 
ട്വിറ്റർ	ʈ ʋ i ṯ ṯ a r 
ഡെൽ	ɖ e l 
ഡോക്കോമോ	ɖ oː k k oː m oː 
നിപ്പ	n̪ i p p a 
നോബൽ	n̪ oː b a l 
പനാമ	p a n aː m a 
പാനസോണിക്	p aː n a s oː ɳ i k ə 
പിയേഴ്സ്	p i j eː ɻ s ə 
പ്ലേ	p l eː 
ഫേസ്ബുക്ക്	f eː s b u k k ə 
ഫ്ലിപ്കാർട്ട്	f l i p k aː r ʈ ʈ ə 
ബൈദു	b ai̯ d̪ u 
ബോയിംഗ്	b oː j i m ɡ ə 
മാരുതി	m aː ɾ u t̪ i 
മാർക്സിസം	m aː r k s i s a m 
മീഡിയനാമ	m iː ɖ i j a n aː m a 
മൈക്രോസോഫ്റ്റ്	m ai̯ k r oː s oː f ṯ ṯ ə 
യാൻഡെക്സ്	j aː n ɖ e k s ə 
യാഹൂ	j aː ɦ uː 
യൂട്യൂബ്	j uː ʈ j uː b ə 
യൂണിക്സ്	j uː ɳ i k s ə 
ലെനോവോ	l e n oː ʋ oː 
ലോജിടെക്	l oː ɟ i ʈ e k ə 
വിക്കിഗ്രന്ഥശാല	ʋ i k k i ɡ ɾ a n̪ t̪ʰ a ʃ aː l a 
വിക്കിപീഡിയ	ʋ i k k i p iː ɖ i j a 
വിക്കിമീഡിയ	ʋ i k k i m iː ɖ i j a 
വിക്ഷണറി	ʋ i k ʂ a ɳ a r i 
വിൽസ്	ʋ i l s ə 
വിവോ	ʋ i ʋ oː 
വീഡിയോകോൺ	ʋ iː ɖ i j oː k oː ɳ 
വൊഡാഫോൺ	ʋ o ɖ aː f oː ɳ 
ശിവസേന	ʃ i ʋ a s eː n a 
ഷവോമി	ʂ a ʋ oː m i 
ഷെൽ	ʂ e l 
സഹ്യപർവ്വതം	s a ɦ j a p a r ʋ ʋ a t̪ a m 
സഹ്യാദ്രി	s a ɦ j aː d̪ ɾ i 
സൾഫർ	s a ɭ f a r 
സാൻസുയ്	s aː n s u j ə 
സാംസങ്ങ്	s aː m s a ŋ ŋ ə 
സിക്ക	s i k k a 
സുസുക്കി	s u s u k k i 
സെല്ലോ	s e l l oː 
ഹൈക്കോടതി	ɦ ai̯ k k oː ʈ a t̪ i 
ഹോണ്ട	ɦ oː ɳ ʈ a 
റിലയൻസ്	r i l a j a n s ə 
റെമിങ്ങ്ടൺ	r e m i ŋ ŋ ʈ a ɳ 
റ്റ്വിറ്റർ	ṯ ṯ ʋ i ṯ ṯ a r 
